GFORTRAN module version '0' created from /home/csic/gim/drp/DE_experiments/paralleltestbed_CURRENT/src/method_module_fortran/common_functions.f90 on Mon Feb 23 14:11:33 2015
MD5:d2e55f7e71d2cdf82957487733b84f57 -- If you edit this, you'll get what you deserve.

(() () () () () () () () () () () () () () () () () () () () ()
() () () () () ())

()

()

()

()

(2 '__iso_c_binding' '__iso_c_binding' '__iso_c_binding' 1 ((MODULE
UNKNOWN-INTENT UNKNOWN-PROC UNKNOWN UNKNOWN INTRINSIC) (UNKNOWN 0 0 0
UNKNOWN ()) 0 0 () () 0 () () () 2 0)
3 'abs_matrix' 'common_functions' 'abs_matrix' 1 ((PROCEDURE
UNKNOWN-INTENT MODULE-PROC DECL UNKNOWN ALLOCATABLE DIMENSION FUNCTION
ALWAYS_EXPLICIT) (REAL 8 0 0 REAL ()) 4 0 (5) (2 DEFERRED () () () ()) 6
() () () 0 0)
7 'all_positive' 'common_functions' 'all_positive' 1 ((PROCEDURE
UNKNOWN-INTENT MODULE-PROC DECL UNKNOWN SUBROUTINE ALWAYS_EXPLICIT) (
UNKNOWN 0 0 0 UNKNOWN ()) 8 0 (9) () 0 () () () 0 0)
10 'auxprecisin' 'scattersearchtypes' 'auxprecisin' 1 ((PARAMETER
UNKNOWN-INTENT UNKNOWN-PROC UNKNOWN IMPLICIT-SAVE) (REAL 8 0 0 REAL ())
0 0 () (CONSTANT (REAL 8 0 0 REAL ()) 0 '0.27100000000000@4') () 0 () ()
() 0 0)
11 'c_alert' '__iso_c_binding' '' 1 ((PARAMETER UNKNOWN-INTENT
UNKNOWN-PROC UNKNOWN UNKNOWN IS_C_INTEROP IS_ISO_C) (CHARACTER 1 1 1
CHARACTER ((CONSTANT (INTEGER 4 0 0 INTEGER ()) 0 '1'))) 0 0 () (
CONSTANT (CHARACTER 1 1 1 UNKNOWN (())) 0 1 '\U00000007') () 0 () () ()
2 32)
12 'c_associated' '__iso_c_binding' '__iso_c_binding_c_associated' 1 ((
PROCEDURE UNKNOWN-INTENT MODULE-PROC DECL UNKNOWN FUNCTION
ALWAYS_EXPLICIT IS_ISO_C) (LOGICAL 4 0 0 LOGICAL ()) 13 0 (14 15) () 12
() () () 2 44)
16 'c_backspace' '__iso_c_binding' '' 1 ((PARAMETER UNKNOWN-INTENT
UNKNOWN-PROC UNKNOWN UNKNOWN IS_C_INTEROP IS_ISO_C) (CHARACTER 1 1 1
CHARACTER ((CONSTANT (INTEGER 4 0 0 INTEGER ()) 0 '1'))) 0 0 () (
CONSTANT (CHARACTER 1 1 1 UNKNOWN (())) 0 1 '\U00000008') () 0 () () ()
2 33)
17 'c_bool' '__iso_c_binding' '' 1 ((PARAMETER UNKNOWN-INTENT
UNKNOWN-PROC UNKNOWN UNKNOWN IS_C_INTEROP IS_ISO_C) (INTEGER 4 1 1
LOGICAL ()) 0 0 () (CONSTANT (INTEGER 4 1 1 UNKNOWN ()) 0 '1') () 0 () ()
() 2 29)
18 'c_carriage_return' '__iso_c_binding' '' 1 ((PARAMETER UNKNOWN-INTENT
UNKNOWN-PROC UNKNOWN UNKNOWN IS_C_INTEROP IS_ISO_C) (CHARACTER 1 1 1
CHARACTER ((CONSTANT (INTEGER 4 0 0 INTEGER ()) 0 '1'))) 0 0 () (
CONSTANT (CHARACTER 1 1 1 UNKNOWN (())) 0 1 '\U0000000d') () 0 () () ()
2 36)
19 'c_char' '__iso_c_binding' '' 1 ((PARAMETER UNKNOWN-INTENT
UNKNOWN-PROC UNKNOWN UNKNOWN IS_C_INTEROP IS_ISO_C) (INTEGER 4 1 1
CHARACTER ()) 0 0 () (CONSTANT (INTEGER 4 1 1 UNKNOWN ()) 0 '1') () 0 ()
() () 2 30)
20 'c_double' '__iso_c_binding' '' 1 ((PARAMETER UNKNOWN-INTENT
UNKNOWN-PROC UNKNOWN UNKNOWN IS_C_INTEROP IS_ISO_C) (INTEGER 4 1 1 REAL
()) 0 0 () (CONSTANT (INTEGER 4 1 1 UNKNOWN ()) 0 '8') () 0 () () () 2
24)
21 'c_double_complex' '__iso_c_binding' '' 1 ((PARAMETER UNKNOWN-INTENT
UNKNOWN-PROC UNKNOWN UNKNOWN IS_C_INTEROP IS_ISO_C) (INTEGER 4 1 1
COMPLEX ()) 0 0 () (CONSTANT (INTEGER 4 1 1 UNKNOWN ()) 0 '8') () 0 () ()
() 2 27)
22 'c_f_pointer' '__iso_c_binding' '__iso_c_binding_c_f_pointer' 1 ((
PROCEDURE UNKNOWN-INTENT MODULE-PROC DECL UNKNOWN SUBROUTINE
ALWAYS_EXPLICIT IS_ISO_C) (UNKNOWN 0 0 0 UNKNOWN ()) 23 0 (24 25 26) ()
0 () () () 2 43)
27 'c_f_procpointer' '__iso_c_binding' '__iso_c_binding_c_f_procpointer'
1 ((PROCEDURE UNKNOWN-INTENT MODULE-PROC DECL UNKNOWN SUBROUTINE
IS_ISO_C) (UNKNOWN 0 0 0 UNKNOWN ()) 28 0 (29 30) () 0 () () () 2 47)
31 'c_float' '__iso_c_binding' '' 1 ((PARAMETER UNKNOWN-INTENT
UNKNOWN-PROC UNKNOWN UNKNOWN IS_C_INTEROP IS_ISO_C) (INTEGER 4 1 1 REAL
()) 0 0 () (CONSTANT (INTEGER 4 1 1 UNKNOWN ()) 0 '4') () 0 () () () 2
23)
32 'c_float_complex' '__iso_c_binding' '' 1 ((PARAMETER UNKNOWN-INTENT
UNKNOWN-PROC UNKNOWN UNKNOWN IS_C_INTEROP IS_ISO_C) (INTEGER 4 1 1
COMPLEX ()) 0 0 () (CONSTANT (INTEGER 4 1 1 UNKNOWN ()) 0 '4') () 0 () ()
() 2 26)
33 'c_form_feed' '__iso_c_binding' '' 1 ((PARAMETER UNKNOWN-INTENT
UNKNOWN-PROC UNKNOWN UNKNOWN IS_C_INTEROP IS_ISO_C) (CHARACTER 1 1 1
CHARACTER ((CONSTANT (INTEGER 4 0 0 INTEGER ()) 0 '1'))) 0 0 () (
CONSTANT (CHARACTER 1 1 1 UNKNOWN (())) 0 1 '\U0000000c') () 0 () () ()
2 34)
34 'c_funloc' '__iso_c_binding' '__iso_c_binding_c_funloc' 1 ((
PROCEDURE UNKNOWN-INTENT UNKNOWN-PROC UNKNOWN UNKNOWN EXTERNAL PURE
IS_ISO_C) (DERIVED 35 0 0 DERIVED ()) 0 0 () () 34 () () () 2 46)
35 'c_funptr' '__iso_c_binding' '' 1 ((DERIVED UNKNOWN-INTENT
UNKNOWN-PROC UNKNOWN UNKNOWN IS_BIND_C IS_C_INTEROP IS_ISO_C) (DERIVED
35 1 1 UNKNOWN ()) 0 0 () () 0 ((36 '__c_funptr_c_address' (INTEGER 8 1
0 INTEGER ()) () (UNKNOWN-FL UNKNOWN-INTENT UNKNOWN-PROC UNKNOWN UNKNOWN)
UNKNOWN-ACCESS ())) UNKNOWN-ACCESS () () 2 41)
37 'c_horizontal_tab' '__iso_c_binding' '' 1 ((PARAMETER UNKNOWN-INTENT
UNKNOWN-PROC UNKNOWN UNKNOWN IS_C_INTEROP IS_ISO_C) (CHARACTER 1 1 1
CHARACTER ((CONSTANT (INTEGER 4 0 0 INTEGER ()) 0 '1'))) 0 0 () (
CONSTANT (CHARACTER 1 1 1 UNKNOWN (())) 0 1 '\U00000009') () 0 () () ()
2 37)
38 'c_int' '__iso_c_binding' '' 1 ((PARAMETER UNKNOWN-INTENT
UNKNOWN-PROC UNKNOWN UNKNOWN IS_C_INTEROP IS_ISO_C) (INTEGER 4 1 1
INTEGER ()) 0 0 () (CONSTANT (INTEGER 4 1 1 UNKNOWN ()) 0 '4') () 0 () ()
() 2 0)
39 'c_int128_t' '__iso_c_binding' '' 1 ((PARAMETER UNKNOWN-INTENT
UNKNOWN-PROC UNKNOWN UNKNOWN IS_C_INTEROP IS_ISO_C) (INTEGER 4 1 1
INTEGER ()) 0 0 () (CONSTANT (INTEGER 4 1 1 UNKNOWN ()) 0 '16') () 0 ()
() () 2 12)
40 'c_int16_t' '__iso_c_binding' '' 1 ((PARAMETER UNKNOWN-INTENT
UNKNOWN-PROC UNKNOWN UNKNOWN IS_C_INTEROP IS_ISO_C) (INTEGER 4 1 1
INTEGER ()) 0 0 () (CONSTANT (INTEGER 4 1 1 UNKNOWN ()) 0 '2') () 0 () ()
() 2 9)
41 'c_int32_t' '__iso_c_binding' '' 1 ((PARAMETER UNKNOWN-INTENT
UNKNOWN-PROC UNKNOWN UNKNOWN IS_C_INTEROP IS_ISO_C) (INTEGER 4 1 1
INTEGER ()) 0 0 () (CONSTANT (INTEGER 4 1 1 UNKNOWN ()) 0 '4') () 0 () ()
() 2 10)
42 'c_int64_t' '__iso_c_binding' '' 1 ((PARAMETER UNKNOWN-INTENT
UNKNOWN-PROC UNKNOWN UNKNOWN IS_C_INTEROP IS_ISO_C) (INTEGER 4 1 1
INTEGER ()) 0 0 () (CONSTANT (INTEGER 4 1 1 UNKNOWN ()) 0 '8') () 0 () ()
() 2 11)
43 'c_int8_t' '__iso_c_binding' '' 1 ((PARAMETER UNKNOWN-INTENT
UNKNOWN-PROC UNKNOWN UNKNOWN IS_C_INTEROP IS_ISO_C) (INTEGER 4 1 1
INTEGER ()) 0 0 () (CONSTANT (INTEGER 4 1 1 UNKNOWN ()) 0 '1') () 0 () ()
() 2 8)
44 'c_int_fast128_t' '__iso_c_binding' '' 1 ((PARAMETER UNKNOWN-INTENT
UNKNOWN-PROC UNKNOWN UNKNOWN IS_C_INTEROP IS_ISO_C) (INTEGER 4 1 1
INTEGER ()) 0 0 () (CONSTANT (INTEGER 4 1 1 UNKNOWN ()) 0 '-2') () 0 ()
() () 2 22)
45 'c_int_fast16_t' '__iso_c_binding' '' 1 ((PARAMETER UNKNOWN-INTENT
UNKNOWN-PROC UNKNOWN UNKNOWN IS_C_INTEROP IS_ISO_C) (INTEGER 4 1 1
INTEGER ()) 0 0 () (CONSTANT (INTEGER 4 1 1 UNKNOWN ()) 0 '-2') () 0 ()
() () 2 19)
46 'c_int_fast32_t' '__iso_c_binding' '' 1 ((PARAMETER UNKNOWN-INTENT
UNKNOWN-PROC UNKNOWN UNKNOWN IS_C_INTEROP IS_ISO_C) (INTEGER 4 1 1
INTEGER ()) 0 0 () (CONSTANT (INTEGER 4 1 1 UNKNOWN ()) 0 '-2') () 0 ()
() () 2 20)
47 'c_int_fast64_t' '__iso_c_binding' '' 1 ((PARAMETER UNKNOWN-INTENT
UNKNOWN-PROC UNKNOWN UNKNOWN IS_C_INTEROP IS_ISO_C) (INTEGER 4 1 1
INTEGER ()) 0 0 () (CONSTANT (INTEGER 4 1 1 UNKNOWN ()) 0 '-2') () 0 ()
() () 2 21)
48 'c_int_fast8_t' '__iso_c_binding' '' 1 ((PARAMETER UNKNOWN-INTENT
UNKNOWN-PROC UNKNOWN UNKNOWN IS_C_INTEROP IS_ISO_C) (INTEGER 4 1 1
INTEGER ()) 0 0 () (CONSTANT (INTEGER 4 1 1 UNKNOWN ()) 0 '-2') () 0 ()
() () 2 18)
49 'c_int_least128_t' '__iso_c_binding' '' 1 ((PARAMETER UNKNOWN-INTENT
UNKNOWN-PROC UNKNOWN UNKNOWN IS_C_INTEROP IS_ISO_C) (INTEGER 4 1 1
INTEGER ()) 0 0 () (CONSTANT (INTEGER 4 1 1 UNKNOWN ()) 0 '16') () 0 ()
() () 2 17)
50 'c_int_least16_t' '__iso_c_binding' '' 1 ((PARAMETER UNKNOWN-INTENT
UNKNOWN-PROC UNKNOWN UNKNOWN IS_C_INTEROP IS_ISO_C) (INTEGER 4 1 1
INTEGER ()) 0 0 () (CONSTANT (INTEGER 4 1 1 UNKNOWN ()) 0 '2') () 0 () ()
() 2 14)
51 'c_int_least32_t' '__iso_c_binding' '' 1 ((PARAMETER UNKNOWN-INTENT
UNKNOWN-PROC UNKNOWN UNKNOWN IS_C_INTEROP IS_ISO_C) (INTEGER 4 1 1
INTEGER ()) 0 0 () (CONSTANT (INTEGER 4 1 1 UNKNOWN ()) 0 '4') () 0 () ()
() 2 15)
52 'c_int_least64_t' '__iso_c_binding' '' 1 ((PARAMETER UNKNOWN-INTENT
UNKNOWN-PROC UNKNOWN UNKNOWN IS_C_INTEROP IS_ISO_C) (INTEGER 4 1 1
INTEGER ()) 0 0 () (CONSTANT (INTEGER 4 1 1 UNKNOWN ()) 0 '8') () 0 () ()
() 2 16)
53 'c_int_least8_t' '__iso_c_binding' '' 1 ((PARAMETER UNKNOWN-INTENT
UNKNOWN-PROC UNKNOWN UNKNOWN IS_C_INTEROP IS_ISO_C) (INTEGER 4 1 1
INTEGER ()) 0 0 () (CONSTANT (INTEGER 4 1 1 UNKNOWN ()) 0 '1') () 0 () ()
() 2 13)
54 'c_intmax_t' '__iso_c_binding' '' 1 ((PARAMETER UNKNOWN-INTENT
UNKNOWN-PROC UNKNOWN UNKNOWN IS_C_INTEROP IS_ISO_C) (INTEGER 4 1 1
INTEGER ()) 0 0 () (CONSTANT (INTEGER 4 1 1 UNKNOWN ()) 0 '8') () 0 () ()
() 2 4)
55 'c_intptr_t' '__iso_c_binding' '' 1 ((PARAMETER UNKNOWN-INTENT
UNKNOWN-PROC UNKNOWN UNKNOWN IS_C_INTEROP IS_ISO_C) (INTEGER 4 1 1
INTEGER ()) 0 0 () (CONSTANT (INTEGER 4 1 1 UNKNOWN ()) 0 '8') () 0 () ()
() 2 5)
56 'c_loc' '__iso_c_binding' '__iso_c_binding_c_loc' 1 ((PROCEDURE
UNKNOWN-INTENT UNKNOWN-PROC UNKNOWN UNKNOWN EXTERNAL PURE IS_ISO_C) (
DERIVED 57 0 0 DERIVED ()) 0 0 () () 56 () () () 2 45)
58 'c_long' '__iso_c_binding' '' 1 ((PARAMETER UNKNOWN-INTENT
UNKNOWN-PROC UNKNOWN UNKNOWN IS_C_INTEROP IS_ISO_C) (INTEGER 4 1 1
INTEGER ()) 0 0 () (CONSTANT (INTEGER 4 1 1 UNKNOWN ()) 0 '8') () 0 () ()
() 2 2)
59 'c_long_double' '__iso_c_binding' '' 1 ((PARAMETER UNKNOWN-INTENT
UNKNOWN-PROC UNKNOWN UNKNOWN IS_C_INTEROP IS_ISO_C) (INTEGER 4 1 1 REAL
()) 0 0 () (CONSTANT (INTEGER 4 1 1 UNKNOWN ()) 0 '10') () 0 () () () 2
25)
60 'c_long_double_complex' '__iso_c_binding' '' 1 ((PARAMETER
UNKNOWN-INTENT UNKNOWN-PROC UNKNOWN UNKNOWN IS_C_INTEROP IS_ISO_C) (
INTEGER 4 1 1 COMPLEX ()) 0 0 () (CONSTANT (INTEGER 4 1 1 UNKNOWN ()) 0
'10') () 0 () () () 2 28)
61 'c_long_long' '__iso_c_binding' '' 1 ((PARAMETER UNKNOWN-INTENT
UNKNOWN-PROC UNKNOWN UNKNOWN IS_C_INTEROP IS_ISO_C) (INTEGER 4 1 1
INTEGER ()) 0 0 () (CONSTANT (INTEGER 4 1 1 UNKNOWN ()) 0 '8') () 0 () ()
() 2 3)
62 'c_new_line' '__iso_c_binding' '' 1 ((PARAMETER UNKNOWN-INTENT
UNKNOWN-PROC UNKNOWN UNKNOWN IS_C_INTEROP IS_ISO_C) (CHARACTER 1 1 1
CHARACTER ((CONSTANT (INTEGER 4 0 0 INTEGER ()) 0 '1'))) 0 0 () (
CONSTANT (CHARACTER 1 1 1 UNKNOWN (())) 0 1 '\U0000000a') () 0 () () ()
2 35)
63 'c_null_char' '__iso_c_binding' '' 1 ((PARAMETER UNKNOWN-INTENT
UNKNOWN-PROC UNKNOWN UNKNOWN IS_C_INTEROP IS_ISO_C) (CHARACTER 1 1 1
CHARACTER ((CONSTANT (INTEGER 4 0 0 INTEGER ()) 0 '1'))) 0 0 () (
CONSTANT (CHARACTER 1 1 1 UNKNOWN (())) 0 1 '\U00000000') () 0 () () ()
2 31)
64 'c_null_funptr' '__iso_c_binding' '__iso_c_binding_c_null_funptr' 1 (
(PARAMETER UNKNOWN-INTENT UNKNOWN-PROC UNKNOWN EXPLICIT-SAVE IS_BIND_C
IS_C_INTEROP IS_ISO_C) (DERIVED 35 1 1 UNKNOWN ()) 0 0 () (STRUCTURE (
DERIVED 35 0 0 DERIVED ()) 0 ((() ())) ()) () 0 () () () 2 42)
65 'c_null_ptr' '__iso_c_binding' '__iso_c_binding_c_null_ptr' 1 ((
PARAMETER UNKNOWN-INTENT UNKNOWN-PROC UNKNOWN EXPLICIT-SAVE IS_BIND_C
IS_C_INTEROP IS_ISO_C) (DERIVED 57 1 1 UNKNOWN ()) 0 0 () (STRUCTURE (
DERIVED 57 0 0 DERIVED ()) 0 ((() ())) ()) () 0 () () () 2 40)
57 'c_ptr' '__iso_c_binding' '' 1 ((DERIVED UNKNOWN-INTENT UNKNOWN-PROC
UNKNOWN UNKNOWN IS_BIND_C IS_C_INTEROP IS_ISO_C) (DERIVED 57 1 1 UNKNOWN
()) 0 0 () () 0 ((66 '__c_ptr_c_address' (INTEGER 8 1 0 INTEGER ()) () (
UNKNOWN-FL UNKNOWN-INTENT UNKNOWN-PROC UNKNOWN UNKNOWN) UNKNOWN-ACCESS ()))
UNKNOWN-ACCESS () () 2 39)
67 'c_short' '__iso_c_binding' '' 1 ((PARAMETER UNKNOWN-INTENT
UNKNOWN-PROC UNKNOWN UNKNOWN IS_C_INTEROP IS_ISO_C) (INTEGER 4 1 1
INTEGER ()) 0 0 () (CONSTANT (INTEGER 4 1 1 UNKNOWN ()) 0 '2') () 0 () ()
() 2 1)
68 'c_signed_char' '__iso_c_binding' '' 1 ((PARAMETER UNKNOWN-INTENT
UNKNOWN-PROC UNKNOWN UNKNOWN IS_C_INTEROP IS_ISO_C) (INTEGER 4 1 1
INTEGER ()) 0 0 () (CONSTANT (INTEGER 4 1 1 UNKNOWN ()) 0 '1') () 0 () ()
() 2 7)
69 'c_size_t' '__iso_c_binding' '' 1 ((PARAMETER UNKNOWN-INTENT
UNKNOWN-PROC UNKNOWN UNKNOWN IS_C_INTEROP IS_ISO_C) (INTEGER 4 1 1
INTEGER ()) 0 0 () (CONSTANT (INTEGER 4 1 1 UNKNOWN ()) 0 '8') () 0 () ()
() 2 6)
70 'c_vertical_tab' '__iso_c_binding' '' 1 ((PARAMETER UNKNOWN-INTENT
UNKNOWN-PROC UNKNOWN UNKNOWN IS_C_INTEROP IS_ISO_C) (CHARACTER 1 1 1
CHARACTER ((CONSTANT (INTEGER 4 0 0 INTEGER ()) 0 '1'))) 0 0 () (
CONSTANT (CHARACTER 1 1 1 UNKNOWN (())) 0 1 '\U0000000b') () 0 () () ()
2 38)
71 'choose' 'common_functions' 'choose' 1 ((PROCEDURE UNKNOWN-INTENT
MODULE-PROC DECL UNKNOWN FUNCTION ALWAYS_EXPLICIT) (INTEGER 4 0 0
INTEGER ()) 72 0 (73) () 74 () () () 0 0)
75 'common_functions' 'common_functions' 'common_functions' 1 ((MODULE
UNKNOWN-INTENT UNKNOWN-PROC UNKNOWN UNKNOWN) (UNKNOWN 0 0 0 UNKNOWN ())
0 0 () () 0 () () () 0 0)
76 'compare_matrix' 'common_functions' 'compare_matrix' 1 ((PROCEDURE
UNKNOWN-INTENT MODULE-PROC DECL UNKNOWN ALLOCATABLE DIMENSION FUNCTION
ALWAYS_EXPLICIT) (INTEGER 4 0 0 INTEGER ()) 77 0 (78 79 80) (2 DEFERRED
() () () ()) 81 () () () 0 0)
82 'compare_multiple_matrix' 'common_functions' 'compare_multiple_matrix'
1 ((PROCEDURE UNKNOWN-INTENT MODULE-PROC DECL UNKNOWN ALLOCATABLE
DIMENSION FUNCTION ALWAYS_EXPLICIT) (INTEGER 4 0 0 INTEGER ()) 83 0 (84
85 86 87) (2 DEFERRED () () () ()) 88 () () () 0 0)
89 'compare_multiple_vector' 'common_functions' 'compare_multiple_vector'
1 ((PROCEDURE UNKNOWN-INTENT MODULE-PROC DECL UNKNOWN ALLOCATABLE
DIMENSION FUNCTION ALWAYS_EXPLICIT) (INTEGER 4 0 0 INTEGER ()) 90 0 (91
92 93 94) (1 DEFERRED () ()) 95 () () () 0 0)
96 'compare_vector' 'common_functions' 'compare_vector' 1 ((PROCEDURE
UNKNOWN-INTENT MODULE-PROC DECL UNKNOWN ALLOCATABLE DIMENSION FUNCTION
ALWAYS_EXPLICIT) (INTEGER 4 0 0 INTEGER ()) 97 0 (98 99 100 101) (1
DEFERRED () ()) 102 () () () 0 0)
103 'delete_values_vector_int' 'common_functions'
'delete_values_vector_int' 1 ((PROCEDURE UNKNOWN-INTENT MODULE-PROC DECL
UNKNOWN SUBROUTINE ALWAYS_EXPLICIT) (UNKNOWN 0 0 0 UNKNOWN ()) 104 0 (
105 106) () 0 () () () 0 0)
107 'destroy_vector' 'common_functions' 'destroy_vector' 1 ((PROCEDURE
UNKNOWN-INTENT MODULE-PROC DECL UNKNOWN SUBROUTINE ALWAYS_EXPLICIT) (
UNKNOWN 0 0 0 UNKNOWN ()) 108 0 (109) () 0 () () () 0 0)
110 'eps_m' 'scattersearchtypes' 'eps_m' 1 ((PARAMETER UNKNOWN-INTENT
UNKNOWN-PROC UNKNOWN IMPLICIT-SAVE) (REAL 8 0 0 REAL ()) 0 0 () (
CONSTANT (REAL 8 0 0 REAL ()) 0 '0.12725dd1d243ac@-14') () 0 () () () 0
0)
111 'ex1' 'common_functions' 'ex1' 1 ((PROCEDURE UNKNOWN-INTENT
MODULE-PROC DECL UNKNOWN FUNCTION ALWAYS_EXPLICIT) (REAL 8 0 0 REAL ())
112 0 (113) () 111 () () () 0 0)
114 'extraparametters' 'scattersearchtypes' 'extraparametters' 1 ((
DERIVED UNKNOWN-INTENT UNKNOWN-PROC UNKNOWN UNKNOWN ALLOC_COMP) (
UNKNOWN 0 0 0 UNKNOWN ()) 0 0 () () 0 ((115 'empty' (INTEGER 4 0 0
INTEGER ()) () (UNKNOWN-FL UNKNOWN-INTENT UNKNOWN-PROC UNKNOWN UNKNOWN)
UNKNOWN-ACCESS ()) (116 'texp' (INTEGER 8 0 0 INTEGER ()) (1 DEFERRED ()
()) (UNKNOWN-FL UNKNOWN-INTENT UNKNOWN-PROC UNKNOWN UNKNOWN ALLOCATABLE
DIMENSION) UNKNOWN-ACCESS ()) (117 'yexp' (REAL 8 0 0 REAL ()) (2
DEFERRED () () () ()) (UNKNOWN-FL UNKNOWN-INTENT UNKNOWN-PROC UNKNOWN
UNKNOWN ALLOCATABLE DIMENSION) UNKNOWN-ACCESS ()) (118 'k1' (REAL 4 1 0
REAL ()) () (UNKNOWN-FL UNKNOWN-INTENT UNKNOWN-PROC UNKNOWN UNKNOWN)
UNKNOWN-ACCESS ()) (119 'k2' (REAL 4 1 0 REAL ()) () (UNKNOWN-FL
UNKNOWN-INTENT UNKNOWN-PROC UNKNOWN UNKNOWN) UNKNOWN-ACCESS ()) (120 'k3'
(REAL 4 1 0 REAL ()) () (UNKNOWN-FL UNKNOWN-INTENT UNKNOWN-PROC UNKNOWN
UNKNOWN) UNKNOWN-ACCESS ()) (121 'k4' (REAL 4 1 0 REAL ()) () (
UNKNOWN-FL UNKNOWN-INTENT UNKNOWN-PROC UNKNOWN UNKNOWN) UNKNOWN-ACCESS ()))
PUBLIC (() ()) () 0 0)
122 'find_in_vector' 'common_functions' 'find_in_vector' 1 ((PROCEDURE
UNKNOWN-INTENT MODULE-PROC DECL UNKNOWN SUBROUTINE ALWAYS_EXPLICIT) (
UNKNOWN 0 0 0 UNKNOWN ()) 123 0 (124 125 126 127) () 0 () () () 0 0)
128 'find_in_vector_int' 'common_functions' 'find_in_vector_int' 1 ((
PROCEDURE UNKNOWN-INTENT MODULE-PROC DECL UNKNOWN SUBROUTINE
ALWAYS_EXPLICIT) (UNKNOWN 0 0 0 UNKNOWN ()) 129 0 (130 131 132 133) () 0
() () () 0 0)
134 'findinteger' 'common_functions' 'findinteger' 1 ((PROCEDURE
UNKNOWN-INTENT MODULE-PROC DECL UNKNOWN FUNCTION ALWAYS_EXPLICIT) (
INTEGER 4 0 0 INTEGER ()) 135 0 (136 137) () 138 () () () 0 0)
139 'fusion_matrix' 'common_functions' 'fusion_matrix' 1 ((PROCEDURE
UNKNOWN-INTENT MODULE-PROC DECL UNKNOWN SUBROUTINE ALWAYS_EXPLICIT) (
UNKNOWN 0 0 0 UNKNOWN ()) 140 0 (141 142) () 0 () () () 0 0)
143 'fusion_vector' 'common_functions' 'fusion_vector' 1 ((PROCEDURE
UNKNOWN-INTENT MODULE-PROC DECL UNKNOWN SUBROUTINE ALWAYS_EXPLICIT) (
UNKNOWN 0 0 0 UNKNOWN ()) 144 0 (145 146) () 0 () () () 0 0)
147 'fusion_vector_int' 'common_functions' 'fusion_vector_int' 1 ((
PROCEDURE UNKNOWN-INTENT MODULE-PROC DECL UNKNOWN SUBROUTINE
ALWAYS_EXPLICIT) (UNKNOWN 0 0 0 UNKNOWN ()) 148 0 (149 150) () 0 () () ()
0 0)
151 'goptions' 'scattersearchtypes' 'goptions' 1 ((DERIVED
UNKNOWN-INTENT UNKNOWN-PROC UNKNOWN UNKNOWN) (UNKNOWN 0 0 0 UNKNOWN ())
0 0 () () 0 ((152 'empty' (INTEGER 4 0 0 INTEGER ()) () (UNKNOWN-FL
UNKNOWN-INTENT UNKNOWN-PROC UNKNOWN UNKNOWN) UNKNOWN-ACCESS ()) (153
'dim_refset' (INTEGER 4 0 0 INTEGER ()) () (UNKNOWN-FL UNKNOWN-INTENT
UNKNOWN-PROC UNKNOWN UNKNOWN) UNKNOWN-ACCESS ()) (154 'ndiverse' (
INTEGER 4 0 0 INTEGER ()) () (UNKNOWN-FL UNKNOWN-INTENT UNKNOWN-PROC
UNKNOWN UNKNOWN) UNKNOWN-ACCESS ()) (155 'initiate' (INTEGER 4 0 0
INTEGER ()) () (UNKNOWN-FL UNKNOWN-INTENT UNKNOWN-PROC UNKNOWN UNKNOWN)
UNKNOWN-ACCESS ()) (156 'combination' (INTEGER 4 0 0 INTEGER ()) () (
UNKNOWN-FL UNKNOWN-INTENT UNKNOWN-PROC UNKNOWN UNKNOWN) UNKNOWN-ACCESS ())
(157 'regenerate' (INTEGER 4 0 0 INTEGER ()) () (UNKNOWN-FL
UNKNOWN-INTENT UNKNOWN-PROC UNKNOWN UNKNOWN) UNKNOWN-ACCESS ()) (158
'intens' (INTEGER 4 0 0 INTEGER ()) () (UNKNOWN-FL UNKNOWN-INTENT
UNKNOWN-PROC UNKNOWN UNKNOWN) UNKNOWN-ACCESS ()) (159 'diverse_criteria'
(INTEGER 4 0 0 INTEGER ()) () (UNKNOWN-FL UNKNOWN-INTENT UNKNOWN-PROC
UNKNOWN UNKNOWN) UNKNOWN-ACCESS ()) (160 'n_stuck' (INTEGER 4 0 0
INTEGER ()) () (UNKNOWN-FL UNKNOWN-INTENT UNKNOWN-PROC UNKNOWN UNKNOWN)
UNKNOWN-ACCESS ()) (161 'tolf' (REAL 8 0 0 REAL ()) () (UNKNOWN-FL
UNKNOWN-INTENT UNKNOWN-PROC UNKNOWN UNKNOWN) UNKNOWN-ACCESS ()) (162
'tolx' (REAL 8 0 0 REAL ()) () (UNKNOWN-FL UNKNOWN-INTENT UNKNOWN-PROC
UNKNOWN UNKNOWN) UNKNOWN-ACCESS ()) (163 'delete' (CHARACTER 1 1 0
CHARACTER ((CONSTANT (INTEGER 4 0 0 INTEGER ()) 0 '20'))) () (
UNKNOWN-FL UNKNOWN-INTENT UNKNOWN-PROC UNKNOWN UNKNOWN) UNKNOWN-ACCESS ()))
PUBLIC (() ()) () 0 0)
164 'index_of_ones' 'common_functions' 'index_of_ones' 1 ((PROCEDURE
UNKNOWN-INTENT MODULE-PROC DECL UNKNOWN SUBROUTINE ALWAYS_EXPLICIT) (
UNKNOWN 0 0 0 UNKNOWN ()) 165 0 (166 167) () 0 () () () 0 0)
168 'index_of_ones_matrix' 'common_functions' 'index_of_ones_matrix' 1 (
(PROCEDURE UNKNOWN-INTENT MODULE-PROC DECL UNKNOWN SUBROUTINE
ALWAYS_EXPLICIT) (UNKNOWN 0 0 0 UNKNOWN ()) 169 0 (170 171) () 0 () () ()
0 0)
172 'infinite' 'scattersearchtypes' 'infinite' 1 ((PARAMETER
UNKNOWN-INTENT UNKNOWN-PROC UNKNOWN IMPLICIT-SAVE) (REAL 8 0 0 REAL ())
0 0 () (CONSTANT (REAL 8 0 0 REAL ()) 0 '0.fffffffffffff8@256') () 0 ()
() () 0 0)
173 'inicializa_vector' 'common_functions' 'inicializa_vector' 1 ((
PROCEDURE UNKNOWN-INTENT MODULE-PROC DECL UNKNOWN SUBROUTINE
ALWAYS_EXPLICIT) (UNKNOWN 0 0 0 UNKNOWN ()) 174 0 (175 176) () 0 () () ()
0 0)
177 'inicializa_vector_value' 'common_functions' 'inicializa_vector_value'
1 ((PROCEDURE UNKNOWN-INTENT MODULE-PROC DECL UNKNOWN SUBROUTINE
ALWAYS_EXPLICIT) (UNKNOWN 0 0 0 UNKNOWN ()) 178 0 (179 180 181) () 0 ()
() () 0 0)
182 'insert_dinamic_vector_double_precission' 'common_functions'
'insert_dinamic_vector_double_precission' 1 ((PROCEDURE UNKNOWN-INTENT
MODULE-PROC DECL UNKNOWN SUBROUTINE ALWAYS_EXPLICIT) (UNKNOWN 0 0 0
UNKNOWN ()) 183 0 (184 185) () 0 () () () 0 0)
186 'loptions' 'scattersearchtypes' 'loptions' 1 ((DERIVED
UNKNOWN-INTENT UNKNOWN-PROC UNKNOWN UNKNOWN ALLOC_COMP) (UNKNOWN 0 0 0
UNKNOWN ()) 0 0 () () 0 ((187 'empty' (INTEGER 4 0 0 INTEGER ()) () (
UNKNOWN-FL UNKNOWN-INTENT UNKNOWN-PROC UNKNOWN UNKNOWN) UNKNOWN-ACCESS ())
(188 'tol' (INTEGER 4 0 0 INTEGER ()) () (UNKNOWN-FL UNKNOWN-INTENT
UNKNOWN-PROC UNKNOWN UNKNOWN) UNKNOWN-ACCESS ()) (189 'iterprint' (
INTEGER 4 0 0 INTEGER ()) () (UNKNOWN-FL UNKNOWN-INTENT UNKNOWN-PROC
UNKNOWN UNKNOWN) UNKNOWN-ACCESS ()) (190 'n1' (INTEGER 4 0 0 INTEGER ())
() (UNKNOWN-FL UNKNOWN-INTENT UNKNOWN-PROC UNKNOWN UNKNOWN)
UNKNOWN-ACCESS ()) (191 'n2' (INTEGER 4 0 0 INTEGER ()) () (UNKNOWN-FL
UNKNOWN-INTENT UNKNOWN-PROC UNKNOWN UNKNOWN) UNKNOWN-ACCESS ()) (192
'bestx' (INTEGER 4 0 0 INTEGER ()) () (UNKNOWN-FL UNKNOWN-INTENT
UNKNOWN-PROC UNKNOWN UNKNOWN) UNKNOWN-ACCESS ()) (193 'merit_filter' (
INTEGER 4 0 0 INTEGER ()) () (UNKNOWN-FL UNKNOWN-INTENT UNKNOWN-PROC
UNKNOWN UNKNOWN) UNKNOWN-ACCESS ()) (194 'distance_filter' (INTEGER 4 0
0 INTEGER ()) () (UNKNOWN-FL UNKNOWN-INTENT UNKNOWN-PROC UNKNOWN UNKNOWN)
UNKNOWN-ACCESS ()) (195 'wait_maxdist_limit' (INTEGER 4 0 0 INTEGER ())
() (UNKNOWN-FL UNKNOWN-INTENT UNKNOWN-PROC UNKNOWN UNKNOWN)
UNKNOWN-ACCESS ()) (196 'wait_th_limit' (INTEGER 4 0 0 INTEGER ()) () (
UNKNOWN-FL UNKNOWN-INTENT UNKNOWN-PROC UNKNOWN UNKNOWN) UNKNOWN-ACCESS ())
(197 'threshold_local' (REAL 8 0 0 REAL ()) () (UNKNOWN-FL
UNKNOWN-INTENT UNKNOWN-PROC UNKNOWN UNKNOWN) UNKNOWN-ACCESS ()) (198
'thfactor' (REAL 8 0 0 REAL ()) () (UNKNOWN-FL UNKNOWN-INTENT
UNKNOWN-PROC UNKNOWN UNKNOWN) UNKNOWN-ACCESS ()) (199 'maxdistfactor' (
REAL 8 0 0 REAL ()) () (UNKNOWN-FL UNKNOWN-INTENT UNKNOWN-PROC UNKNOWN
UNKNOWN) UNKNOWN-ACCESS ()) (200 'balance' (REAL 8 0 0 REAL ()) () (
UNKNOWN-FL UNKNOWN-INTENT UNKNOWN-PROC UNKNOWN UNKNOWN) UNKNOWN-ACCESS ())
(201 'extrap' (DERIVED 114 0 0 DERIVED ()) () (UNKNOWN-FL UNKNOWN-INTENT
UNKNOWN-PROC UNKNOWN UNKNOWN) UNKNOWN-ACCESS (STRUCTURE (DERIVED 114 0 0
DERIVED ()) 0 ((() ()) ((NULL (INTEGER 8 0 0 INTEGER ()) 0) ()) ((NULL (
REAL 8 0 0 REAL ()) 0) ()) (() ()) (() ()) (() ()) (() ())) ())) (202
'solver' (CHARACTER 1 1 0 CHARACTER ((CONSTANT (INTEGER 4 0 0 INTEGER ())
0 '20'))) () (UNKNOWN-FL UNKNOWN-INTENT UNKNOWN-PROC UNKNOWN UNKNOWN)
UNKNOWN-ACCESS ()) (203 'finish' (CHARACTER 1 1 0 CHARACTER ((CONSTANT (
INTEGER 4 0 0 INTEGER ()) 0 '20'))) (1 DEFERRED () ()) (UNKNOWN-FL
UNKNOWN-INTENT UNKNOWN-PROC UNKNOWN UNKNOWN ALLOCATABLE DIMENSION)
UNKNOWN-ACCESS ())) PUBLIC (() ()) () 0 0)
204 'max_matrix' 'common_functions' 'max_matrix' 1 ((PROCEDURE
UNKNOWN-INTENT MODULE-PROC DECL UNKNOWN ALLOCATABLE DIMENSION FUNCTION
ALWAYS_EXPLICIT) (REAL 8 0 0 REAL ()) 205 0 (206 207) (2 DEFERRED () ()
() ()) 208 () () () 0 0)
209 'nchoosek_fpar' 'common_functions' 'nchoosek_fpar' 1 ((PROCEDURE
UNKNOWN-INTENT MODULE-PROC DECL UNKNOWN SUBROUTINE ALWAYS_EXPLICIT) (
UNKNOWN 0 0 0 UNKNOWN ()) 210 0 (211 212 213) () 0 () () () 0 0)
214 'opts' 'scattersearchtypes' 'opts' 1 ((DERIVED UNKNOWN-INTENT
UNKNOWN-PROC UNKNOWN UNKNOWN ALLOC_COMP) (UNKNOWN 0 0 0 UNKNOWN ()) 0 0
() () 0 ((215 'empty' (INTEGER 4 0 0 INTEGER ()) () (UNKNOWN-FL
UNKNOWN-INTENT UNKNOWN-PROC UNKNOWN UNKNOWN) UNKNOWN-ACCESS ()) (216
'useroptions' (DERIVED 217 0 0 DERIVED ()) () (UNKNOWN-FL UNKNOWN-INTENT
UNKNOWN-PROC UNKNOWN UNKNOWN) UNKNOWN-ACCESS (STRUCTURE (DERIVED 217 0 0
DERIVED ()) 0 ((() ()) (() ()) (() ()) (() ()) (() ()) (() ()) (() ()) (
() ()) (() ()) (() ()) (() ()) ((NULL (INTEGER 4 0 0 INTEGER ()) 0) ())
(() ())) ())) (218 'globaloptions' (DERIVED 151 0 0 DERIVED ()) () (
UNKNOWN-FL UNKNOWN-INTENT UNKNOWN-PROC UNKNOWN UNKNOWN) UNKNOWN-ACCESS ())
(219 'localoptions' (DERIVED 186 0 0 DERIVED ()) () (UNKNOWN-FL
UNKNOWN-INTENT UNKNOWN-PROC UNKNOWN UNKNOWN) UNKNOWN-ACCESS (STRUCTURE (
DERIVED 186 0 0 DERIVED ()) 0 ((() ()) (() ()) (() ()) (() ()) (() ()) (
() ()) (() ()) (() ()) (() ()) (() ()) (() ()) (() ()) (() ()) (() ()) (
(STRUCTURE (DERIVED 114 0 0 DERIVED ()) 0 ((() ()) ((NULL (INTEGER 8 0 0
INTEGER ()) 0) ()) ((NULL (REAL 8 0 0 REAL ()) 0) ()) (() ()) (() ()) (
() ()) (() ())) ()) ()) (() ()) ((NULL (CHARACTER 1 1 0 CHARACTER ((
CONSTANT (INTEGER 4 0 0 INTEGER ()) 0 '20'))) 0) ())) ()))) PUBLIC (() ())
() 0 0)
220 'outfuction' 'scattersearchtypes' 'outfuction' 1 ((DERIVED
UNKNOWN-INTENT UNKNOWN-PROC UNKNOWN UNKNOWN ALLOC_COMP) (UNKNOWN 0 0 0
UNKNOWN ()) 0 0 () () 0 ((221 'value' (REAL 8 0 0 REAL ()) () (
UNKNOWN-FL UNKNOWN-INTENT UNKNOWN-PROC UNKNOWN UNKNOWN) UNKNOWN-ACCESS ())
(222 'value_penalty' (REAL 8 0 0 REAL ()) () (UNKNOWN-FL UNKNOWN-INTENT
UNKNOWN-PROC UNKNOWN UNKNOWN) UNKNOWN-ACCESS ()) (223 'pena' (REAL 8 0 0
REAL ()) () (UNKNOWN-FL UNKNOWN-INTENT UNKNOWN-PROC UNKNOWN UNKNOWN)
UNKNOWN-ACCESS ()) (224 'nlc' (REAL 8 0 0 REAL ()) (1 DEFERRED () ()) (
UNKNOWN-FL UNKNOWN-INTENT UNKNOWN-PROC UNKNOWN UNKNOWN ALLOCATABLE
DIMENSION) UNKNOWN-ACCESS ()) (225 'include' (INTEGER 4 0 0 INTEGER ())
() (UNKNOWN-FL UNKNOWN-INTENT UNKNOWN-PROC UNKNOWN UNKNOWN)
UNKNOWN-ACCESS ()) (226 'x' (REAL 8 0 0 REAL ()) (1 DEFERRED () ()) (
UNKNOWN-FL UNKNOWN-INTENT UNKNOWN-PROC UNKNOWN UNKNOWN ALLOCATABLE
DIMENSION) UNKNOWN-ACCESS ())) PUBLIC (() ()) () 0 0)
227 'precision_d' 'scattersearchtypes' 'precision_d' 1 ((PARAMETER
UNKNOWN-INTENT UNKNOWN-PROC UNKNOWN IMPLICIT-SAVE) (INTEGER 4 0 0
INTEGER ()) 0 0 () (CONSTANT (INTEGER 4 0 0 INTEGER ()) 0 '15') () 0 ()
() () 0 0)
228 'precision_f' 'scattersearchtypes' 'precision_f' 1 ((PARAMETER
UNKNOWN-INTENT UNKNOWN-PROC UNKNOWN IMPLICIT-SAVE) (INTEGER 4 0 0
INTEGER ()) 0 0 () (CONSTANT (INTEGER 4 0 0 INTEGER ()) 0 '7') () 0 () ()
() 0 0)
229 'print_matrix' 'common_functions' 'print_matrix' 1 ((PROCEDURE
UNKNOWN-INTENT MODULE-PROC DECL UNKNOWN SUBROUTINE ALWAYS_EXPLICIT) (
UNKNOWN 0 0 0 UNKNOWN ()) 230 0 (231) () 0 () () () 0 0)
232 'print_matrix_integer' 'common_functions' 'print_matrix_integer' 1 (
(PROCEDURE UNKNOWN-INTENT MODULE-PROC DECL UNKNOWN SUBROUTINE
ALWAYS_EXPLICIT) (UNKNOWN 0 0 0 UNKNOWN ()) 233 0 (234) () 0 () () () 0
0)
235 'print_vector' 'common_functions' 'print_vector' 1 ((PROCEDURE
UNKNOWN-INTENT MODULE-PROC DECL UNKNOWN SUBROUTINE ALWAYS_EXPLICIT) (
UNKNOWN 0 0 0 UNKNOWN ()) 236 0 (237) () 0 () () () 0 0)
238 'problem' 'scattersearchtypes' 'problem' 1 ((DERIVED UNKNOWN-INTENT
UNKNOWN-PROC UNKNOWN UNKNOWN ALLOC_COMP) (UNKNOWN 0 0 0 UNKNOWN ()) 0 0
() () 0 ((239 'empty' (INTEGER 4 0 0 INTEGER ()) () (UNKNOWN-FL
UNKNOWN-INTENT UNKNOWN-PROC UNKNOWN UNKNOWN) UNKNOWN-ACCESS ()) (240 'f'
(CHARACTER 1 0 0 CHARACTER ((CONSTANT (INTEGER 4 0 0 INTEGER ()) 0 '20')))
() (UNKNOWN-FL UNKNOWN-INTENT UNKNOWN-PROC UNKNOWN UNKNOWN)
UNKNOWN-ACCESS ()) (241 'neq' (INTEGER 4 0 0 INTEGER ()) () (UNKNOWN-FL
UNKNOWN-INTENT UNKNOWN-PROC UNKNOWN UNKNOWN) UNKNOWN-ACCESS ()) (242
'int_var' (INTEGER 4 0 0 INTEGER ()) () (UNKNOWN-FL UNKNOWN-INTENT
UNKNOWN-PROC UNKNOWN UNKNOWN) UNKNOWN-ACCESS ()) (243 'bin_var' (
INTEGER 4 0 0 INTEGER ()) () (UNKNOWN-FL UNKNOWN-INTENT UNKNOWN-PROC
UNKNOWN UNKNOWN) UNKNOWN-ACCESS ()) (244 'vtr' (REAL 8 0 0 REAL ()) (1
DEFERRED () ()) (UNKNOWN-FL UNKNOWN-INTENT UNKNOWN-PROC UNKNOWN UNKNOWN
ALLOCATABLE DIMENSION) UNKNOWN-ACCESS ()) (245 'xl' (REAL 8 0 0 REAL ())
(1 DEFERRED () ()) (UNKNOWN-FL UNKNOWN-INTENT UNKNOWN-PROC UNKNOWN
UNKNOWN ALLOCATABLE DIMENSION) UNKNOWN-ACCESS ()) (246 'xu' (REAL 8 0 0
REAL ()) (1 DEFERRED () ()) (UNKNOWN-FL UNKNOWN-INTENT UNKNOWN-PROC
UNKNOWN UNKNOWN ALLOCATABLE DIMENSION) UNKNOWN-ACCESS ()) (247 'cl' (
REAL 8 0 0 REAL ()) (1 DEFERRED () ()) (UNKNOWN-FL UNKNOWN-INTENT
UNKNOWN-PROC UNKNOWN UNKNOWN ALLOCATABLE DIMENSION) UNKNOWN-ACCESS ()) (
248 'cu' (REAL 8 0 0 REAL ()) (1 DEFERRED () ()) (UNKNOWN-FL
UNKNOWN-INTENT UNKNOWN-PROC UNKNOWN UNKNOWN ALLOCATABLE DIMENSION)
UNKNOWN-ACCESS ()) (249 'ineq' (INTEGER 4 0 0 INTEGER ()) () (
UNKNOWN-FL UNKNOWN-INTENT UNKNOWN-PROC UNKNOWN UNKNOWN) UNKNOWN-ACCESS ())
(250 'x0' (REAL 8 0 0 REAL ()) (2 DEFERRED () () () ()) (UNKNOWN-FL
UNKNOWN-INTENT UNKNOWN-PROC UNKNOWN UNKNOWN ALLOCATABLE DIMENSION)
UNKNOWN-ACCESS ()) (251 'f0' (REAL 8 0 0 REAL ()) (1 DEFERRED () ()) (
UNKNOWN-FL UNKNOWN-INTENT UNKNOWN-PROC UNKNOWN UNKNOWN ALLOCATABLE
DIMENSION) UNKNOWN-ACCESS ())) PUBLIC (() ()) () 0 0)
252 'random_det_matrix_seed_10' 'common_functions'
'random_det_matrix_seed_10' 1 ((PROCEDURE UNKNOWN-INTENT MODULE-PROC
DECL UNKNOWN SUBROUTINE ALWAYS_EXPLICIT) (UNKNOWN 0 0 0 UNKNOWN ()) 253
0 (254 255 256 257 258) () 0 () () () 0 0)
259 'random_det_number' 'common_functions' 'random_det_number' 1 ((
PROCEDURE UNKNOWN-INTENT MODULE-PROC DECL UNKNOWN SUBROUTINE
ALWAYS_EXPLICIT) (UNKNOWN 0 0 0 UNKNOWN ()) 260 0 (261 262 263) () 0 ()
() () 0 0)
264 'random_det_vector_5' 'common_functions' 'random_det_vector_5' 1 ((
PROCEDURE UNKNOWN-INTENT MODULE-PROC DECL UNKNOWN SUBROUTINE
ALWAYS_EXPLICIT) (UNKNOWN 0 0 0 UNKNOWN ()) 265 0 (266 267 268 269 270
271 272) () 0 () () () 0 0)
273 'random_det_vector_seed' 'common_functions' 'random_det_vector_seed'
1 ((PROCEDURE UNKNOWN-INTENT MODULE-PROC DECL UNKNOWN SUBROUTINE
ALWAYS_EXPLICIT) (UNKNOWN 0 0 0 UNKNOWN ()) 274 0 (275 276 277 278 279
280) () 0 () () () 0 0)
281 'random_det_vector_seed_10' 'common_functions'
'random_det_vector_seed_10' 1 ((PROCEDURE UNKNOWN-INTENT MODULE-PROC
DECL UNKNOWN SUBROUTINE ALWAYS_EXPLICIT) (UNKNOWN 0 0 0 UNKNOWN ()) 282
0 (283 284 285 286) () 0 () () () 0 0)
287 'random_matrix_seed_10' 'common_functions' 'random_matrix_seed_10' 1
((PROCEDURE UNKNOWN-INTENT MODULE-PROC DECL UNKNOWN SUBROUTINE
ALWAYS_EXPLICIT) (UNKNOWN 0 0 0 UNKNOWN ()) 288 0 (289 290 291 292) () 0
() () () 0 0)
293 'random_vector_5' 'common_functions' 'random_vector_5' 1 ((
PROCEDURE UNKNOWN-INTENT MODULE-PROC DECL UNKNOWN SUBROUTINE
ALWAYS_EXPLICIT) (UNKNOWN 0 0 0 UNKNOWN ()) 294 0 (295 296 297 298 299
300) () 0 () () () 0 0)
301 'random_vector_seed' 'common_functions' 'random_vector_seed' 1 ((
PROCEDURE UNKNOWN-INTENT MODULE-PROC DECL UNKNOWN SUBROUTINE
ALWAYS_EXPLICIT) (UNKNOWN 0 0 0 UNKNOWN ()) 302 0 (303 304 305 306 307)
() 0 () () () 0 0)
308 'random_vector_seed_10' 'common_functions' 'random_vector_seed_10' 1
((PROCEDURE UNKNOWN-INTENT MODULE-PROC DECL UNKNOWN SUBROUTINE
ALWAYS_EXPLICIT) (UNKNOWN 0 0 0 UNKNOWN ()) 309 0 (310 311 312) () 0 ()
() () 0 0)
313 'randperm_int' 'common_functions' 'randperm_int' 1 ((PROCEDURE
UNKNOWN-INTENT MODULE-PROC DECL UNKNOWN SUBROUTINE ALWAYS_EXPLICIT) (
UNKNOWN 0 0 0 UNKNOWN ()) 314 0 (315) () 0 () () () 0 0)
316 'range_d' 'scattersearchtypes' 'range_d' 1 ((PARAMETER
UNKNOWN-INTENT UNKNOWN-PROC UNKNOWN IMPLICIT-SAVE) (INTEGER 4 0 0
INTEGER ()) 0 0 () (CONSTANT (INTEGER 4 0 0 INTEGER ()) 0 '307') () 0 ()
() () 0 0)
317 'range_f' 'scattersearchtypes' 'range_f' 1 ((PARAMETER
UNKNOWN-INTENT UNKNOWN-PROC UNKNOWN IMPLICIT-SAVE) (INTEGER 4 0 0
INTEGER ()) 0 0 () (CONSTANT (INTEGER 4 0 0 INTEGER ()) 0 '150') () 0 ()
() () 0 0)
318 'reajust_index' 'common_functions' 'reajust_index' 1 ((PROCEDURE
UNKNOWN-INTENT MODULE-PROC DECL UNKNOWN SUBROUTINE ALWAYS_EXPLICIT) (
UNKNOWN 0 0 0 UNKNOWN ()) 319 0 (320) () 0 () () () 0 0)
321 'real' '(intrinsic)' 'real' 1 ((PROCEDURE UNKNOWN-INTENT
UNKNOWN-PROC UNKNOWN UNKNOWN FUNCTION) (REAL 4 0 0 REAL ()) 0 0 () ()
321 () () () 0 0)
322 'refsettype' 'scattersearchtypes' 'refsettype' 1 ((DERIVED
UNKNOWN-INTENT UNKNOWN-PROC UNKNOWN UNKNOWN ALLOC_COMP) (UNKNOWN 0 0 0
UNKNOWN ()) 0 0 () () 0 ((323 'x' (REAL 8 0 0 REAL ()) (2 DEFERRED () ()
() ()) (UNKNOWN-FL UNKNOWN-INTENT UNKNOWN-PROC UNKNOWN UNKNOWN
ALLOCATABLE DIMENSION) UNKNOWN-ACCESS ()) (324 'f' (REAL 8 0 0 REAL ())
(1 DEFERRED () ()) (UNKNOWN-FL UNKNOWN-INTENT UNKNOWN-PROC UNKNOWN
UNKNOWN ALLOCATABLE DIMENSION) UNKNOWN-ACCESS ()) (325 'fpen' (REAL 8 0
0 REAL ()) (1 DEFERRED () ()) (UNKNOWN-FL UNKNOWN-INTENT UNKNOWN-PROC
UNKNOWN UNKNOWN ALLOCATABLE DIMENSION) UNKNOWN-ACCESS ()) (326 'nlc' (
REAL 8 0 0 REAL ()) (2 DEFERRED () () () ()) (UNKNOWN-FL UNKNOWN-INTENT
UNKNOWN-PROC UNKNOWN UNKNOWN ALLOCATABLE DIMENSION) UNKNOWN-ACCESS ()) (
327 'penalty' (REAL 8 0 0 REAL ()) (1 DEFERRED () ()) (UNKNOWN-FL
UNKNOWN-INTENT UNKNOWN-PROC UNKNOWN UNKNOWN ALLOCATABLE DIMENSION)
UNKNOWN-ACCESS ()) (328 'parent_index' (INTEGER 4 0 0 INTEGER ()) (1
DEFERRED () ()) (UNKNOWN-FL UNKNOWN-INTENT UNKNOWN-PROC UNKNOWN UNKNOWN
ALLOCATABLE DIMENSION) UNKNOWN-ACCESS ())) PUBLIC (() ()) () 0 0)
329 'replace_matrix' 'common_functions' 'replace_matrix' 1 ((PROCEDURE
UNKNOWN-INTENT MODULE-PROC DECL UNKNOWN SUBROUTINE ALWAYS_EXPLICIT) (
UNKNOWN 0 0 0 UNKNOWN ()) 330 0 (331 332) () 0 () () () 0 0)
333 'resultsf' 'scattersearchtypes' 'resultsf' 1 ((DERIVED
UNKNOWN-INTENT UNKNOWN-PROC UNKNOWN UNKNOWN ALLOC_COMP) (UNKNOWN 0 0 0
UNKNOWN ()) 0 0 () () 0 ((334 'refsett' (DERIVED 322 0 0 DERIVED ()) ()
(UNKNOWN-FL UNKNOWN-INTENT UNKNOWN-PROC UNKNOWN UNKNOWN) UNKNOWN-ACCESS
(STRUCTURE (DERIVED 322 0 0 DERIVED ()) 0 (((NULL (REAL 8 0 0 REAL ()) 0)
()) ((NULL (REAL 8 0 0 REAL ()) 0) ()) ((NULL (REAL 8 0 0 REAL ()) 0) ())
((NULL (REAL 8 0 0 REAL ()) 0) ()) ((NULL (REAL 8 0 0 REAL ()) 0) ()) (
(NULL (INTEGER 4 0 0 INTEGER ()) 0) ())) ())) (335 'fbest' (REAL 8 0 0
REAL ()) (1 DEFERRED () ()) (UNKNOWN-FL UNKNOWN-INTENT UNKNOWN-PROC
UNKNOWN UNKNOWN ALLOCATABLE DIMENSION) UNKNOWN-ACCESS ()) (336 'xbest' (
REAL 8 0 0 REAL ()) (1 DEFERRED () ()) (UNKNOWN-FL UNKNOWN-INTENT
UNKNOWN-PROC UNKNOWN UNKNOWN ALLOCATABLE DIMENSION) UNKNOWN-ACCESS ()) (
337 'cputime' (REAL 8 1 0 REAL ()) () (UNKNOWN-FL UNKNOWN-INTENT
UNKNOWN-PROC UNKNOWN UNKNOWN) UNKNOWN-ACCESS ()) (338 'f' (REAL 8 0 0
REAL ()) (1 DEFERRED () ()) (UNKNOWN-FL UNKNOWN-INTENT UNKNOWN-PROC
UNKNOWN UNKNOWN ALLOCATABLE DIMENSION) UNKNOWN-ACCESS ()) (339 'x' (
REAL 8 0 0 REAL ()) (2 DEFERRED () () () ()) (UNKNOWN-FL UNKNOWN-INTENT
UNKNOWN-PROC UNKNOWN UNKNOWN ALLOCATABLE DIMENSION) UNKNOWN-ACCESS ()) (
340 'time' (REAL 8 1 0 REAL ()) (1 DEFERRED () ()) (UNKNOWN-FL
UNKNOWN-INTENT UNKNOWN-PROC UNKNOWN UNKNOWN ALLOCATABLE DIMENSION)
UNKNOWN-ACCESS ()) (341 'neval' (INTEGER 8 1 0 INTEGER ()) (1 DEFERRED ()
()) (UNKNOWN-FL UNKNOWN-INTENT UNKNOWN-PROC UNKNOWN UNKNOWN ALLOCATABLE
DIMENSION) UNKNOWN-ACCESS ()) (342 'numeval' (INTEGER 8 1 0 INTEGER ())
() (UNKNOWN-FL UNKNOWN-INTENT UNKNOWN-PROC UNKNOWN UNKNOWN)
UNKNOWN-ACCESS ()) (343 'local_solutions' (INTEGER 8 1 0 INTEGER ()) ()
(UNKNOWN-FL UNKNOWN-INTENT UNKNOWN-PROC UNKNOWN UNKNOWN) UNKNOWN-ACCESS
()) (344 'local_solutions_values' (INTEGER 8 1 0 INTEGER ()) (1 DEFERRED
() ()) (UNKNOWN-FL UNKNOWN-INTENT UNKNOWN-PROC UNKNOWN UNKNOWN
ALLOCATABLE DIMENSION) UNKNOWN-ACCESS ()) (345 'end_crit' (INTEGER 8 1 0
INTEGER ()) () (UNKNOWN-FL UNKNOWN-INTENT UNKNOWN-PROC UNKNOWN UNKNOWN)
UNKNOWN-ACCESS ())) PUBLIC (() ()) () 0 0)
346 'return_random_number' 'common_functions' 'return_random_number' 1 (
(PROCEDURE UNKNOWN-INTENT MODULE-PROC DECL UNKNOWN FUNCTION) (REAL 8 0 0
REAL ()) 347 0 (348) () 349 () () () 0 0)
350 'return_values_matrix_index' 'common_functions'
'return_values_matrix_index' 1 ((PROCEDURE UNKNOWN-INTENT MODULE-PROC
DECL UNKNOWN SUBROUTINE ALWAYS_EXPLICIT) (UNKNOWN 0 0 0 UNKNOWN ()) 351
0 (352 353 354) () 0 () () () 0 0)
355 'row_one' 'common_functions' 'row_one' 1 ((PROCEDURE UNKNOWN-INTENT
MODULE-PROC DECL UNKNOWN SUBROUTINE ALWAYS_EXPLICIT) (UNKNOWN 0 0 0
UNKNOWN ()) 356 0 (357 358 359) () 0 () () () 0 0)
360 'scattersearchtypes' 'scattersearchtypes' 'scattersearchtypes' 1 ((
MODULE UNKNOWN-INTENT UNKNOWN-PROC UNKNOWN UNKNOWN) (UNKNOWN 0 0 0
UNKNOWN ()) 0 0 () () 0 () () () 0 0)
361 'selected_real_kind' '(intrinsic)' 'selected_real_kind' 1 ((
PROCEDURE UNKNOWN-INTENT UNKNOWN-PROC UNKNOWN UNKNOWN FUNCTION) (REAL 4
0 0 REAL ()) 0 0 () () 361 () () () 0 0)
362 'square_roots_polinom' 'common_functions' 'square_roots_polinom' 1 (
(PROCEDURE UNKNOWN-INTENT MODULE-PROC DECL UNKNOWN SUBROUTINE) (UNKNOWN
0 0 0 UNKNOWN ()) 363 0 (364 365) () 0 () () () 0 0)
366 'tol_prec' 'scattersearchtypes' 'tol_prec' 1 ((PARAMETER
UNKNOWN-INTENT UNKNOWN-PROC UNKNOWN IMPLICIT-SAVE) (REAL 8 0 0 REAL ())
0 0 () (CONSTANT (REAL 8 0 0 REAL ()) 0 '0.12725dd1d243ac@-14') () 0 ()
() () 0 0)
367 'topology_data_fortran' 'scattersearchtypes' 'topology_data_fortran'
1 ((DERIVED UNKNOWN-INTENT UNKNOWN-PROC UNKNOWN UNKNOWN ALLOC_COMP) (
UNKNOWN 0 0 0 UNKNOWN ()) 0 0 () () 0 ((368 'num_r' (INTEGER 4 0 0
INTEGER ()) () (UNKNOWN-FL UNKNOWN-INTENT UNKNOWN-PROC UNKNOWN UNKNOWN)
UNKNOWN-ACCESS ()) (369 'num_left' (INTEGER 4 0 0 INTEGER ()) () (
UNKNOWN-FL UNKNOWN-INTENT UNKNOWN-PROC UNKNOWN UNKNOWN) UNKNOWN-ACCESS ())
(370 'rigth' (INTEGER 4 0 0 INTEGER ()) (1 DEFERRED () ()) (UNKNOWN-FL
UNKNOWN-INTENT UNKNOWN-PROC UNKNOWN UNKNOWN ALLOCATABLE DIMENSION)
UNKNOWN-ACCESS ()) (371 'left' (INTEGER 4 0 0 INTEGER ()) (1 DEFERRED ()
()) (UNKNOWN-FL UNKNOWN-INTENT UNKNOWN-PROC UNKNOWN UNKNOWN ALLOCATABLE
DIMENSION) UNKNOWN-ACCESS ())) PUBLIC (() ()) () 0 0)
217 'uoptions' 'scattersearchtypes' 'uoptions' 1 ((DERIVED
UNKNOWN-INTENT UNKNOWN-PROC UNKNOWN UNKNOWN ALLOC_COMP) (UNKNOWN 0 0 0
UNKNOWN ()) 0 0 () () 0 ((372 'empty' (INTEGER 4 0 0 INTEGER ()) () (
UNKNOWN-FL UNKNOWN-INTENT UNKNOWN-PROC UNKNOWN UNKNOWN) UNKNOWN-ACCESS ())
(373 'iterprint' (INTEGER 4 0 0 INTEGER ()) () (UNKNOWN-FL
UNKNOWN-INTENT UNKNOWN-PROC UNKNOWN UNKNOWN) UNKNOWN-ACCESS ()) (374
'plot' (INTEGER 4 0 0 INTEGER ()) () (UNKNOWN-FL UNKNOWN-INTENT
UNKNOWN-PROC UNKNOWN UNKNOWN) UNKNOWN-ACCESS ()) (375 'weight' (INTEGER
4 0 0 INTEGER ()) () (UNKNOWN-FL UNKNOWN-INTENT UNKNOWN-PROC UNKNOWN
UNKNOWN) UNKNOWN-ACCESS ()) (376 'nstuck_solution' (INTEGER 4 0 0
INTEGER ()) () (UNKNOWN-FL UNKNOWN-INTENT UNKNOWN-PROC UNKNOWN UNKNOWN)
UNKNOWN-ACCESS ()) (377 'strategy' (INTEGER 4 0 0 INTEGER ()) () (
UNKNOWN-FL UNKNOWN-INTENT UNKNOWN-PROC UNKNOWN UNKNOWN) UNKNOWN-ACCESS ())
(378 'inter_save' (INTEGER 4 0 0 INTEGER ()) () (UNKNOWN-FL
UNKNOWN-INTENT UNKNOWN-PROC UNKNOWN UNKNOWN) UNKNOWN-ACCESS ()) (379
'maxeval' (INTEGER 8 1 0 INTEGER ()) () (UNKNOWN-FL UNKNOWN-INTENT
UNKNOWN-PROC UNKNOWN UNKNOWN) UNKNOWN-ACCESS ()) (380 'maxtime' (REAL 8
1 0 REAL ()) () (UNKNOWN-FL UNKNOWN-INTENT UNKNOWN-PROC UNKNOWN UNKNOWN)
UNKNOWN-ACCESS ()) (381 'tolc' (REAL 8 0 0 REAL ()) () (UNKNOWN-FL
UNKNOWN-INTENT UNKNOWN-PROC UNKNOWN UNKNOWN) UNKNOWN-ACCESS ()) (382
'prob_bound' (REAL 8 0 0 REAL ()) () (UNKNOWN-FL UNKNOWN-INTENT
UNKNOWN-PROC UNKNOWN UNKNOWN) UNKNOWN-ACCESS ()) (383 'log_var' (
INTEGER 4 0 0 INTEGER ()) (1 DEFERRED () ()) (UNKNOWN-FL UNKNOWN-INTENT
UNKNOWN-PROC UNKNOWN UNKNOWN ALLOCATABLE DIMENSION) UNKNOWN-ACCESS ()) (
384 'init_point' (INTEGER 4 0 0 INTEGER ()) () (UNKNOWN-FL
UNKNOWN-INTENT UNKNOWN-PROC UNKNOWN UNKNOWN) UNKNOWN-ACCESS ())) PUBLIC
(() ()) () 0 0)
385 'variance_vector' 'common_functions' 'variance_vector' 1 ((
PROCEDURE UNKNOWN-INTENT MODULE-PROC DECL UNKNOWN FUNCTION
ALWAYS_EXPLICIT) (REAL 8 0 0 REAL ()) 386 0 (387) () 388 () () () 0 0)
179 'mm' '' 'mm' 178 ((VARIABLE INOUT UNKNOWN-PROC UNKNOWN UNKNOWN
DIMENSION POINTER DUMMY) (REAL 8 0 0 REAL ()) 0 0 () (1 DEFERRED () ())
0 () () () 0 0)
180 'd' '' 'd' 178 ((VARIABLE IN UNKNOWN-PROC UNKNOWN UNKNOWN DUMMY) (
INTEGER 4 0 0 INTEGER ()) 0 0 () () 0 () () () 0 0)
181 'value' '' 'value' 178 ((VARIABLE IN UNKNOWN-PROC UNKNOWN UNKNOWN
DUMMY) (REAL 8 0 0 REAL ()) 0 0 () () 0 () () () 0 0)
175 'mm' '' 'mm' 174 ((VARIABLE INOUT UNKNOWN-PROC UNKNOWN UNKNOWN
ALLOCATABLE DIMENSION DUMMY) (REAL 8 0 0 REAL ()) 0 0 () (1 DEFERRED ()
()) 0 () () () 0 0)
176 'd' '' 'd' 174 ((VARIABLE IN UNKNOWN-PROC UNKNOWN UNKNOWN DUMMY) (
INTEGER 4 0 0 INTEGER ()) 0 0 () () 0 () () () 0 0)
237 'mm' '' 'mm' 236 ((VARIABLE UNKNOWN-INTENT UNKNOWN-PROC UNKNOWN
UNKNOWN ALLOCATABLE DIMENSION DUMMY) (REAL 8 0 0 REAL ()) 0 0 () (1
DEFERRED () ()) 0 () () () 0 0)
109 'mm' '' 'mm' 108 ((VARIABLE INOUT UNKNOWN-PROC UNKNOWN UNKNOWN
ALLOCATABLE DIMENSION DUMMY) (REAL 8 0 0 REAL ()) 0 0 () (1 DEFERRED ()
()) 0 () () () 0 0)
295 'exp1' '' 'exp1' 294 ((VARIABLE INOUT UNKNOWN-PROC UNKNOWN UNKNOWN
DUMMY) (DERIVED 57 0 0 DERIVED ()) 0 0 () () 0 () () () 0 0)
25 'fptr' '__iso_c_binding' 'fptr' 23 ((VARIABLE UNKNOWN-INTENT
UNKNOWN-PROC UNKNOWN UNKNOWN POINTER DUMMY) (VOID 0 0 0 VOID ()) 0 0 ()
() 0 () () () 0 0)
24 'cptr' '__iso_c_binding' 'cptr' 23 ((DERIVED IN UNKNOWN-PROC UNKNOWN
UNKNOWN VALUE DUMMY) (DERIVED 57 0 0 DERIVED ()) 0 0 () () 0 () () () 0
0)
30 'fptr' '__iso_c_binding' 'fptr' 28 ((VARIABLE UNKNOWN-INTENT
UNKNOWN-PROC UNKNOWN UNKNOWN DUMMY PROC_POINTER) (VOID 0 0 0 VOID ()) 0
0 () () 0 () () () 0 0)
29 'cptr' '__iso_c_binding' 'cptr' 28 ((DERIVED IN UNKNOWN-PROC UNKNOWN
UNKNOWN VALUE DUMMY) (DERIVED 35 0 0 DERIVED ()) 0 0 () () 0 () () () 0
0)
26 'shape' '__iso_c_binding' 'shape' 23 ((VARIABLE IN UNKNOWN-PROC
UNKNOWN UNKNOWN DIMENSION OPTIONAL DUMMY) (VOID 4 0 0 VOID ()) 0 0 () (
1 ASSUMED_SHAPE (CONSTANT (INTEGER 4 0 0 INTEGER ()) 0 '1') ()) 0 () ()
() 0 0)
15 'c_ptr_2' '__iso_c_binding' 'c_ptr_2' 13 ((DERIVED IN UNKNOWN-PROC
UNKNOWN UNKNOWN OPTIONAL VALUE DUMMY) (DERIVED 57 0 0 DERIVED ()) 0 0 ()
() 0 () () () 0 0)
14 'c_ptr_1' '__iso_c_binding' 'c_ptr_1' 13 ((DERIVED IN UNKNOWN-PROC
UNKNOWN UNKNOWN VALUE DUMMY) (DERIVED 57 0 0 DERIVED ()) 0 0 () () 0 ()
() () 0 0)
296 'x' '' 'x' 294 ((VARIABLE INOUT UNKNOWN-PROC UNKNOWN UNKNOWN
ALLOCATABLE DIMENSION DUMMY) (REAL 8 0 0 REAL ()) 0 0 () (1 DEFERRED ()
()) 0 () () () 0 0)
297 'd' '' 'd' 294 ((VARIABLE IN UNKNOWN-PROC UNKNOWN UNKNOWN DUMMY) (
INTEGER 4 0 0 INTEGER ()) 0 0 () () 0 () () () 0 0)
298 'xl' '' 'xl' 294 ((VARIABLE IN UNKNOWN-PROC UNKNOWN UNKNOWN
ALLOCATABLE DIMENSION DUMMY) (REAL 8 0 0 REAL ()) 0 0 () (1 DEFERRED ()
()) 0 () () () 0 0)
299 'xu' '' 'xu' 294 ((VARIABLE IN UNKNOWN-PROC UNKNOWN UNKNOWN
ALLOCATABLE DIMENSION DUMMY) (REAL 8 0 0 REAL ()) 0 0 () (1 DEFERRED ()
()) 0 () () () 0 0)
300 'cont' '' 'cont' 294 ((VARIABLE IN UNKNOWN-PROC UNKNOWN UNKNOWN
DUMMY) (INTEGER 4 0 0 INTEGER ()) 0 0 () () 0 () () () 0 0)
113 'x' '' 'x' 112 ((VARIABLE UNKNOWN-INTENT UNKNOWN-PROC UNKNOWN
UNKNOWN DIMENSION POINTER DUMMY) (REAL 8 0 0 REAL ()) 0 0 () (1 DEFERRED
() ()) 0 () () () 0 0)
9 'x' '' 'x' 8 ((VARIABLE INOUT UNKNOWN-PROC UNKNOWN UNKNOWN ALLOCATABLE
DIMENSION DUMMY) (REAL 8 0 0 REAL ()) 0 0 () (1 DEFERRED () ()) 0 () ()
() 0 0)
303 'exp1' '' 'exp1' 302 ((VARIABLE INOUT UNKNOWN-PROC UNKNOWN UNKNOWN
DUMMY) (DERIVED 57 0 0 DERIVED ()) 0 0 () () 0 () () () 0 0)
304 'x' '' 'x' 302 ((VARIABLE INOUT UNKNOWN-PROC UNKNOWN UNKNOWN
ALLOCATABLE DIMENSION DUMMY) (REAL 8 0 0 REAL ()) 0 0 () (1 DEFERRED ()
()) 0 () () () 0 0)
305 'd' '' 'd' 302 ((VARIABLE IN UNKNOWN-PROC UNKNOWN UNKNOWN DUMMY) (
INTEGER 4 0 0 INTEGER ()) 0 0 () () 0 () () () 0 0)
306 'xl' '' 'xl' 302 ((VARIABLE IN UNKNOWN-PROC UNKNOWN UNKNOWN
ALLOCATABLE DIMENSION DUMMY) (REAL 8 0 0 REAL ()) 0 0 () (1 DEFERRED ()
()) 0 () () () 0 0)
307 'xu' '' 'xu' 302 ((VARIABLE IN UNKNOWN-PROC UNKNOWN UNKNOWN
ALLOCATABLE DIMENSION DUMMY) (REAL 8 0 0 REAL ()) 0 0 () (1 DEFERRED ()
()) 0 () () () 0 0)
312 'd' '' 'd' 309 ((VARIABLE IN UNKNOWN-PROC UNKNOWN UNKNOWN DUMMY) (
INTEGER 4 0 0 INTEGER ()) 0 0 () () 0 () () () 0 0)
311 'x' '' 'x' 309 ((VARIABLE INOUT UNKNOWN-PROC UNKNOWN UNKNOWN
ALLOCATABLE DIMENSION DUMMY) (REAL 8 0 0 REAL ()) 0 0 () (1 DEFERRED ()
()) 0 () () () 0 0)
310 'exp1' '' 'exp1' 309 ((VARIABLE INOUT UNKNOWN-PROC UNKNOWN UNKNOWN
DUMMY) (DERIVED 57 0 0 DERIVED ()) 0 0 () () 0 () () () 0 0)
289 'exp1' '' 'exp1' 288 ((VARIABLE INOUT UNKNOWN-PROC UNKNOWN UNKNOWN
DUMMY) (DERIVED 57 0 0 DERIVED ()) 0 0 () () 0 () () () 0 0)
290 'x' '' 'x' 288 ((VARIABLE INOUT UNKNOWN-PROC UNKNOWN UNKNOWN
ALLOCATABLE DIMENSION DUMMY) (REAL 8 0 0 REAL ()) 0 0 () (2 DEFERRED ()
() () ()) 0 () () () 0 0)
291 'sizei' '' 'sizei' 288 ((VARIABLE IN UNKNOWN-PROC UNKNOWN UNKNOWN
DUMMY) (INTEGER 4 0 0 INTEGER ()) 0 0 () () 0 () () () 0 0)
292 'sizej' '' 'sizej' 288 ((VARIABLE IN UNKNOWN-PROC UNKNOWN UNKNOWN
DUMMY) (INTEGER 4 0 0 INTEGER ()) 0 0 () () 0 () () () 0 0)
348 'exp1' '' 'exp1' 347 ((VARIABLE INOUT UNKNOWN-PROC UNKNOWN UNKNOWN
DUMMY) (DERIVED 57 0 0 DERIVED ()) 0 0 () () 0 () () () 0 0)
349 'res' '' 'res' 347 ((VARIABLE UNKNOWN-INTENT UNKNOWN-PROC UNKNOWN
UNKNOWN RESULT) (REAL 8 0 0 REAL ()) 0 0 () () 0 () () () 0 0)
184 'x' '' 'x' 183 ((VARIABLE INOUT UNKNOWN-PROC UNKNOWN UNKNOWN
ALLOCATABLE DIMENSION DUMMY) (REAL 8 0 0 REAL ()) 0 0 () (1 DEFERRED ()
()) 0 () () () 0 0)
185 'currentsize' '' 'currentsize' 183 ((VARIABLE IN UNKNOWN-PROC
UNKNOWN UNKNOWN DUMMY) (INTEGER 4 0 0 INTEGER ()) 0 0 () () 0 () () () 0
0)
141 'matrix1' '' 'matrix1' 140 ((VARIABLE IN UNKNOWN-PROC UNKNOWN
UNKNOWN ALLOCATABLE DIMENSION DUMMY) (REAL 8 0 0 REAL ()) 0 0 () (2
DEFERRED () () () ()) 0 () () () 0 0)
142 'matrix2' '' 'matrix2' 140 ((VARIABLE INOUT UNKNOWN-PROC UNKNOWN
UNKNOWN ALLOCATABLE DIMENSION DUMMY) (REAL 8 0 0 REAL ()) 0 0 () (2
DEFERRED () () () ()) 0 () () () 0 0)
145 'vector1' '' 'vector1' 144 ((VARIABLE IN UNKNOWN-PROC UNKNOWN
UNKNOWN ALLOCATABLE DIMENSION DUMMY) (REAL 8 0 0 REAL ()) 0 0 () (1
DEFERRED () ()) 0 () () () 0 0)
146 'vector2' '' 'vector2' 144 ((VARIABLE INOUT UNKNOWN-PROC UNKNOWN
UNKNOWN ALLOCATABLE DIMENSION DUMMY) (REAL 8 0 0 REAL ()) 0 0 () (1
DEFERRED () ()) 0 () () () 0 0)
149 'vector1' '' 'vector1' 148 ((VARIABLE IN UNKNOWN-PROC UNKNOWN
UNKNOWN ALLOCATABLE DIMENSION DUMMY) (INTEGER 4 0 0 INTEGER ()) 0 0 () (
1 DEFERRED () ()) 0 () () () 0 0)
150 'vector2' '' 'vector2' 148 ((VARIABLE INOUT UNKNOWN-PROC UNKNOWN
UNKNOWN ALLOCATABLE DIMENSION DUMMY) (INTEGER 4 0 0 INTEGER ()) 0 0 () (
1 DEFERRED () ()) 0 () () () 0 0)
231 'matrix' '' 'matrix' 230 ((VARIABLE IN UNKNOWN-PROC UNKNOWN UNKNOWN
ALLOCATABLE DIMENSION DUMMY) (REAL 8 0 0 REAL ()) 0 0 () (2 DEFERRED ()
() () ()) 0 () () () 0 0)
234 'matrix' '' 'matrix' 233 ((VARIABLE IN UNKNOWN-PROC UNKNOWN UNKNOWN
ALLOCATABLE DIMENSION DUMMY) (INTEGER 4 0 0 INTEGER ()) 0 0 () (2
DEFERRED () () () ()) 0 () () () 0 0)
365 'result1' '' 'result1' 363 ((VARIABLE INOUT UNKNOWN-PROC UNKNOWN
UNKNOWN DIMENSION DUMMY) (REAL 8 0 0 REAL ()) 0 0 () (1 EXPLICIT (
CONSTANT (INTEGER 4 0 0 INTEGER ()) 0 '1') (CONSTANT (INTEGER 4 0 0
INTEGER ()) 0 '2')) 0 () () () 0 0)
364 'matrix1' '' 'matrix1' 363 ((VARIABLE IN UNKNOWN-PROC UNKNOWN
UNKNOWN DIMENSION DUMMY) (REAL 8 0 0 REAL ()) 0 0 () (1 EXPLICIT (
CONSTANT (INTEGER 4 0 0 INTEGER ()) 0 '1') (CONSTANT (INTEGER 4 0 0
INTEGER ()) 0 '3')) 0 () () () 0 0)
73 'vector' '' 'vector' 72 ((VARIABLE IN UNKNOWN-PROC UNKNOWN UNKNOWN
ALLOCATABLE DIMENSION DUMMY) (INTEGER 4 0 0 INTEGER ()) 0 0 () (1
DEFERRED () ()) 0 () () () 0 0)
74 'res' '' 'res' 72 ((VARIABLE UNKNOWN-INTENT UNKNOWN-PROC UNKNOWN
UNKNOWN RESULT ALWAYS_EXPLICIT) (INTEGER 4 0 0 INTEGER ()) 0 0 () () 0 ()
() () 0 0)
136 'vector' '' 'vector' 135 ((VARIABLE IN UNKNOWN-PROC UNKNOWN UNKNOWN
ALLOCATABLE DIMENSION DUMMY) (INTEGER 4 0 0 INTEGER ()) 0 0 () (1
DEFERRED () ()) 0 () () () 0 0)
137 'value1' '' 'value1' 135 ((VARIABLE IN UNKNOWN-PROC UNKNOWN UNKNOWN
DUMMY) (INTEGER 4 0 0 INTEGER ()) 0 0 () () 0 () () () 0 0)
138 'res' '' 'res' 135 ((VARIABLE UNKNOWN-INTENT UNKNOWN-PROC UNKNOWN
UNKNOWN RESULT ALWAYS_EXPLICIT) (INTEGER 4 0 0 INTEGER ()) 0 0 () () 0 ()
() () 0 0)
124 'vector' '' 'vector' 123 ((VARIABLE IN UNKNOWN-PROC UNKNOWN UNKNOWN
ALLOCATABLE DIMENSION DUMMY) (REAL 8 0 0 REAL ()) 0 0 () (1 DEFERRED ()
()) 0 () () () 0 0)
125 'value' '' 'value' 123 ((VARIABLE IN UNKNOWN-PROC UNKNOWN UNKNOWN
DUMMY) (REAL 8 0 0 REAL ()) 0 0 () () 0 () () () 0 0)
126 'vectorout' '' 'vectorout' 123 ((VARIABLE INOUT UNKNOWN-PROC UNKNOWN
UNKNOWN ALLOCATABLE DIMENSION DUMMY) (INTEGER 4 0 0 INTEGER ()) 0 0 () (
1 DEFERRED () ()) 0 () () () 0 0)
127 'opt' '' 'opt' 123 ((VARIABLE IN UNKNOWN-PROC UNKNOWN UNKNOWN DUMMY)
(CHARACTER 1 0 0 CHARACTER ((CONSTANT (INTEGER 4 0 0 INTEGER ()) 0 '2')))
0 0 () () 0 () () () 0 0)
130 'vector' '' 'vector' 129 ((VARIABLE IN UNKNOWN-PROC UNKNOWN UNKNOWN
ALLOCATABLE DIMENSION DUMMY) (INTEGER 4 0 0 INTEGER ()) 0 0 () (1
DEFERRED () ()) 0 () () () 0 0)
131 'value1' '' 'value1' 129 ((VARIABLE IN UNKNOWN-PROC UNKNOWN UNKNOWN
DUMMY) (INTEGER 4 0 0 INTEGER ()) 0 0 () () 0 () () () 0 0)
132 'vectorout' '' 'vectorout' 129 ((VARIABLE INOUT UNKNOWN-PROC UNKNOWN
UNKNOWN ALLOCATABLE DIMENSION DUMMY) (INTEGER 4 0 0 INTEGER ()) 0 0 () (
1 DEFERRED () ()) 0 () () () 0 0)
133 'opt' '' 'opt' 129 ((VARIABLE IN UNKNOWN-PROC UNKNOWN UNKNOWN DUMMY)
(CHARACTER 1 0 0 CHARACTER ((CONSTANT (INTEGER 4 0 0 INTEGER ()) 0 '2')))
0 0 () () 0 () () () 0 0)
331 'matrix' '' 'matrix' 330 ((VARIABLE INOUT UNKNOWN-PROC UNKNOWN
UNKNOWN ALLOCATABLE DIMENSION DUMMY) (REAL 8 0 0 REAL ()) 0 0 () (2
DEFERRED () () () ()) 0 () () () 0 0)
332 'value1' '' 'value1' 330 ((VARIABLE IN UNKNOWN-PROC UNKNOWN UNKNOWN
DUMMY) (REAL 8 0 0 REAL ()) 0 0 () () 0 () () () 0 0)
211 'vector' '' 'vector' 210 ((VARIABLE IN UNKNOWN-PROC UNKNOWN UNKNOWN
ALLOCATABLE DIMENSION DUMMY) (INTEGER 4 0 0 INTEGER ()) 0 0 () (1
DEFERRED () ()) 0 () () () 0 0)
212 'pars' '' 'pars' 210 ((VARIABLE IN UNKNOWN-PROC UNKNOWN UNKNOWN
DUMMY) (INTEGER 4 0 0 INTEGER ()) 0 0 () () 0 () () () 0 0)
213 'vectorout' '' 'vectorout' 210 ((VARIABLE INOUT UNKNOWN-PROC UNKNOWN
UNKNOWN ALLOCATABLE DIMENSION DUMMY) (INTEGER 4 0 0 INTEGER ()) 0 0 () (
2 DEFERRED () () () ()) 0 () () () 0 0)
105 'vector1' '' 'vector1' 104 ((VARIABLE INOUT UNKNOWN-PROC UNKNOWN
UNKNOWN ALLOCATABLE DIMENSION DUMMY) (INTEGER 4 0 0 INTEGER ()) 0 0 () (
1 DEFERRED () ()) 0 () () () 0 0)
106 'num' '' 'num' 104 ((VARIABLE UNKNOWN-INTENT UNKNOWN-PROC UNKNOWN
UNKNOWN DUMMY) (INTEGER 4 0 0 INTEGER ()) 0 0 () () 0 () () () 0 0)
315 'vector1' '' 'vector1' 314 ((VARIABLE INOUT UNKNOWN-PROC UNKNOWN
UNKNOWN ALLOCATABLE DIMENSION DUMMY) (INTEGER 4 0 0 INTEGER ()) 0 0 () (
1 DEFERRED () ()) 0 () () () 0 0)
387 'vector1' '' 'vector1' 386 ((VARIABLE IN UNKNOWN-PROC UNKNOWN
UNKNOWN ALLOCATABLE DIMENSION DUMMY) (REAL 8 0 0 REAL ()) 0 0 () (1
DEFERRED () ()) 0 () () () 0 0)
388 'variance' '' 'variance' 386 ((VARIABLE UNKNOWN-INTENT UNKNOWN-PROC
UNKNOWN UNKNOWN RESULT ALWAYS_EXPLICIT) (REAL 8 0 0 REAL ()) 0 0 () () 0
() () () 0 0)
5 'vector1' '' 'vector1' 4 ((VARIABLE IN UNKNOWN-PROC UNKNOWN UNKNOWN
ALLOCATABLE DIMENSION DUMMY) (REAL 8 0 0 REAL ()) 0 0 () (2 DEFERRED ()
() () ()) 0 () () () 0 0)
6 'res' '' 'res' 4 ((VARIABLE UNKNOWN-INTENT UNKNOWN-PROC UNKNOWN
UNKNOWN ALLOCATABLE DIMENSION RESULT ALWAYS_EXPLICIT) (REAL 8 0 0 REAL ())
0 0 () (2 DEFERRED () () () ()) 0 () () () 0 0)
206 'matrix1' '' 'matrix1' 205 ((VARIABLE IN UNKNOWN-PROC UNKNOWN
UNKNOWN ALLOCATABLE DIMENSION DUMMY) (REAL 8 0 0 REAL ()) 0 0 () (2
DEFERRED () () () ()) 0 () () () 0 0)
207 'matrix2' '' 'matrix2' 205 ((VARIABLE IN UNKNOWN-PROC UNKNOWN
UNKNOWN ALLOCATABLE DIMENSION DUMMY) (REAL 8 0 0 REAL ()) 0 0 () (2
DEFERRED () () () ()) 0 () () () 0 0)
208 'res' '' 'res' 205 ((VARIABLE UNKNOWN-INTENT UNKNOWN-PROC UNKNOWN
UNKNOWN ALLOCATABLE DIMENSION RESULT ALWAYS_EXPLICIT) (REAL 8 0 0 REAL ())
0 0 () (2 DEFERRED () () () ()) 0 () () () 0 0)
98 'vector1' '' 'vector1' 97 ((VARIABLE IN UNKNOWN-PROC UNKNOWN UNKNOWN
ALLOCATABLE DIMENSION DUMMY) (REAL 8 0 0 REAL ()) 0 0 () (1 DEFERRED ()
()) 0 () () () 0 0)
99 'value1' '' 'value1' 97 ((VARIABLE IN UNKNOWN-PROC UNKNOWN UNKNOWN
DUMMY) (REAL 8 0 0 REAL ()) 0 0 () () 0 () () () 0 0)
100 'opt' '' 'opt' 97 ((VARIABLE IN UNKNOWN-PROC UNKNOWN UNKNOWN DUMMY)
(CHARACTER 1 0 0 CHARACTER ((CONSTANT (INTEGER 4 0 0 INTEGER ()) 0 '2')))
0 0 () () 0 () () () 0 0)
101 'sizer' '' 'sizer' 97 ((VARIABLE INOUT UNKNOWN-PROC UNKNOWN UNKNOWN
DUMMY) (INTEGER 4 0 0 INTEGER ()) 0 0 () () 0 () () () 0 0)
102 'res1' '' 'res1' 97 ((VARIABLE UNKNOWN-INTENT UNKNOWN-PROC UNKNOWN
UNKNOWN ALLOCATABLE DIMENSION RESULT ALWAYS_EXPLICIT) (INTEGER 4 0 0
INTEGER ()) 0 0 () (1 DEFERRED () ()) 0 () () () 0 0)
78 'matrix1' '' 'matrix1' 77 ((VARIABLE IN UNKNOWN-PROC UNKNOWN UNKNOWN
ALLOCATABLE DIMENSION DUMMY) (REAL 8 0 0 REAL ()) 0 0 () (2 DEFERRED ()
() () ()) 0 () () () 0 0)
79 'value1' '' 'value1' 77 ((VARIABLE IN UNKNOWN-PROC UNKNOWN UNKNOWN
DUMMY) (REAL 8 0 0 REAL ()) 0 0 () () 0 () () () 0 0)
80 'opt' '' 'opt' 77 ((VARIABLE IN UNKNOWN-PROC UNKNOWN UNKNOWN DUMMY) (
CHARACTER 1 0 0 CHARACTER ((CONSTANT (INTEGER 4 0 0 INTEGER ()) 0 '2')))
0 0 () () 0 () () () 0 0)
81 'res1' '' 'res1' 77 ((VARIABLE UNKNOWN-INTENT UNKNOWN-PROC UNKNOWN
UNKNOWN ALLOCATABLE DIMENSION RESULT ALWAYS_EXPLICIT) (INTEGER 4 0 0
INTEGER ()) 0 0 () (2 DEFERRED () () () ()) 0 () () () 0 0)
84 'matrix1' '' 'matrix1' 83 ((VARIABLE IN UNKNOWN-PROC UNKNOWN UNKNOWN
ALLOCATABLE DIMENSION DUMMY) (REAL 8 0 0 REAL ()) 0 0 () (2 DEFERRED ()
() () ()) 0 () () () 0 0)
85 'matrix2' '' 'matrix2' 83 ((VARIABLE IN UNKNOWN-PROC UNKNOWN UNKNOWN
ALLOCATABLE DIMENSION DUMMY) (REAL 8 0 0 REAL ()) 0 0 () (2 DEFERRED ()
() () ()) 0 () () () 0 0)
86 'size' '' 'size' 83 ((VARIABLE INOUT UNKNOWN-PROC UNKNOWN UNKNOWN
DUMMY) (INTEGER 4 0 0 INTEGER ()) 0 0 () () 0 () () () 0 0)
87 'opt' '' 'opt' 83 ((VARIABLE IN UNKNOWN-PROC UNKNOWN UNKNOWN DUMMY) (
CHARACTER 1 0 0 CHARACTER ((CONSTANT (INTEGER 4 0 0 INTEGER ()) 0 '2')))
0 0 () () 0 () () () 0 0)
88 'res1' '' 'res1' 83 ((VARIABLE UNKNOWN-INTENT UNKNOWN-PROC UNKNOWN
UNKNOWN ALLOCATABLE DIMENSION RESULT ALWAYS_EXPLICIT) (INTEGER 4 0 0
INTEGER ()) 0 0 () (2 DEFERRED () () () ()) 0 () () () 0 0)
91 'vector1' '' 'vector1' 90 ((VARIABLE IN UNKNOWN-PROC UNKNOWN UNKNOWN
ALLOCATABLE DIMENSION DUMMY) (REAL 8 0 0 REAL ()) 0 0 () (1 DEFERRED ()
()) 0 () () () 0 0)
92 'vector2' '' 'vector2' 90 ((VARIABLE IN UNKNOWN-PROC UNKNOWN UNKNOWN
ALLOCATABLE DIMENSION DUMMY) (REAL 8 0 0 REAL ()) 0 0 () (1 DEFERRED ()
()) 0 () () () 0 0)
93 'sizer' '' 'sizer' 90 ((VARIABLE INOUT UNKNOWN-PROC UNKNOWN UNKNOWN
DUMMY) (INTEGER 4 0 0 INTEGER ()) 0 0 () () 0 () () () 0 0)
94 'opt' '' 'opt' 90 ((VARIABLE IN UNKNOWN-PROC UNKNOWN UNKNOWN DUMMY) (
CHARACTER 1 0 0 CHARACTER ((CONSTANT (INTEGER 4 0 0 INTEGER ()) 0 '2')))
0 0 () () 0 () () () 0 0)
95 'res1' '' 'res1' 90 ((VARIABLE UNKNOWN-INTENT UNKNOWN-PROC UNKNOWN
UNKNOWN ALLOCATABLE DIMENSION RESULT ALWAYS_EXPLICIT) (INTEGER 4 0 0
INTEGER ()) 0 0 () (1 DEFERRED () ()) 0 () () () 0 0)
357 'res1' '' 'res1' 356 ((VARIABLE IN UNKNOWN-PROC UNKNOWN UNKNOWN
ALLOCATABLE DIMENSION DUMMY) (INTEGER 4 0 0 INTEGER ()) 0 0 () (2
DEFERRED () () () ()) 0 () () () 0 0)
358 'res2' '' 'res2' 356 ((VARIABLE INOUT UNKNOWN-PROC UNKNOWN UNKNOWN
ALLOCATABLE DIMENSION DUMMY) (INTEGER 4 0 0 INTEGER ()) 0 0 () (1
DEFERRED () ()) 0 () () () 0 0)
359 'sizer' '' 'sizer' 356 ((VARIABLE INOUT UNKNOWN-PROC UNKNOWN UNKNOWN
DUMMY) (INTEGER 4 0 0 INTEGER ()) 0 0 () () 0 () () () 0 0)
166 'res1' '' 'res1' 165 ((VARIABLE IN UNKNOWN-PROC UNKNOWN UNKNOWN
ALLOCATABLE DIMENSION DUMMY) (INTEGER 4 0 0 INTEGER ()) 0 0 () (1
DEFERRED () ()) 0 () () () 0 0)
167 'bbb' '' 'bbb' 165 ((VARIABLE INOUT UNKNOWN-PROC UNKNOWN UNKNOWN
ALLOCATABLE DIMENSION DUMMY) (INTEGER 4 0 0 INTEGER ()) 0 0 () (1
DEFERRED () ()) 0 () () () 0 0)
320 'res1' '' 'res1' 319 ((VARIABLE INOUT UNKNOWN-PROC UNKNOWN UNKNOWN
ALLOCATABLE DIMENSION DUMMY) (INTEGER 4 0 0 INTEGER ()) 0 0 () (1
DEFERRED () ()) 0 () () () 0 0)
170 'res1' '' 'res1' 169 ((VARIABLE IN UNKNOWN-PROC UNKNOWN UNKNOWN
ALLOCATABLE DIMENSION DUMMY) (INTEGER 4 0 0 INTEGER ()) 0 0 () (2
DEFERRED () () () ()) 0 () () () 0 0)
171 'indexvector' '' 'indexvector' 169 ((VARIABLE INOUT UNKNOWN-PROC
UNKNOWN UNKNOWN ALLOCATABLE DIMENSION DUMMY) (INTEGER 4 0 0 INTEGER ())
0 0 () (1 DEFERRED () ()) 0 () () () 0 0)
352 'vx' '' 'vx' 351 ((VARIABLE INOUT UNKNOWN-PROC UNKNOWN UNKNOWN
ALLOCATABLE DIMENSION DUMMY) (REAL 8 0 0 REAL ()) 0 0 () (2 DEFERRED ()
() () ()) 0 () () () 0 0)
353 'hyperx' '' 'hyperx' 351 ((VARIABLE IN UNKNOWN-PROC UNKNOWN UNKNOWN
ALLOCATABLE DIMENSION DUMMY) (REAL 8 0 0 REAL ()) 0 0 () (2 DEFERRED ()
() () ()) 0 () () () 0 0)
354 'aaa' '' 'aaa' 351 ((VARIABLE IN UNKNOWN-PROC UNKNOWN UNKNOWN
ALLOCATABLE DIMENSION DUMMY) (INTEGER 4 0 0 INTEGER ()) 0 0 () (1
DEFERRED () ()) 0 () () () 0 0)
283 'x' '' 'x' 282 ((VARIABLE INOUT UNKNOWN-PROC UNKNOWN UNKNOWN
ALLOCATABLE DIMENSION DUMMY) (REAL 8 0 0 REAL ()) 0 0 () (1 DEFERRED ()
()) 0 () () () 0 0)
284 'd' '' 'd' 282 ((VARIABLE IN UNKNOWN-PROC UNKNOWN UNKNOWN DUMMY) (
INTEGER 4 0 0 INTEGER ()) 0 0 () () 0 () () () 0 0)
285 'contador' '' 'contador' 282 ((VARIABLE INOUT UNKNOWN-PROC UNKNOWN
UNKNOWN DUMMY) (INTEGER 4 0 0 INTEGER ()) 0 0 () () 0 () () () 0 0)
286 'm' '' 'm' 282 ((VARIABLE IN UNKNOWN-PROC UNKNOWN UNKNOWN
ALLOCATABLE DIMENSION DUMMY) (REAL 8 0 0 REAL ()) 0 0 () (1 DEFERRED ()
()) 0 () () () 0 0)
275 'x' '' 'x' 274 ((VARIABLE INOUT UNKNOWN-PROC UNKNOWN UNKNOWN
ALLOCATABLE DIMENSION DUMMY) (REAL 8 0 0 REAL ()) 0 0 () (1 DEFERRED ()
()) 0 () () () 0 0)
276 'd' '' 'd' 274 ((VARIABLE IN UNKNOWN-PROC UNKNOWN UNKNOWN DUMMY) (
INTEGER 4 0 0 INTEGER ()) 0 0 () () 0 () () () 0 0)
277 'xl' '' 'xl' 274 ((VARIABLE IN UNKNOWN-PROC UNKNOWN UNKNOWN
ALLOCATABLE DIMENSION DUMMY) (REAL 8 0 0 REAL ()) 0 0 () (1 DEFERRED ()
()) 0 () () () 0 0)
278 'xu' '' 'xu' 274 ((VARIABLE IN UNKNOWN-PROC UNKNOWN UNKNOWN
ALLOCATABLE DIMENSION DUMMY) (REAL 8 0 0 REAL ()) 0 0 () (1 DEFERRED ()
()) 0 () () () 0 0)
279 'contador' '' 'contador' 274 ((VARIABLE INOUT UNKNOWN-PROC UNKNOWN
UNKNOWN DUMMY) (INTEGER 4 0 0 INTEGER ()) 0 0 () () 0 () () () 0 0)
280 'm' '' 'm' 274 ((VARIABLE IN UNKNOWN-PROC UNKNOWN UNKNOWN
ALLOCATABLE DIMENSION DUMMY) (REAL 8 0 0 REAL ()) 0 0 () (1 DEFERRED ()
()) 0 () () () 0 0)
268 'xl' '' 'xl' 265 ((VARIABLE IN UNKNOWN-PROC UNKNOWN UNKNOWN
ALLOCATABLE DIMENSION DUMMY) (REAL 8 0 0 REAL ()) 0 0 () (1 DEFERRED ()
()) 0 () () () 0 0)
267 'd' '' 'd' 265 ((VARIABLE IN UNKNOWN-PROC UNKNOWN UNKNOWN DUMMY) (
INTEGER 4 0 0 INTEGER ()) 0 0 () () 0 () () () 0 0)
266 'x' '' 'x' 265 ((VARIABLE INOUT UNKNOWN-PROC UNKNOWN UNKNOWN
ALLOCATABLE DIMENSION DUMMY) (REAL 8 0 0 REAL ()) 0 0 () (1 DEFERRED ()
()) 0 () () () 0 0)
269 'xu' '' 'xu' 265 ((VARIABLE IN UNKNOWN-PROC UNKNOWN UNKNOWN
ALLOCATABLE DIMENSION DUMMY) (REAL 8 0 0 REAL ()) 0 0 () (1 DEFERRED ()
()) 0 () () () 0 0)
270 'cont' '' 'cont' 265 ((VARIABLE IN UNKNOWN-PROC UNKNOWN UNKNOWN
DUMMY) (INTEGER 4 0 0 INTEGER ()) 0 0 () () 0 () () () 0 0)
271 'contador' '' 'contador' 265 ((VARIABLE INOUT UNKNOWN-PROC UNKNOWN
UNKNOWN DUMMY) (INTEGER 4 0 0 INTEGER ()) 0 0 () () 0 () () () 0 0)
272 'm' '' 'm' 265 ((VARIABLE IN UNKNOWN-PROC UNKNOWN UNKNOWN
ALLOCATABLE DIMENSION DUMMY) (REAL 8 0 0 REAL ()) 0 0 () (1 DEFERRED ()
()) 0 () () () 0 0)
256 'sizej' '' 'sizej' 253 ((VARIABLE IN UNKNOWN-PROC UNKNOWN UNKNOWN
DUMMY) (INTEGER 4 0 0 INTEGER ()) 0 0 () () 0 () () () 0 0)
255 'sizei' '' 'sizei' 253 ((VARIABLE IN UNKNOWN-PROC UNKNOWN UNKNOWN
DUMMY) (INTEGER 4 0 0 INTEGER ()) 0 0 () () 0 () () () 0 0)
254 'x' '' 'x' 253 ((VARIABLE INOUT UNKNOWN-PROC UNKNOWN UNKNOWN
ALLOCATABLE DIMENSION DUMMY) (REAL 8 0 0 REAL ()) 0 0 () (2 DEFERRED ()
() () ()) 0 () () () 0 0)
257 'contador' '' 'contador' 253 ((VARIABLE INOUT UNKNOWN-PROC UNKNOWN
UNKNOWN DUMMY) (INTEGER 4 0 0 INTEGER ()) 0 0 () () 0 () () () 0 0)
258 'm' '' 'm' 253 ((VARIABLE IN UNKNOWN-PROC UNKNOWN UNKNOWN
ALLOCATABLE DIMENSION DUMMY) (REAL 8 0 0 REAL ()) 0 0 () (1 DEFERRED ()
()) 0 () () () 0 0)
261 'num' '' 'num' 260 ((VARIABLE INOUT UNKNOWN-PROC UNKNOWN UNKNOWN
DUMMY) (REAL 8 0 0 REAL ()) 0 0 () () 0 () () () 0 0)
262 'contador' '' 'contador' 260 ((VARIABLE INOUT UNKNOWN-PROC UNKNOWN
UNKNOWN DUMMY) (INTEGER 4 0 0 INTEGER ()) 0 0 () () 0 () () () 0 0)
263 'm' '' 'm' 260 ((VARIABLE IN UNKNOWN-PROC UNKNOWN UNKNOWN
ALLOCATABLE DIMENSION DUMMY) (REAL 8 0 0 REAL ()) 0 0 () (1 DEFERRED ()
()) 0 () () () 0 0)
)

('__iso_c_binding' 0 2 'abs_matrix' 0 3 'all_positive' 0 7 'auxprecisin'
0 10 'c_alert' 0 11 'c_associated' 0 12 'c_backspace' 0 16 'c_bool' 0 17
'c_carriage_return' 0 18 'c_char' 0 19 'c_double' 0 20 'c_double_complex'
0 21 'c_f_pointer' 0 22 'c_f_procpointer' 0 27 'c_float' 0 31
'c_float_complex' 0 32 'c_form_feed' 0 33 'c_funloc' 0 34 'c_funptr' 0
35 'c_horizontal_tab' 0 37 'c_int' 0 38 'c_int128_t' 0 39 'c_int16_t' 0
40 'c_int32_t' 0 41 'c_int64_t' 0 42 'c_int8_t' 0 43 'c_int_fast128_t' 0
44 'c_int_fast16_t' 0 45 'c_int_fast32_t' 0 46 'c_int_fast64_t' 0 47
'c_int_fast8_t' 0 48 'c_int_least128_t' 0 49 'c_int_least16_t' 0 50
'c_int_least32_t' 0 51 'c_int_least64_t' 0 52 'c_int_least8_t' 0 53
'c_intmax_t' 0 54 'c_intptr_t' 0 55 'c_loc' 0 56 'c_long' 0 58
'c_long_double' 0 59 'c_long_double_complex' 0 60 'c_long_long' 0 61
'c_new_line' 0 62 'c_null_char' 0 63 'c_null_funptr' 0 64 'c_null_ptr' 0
65 'c_ptr' 0 57 'c_short' 0 67 'c_signed_char' 0 68 'c_size_t' 0 69
'c_vertical_tab' 0 70 'choose' 0 71 'common_functions' 0 75
'compare_matrix' 0 76 'compare_multiple_matrix' 0 82
'compare_multiple_vector' 0 89 'compare_vector' 0 96
'delete_values_vector_int' 0 103 'destroy_vector' 0 107 'eps_m' 0 110
'ex1' 0 111 'extraparametters' 0 114 'find_in_vector' 0 122
'find_in_vector_int' 0 128 'findinteger' 0 134 'fusion_matrix' 0 139
'fusion_vector' 0 143 'fusion_vector_int' 0 147 'goptions' 0 151
'index_of_ones' 0 164 'index_of_ones_matrix' 0 168 'infinite' 0 172
'inicializa_vector' 0 173 'inicializa_vector_value' 0 177
'insert_dinamic_vector_double_precission' 0 182 'loptions' 0 186
'max_matrix' 0 204 'nchoosek_fpar' 0 209 'opts' 0 214 'outfuction' 0 220
'precision_d' 0 227 'precision_f' 0 228 'print_matrix' 0 229
'print_matrix_integer' 0 232 'print_vector' 0 235 'problem' 0 238
'random_det_matrix_seed_10' 0 252 'random_det_number' 0 259
'random_det_vector_5' 0 264 'random_det_vector_seed' 0 273
'random_det_vector_seed_10' 0 281 'random_matrix_seed_10' 0 287
'random_vector_5' 0 293 'random_vector_seed' 0 301 'random_vector_seed_10'
0 308 'randperm_int' 0 313 'range_d' 0 316 'range_f' 0 317 'reajust_index'
0 318 'real' 0 321 'refsettype' 0 322 'replace_matrix' 0 329 'resultsf'
0 333 'return_random_number' 0 346 'return_values_matrix_index' 0 350
'row_one' 0 355 'scattersearchtypes' 0 360 'selected_real_kind' 0 361
'square_roots_polinom' 0 362 'tol_prec' 0 366 'topology_data_fortran' 0
367 'uoptions' 0 217 'variance_vector' 0 385)
