GFORTRAN module version '0' created from /home/csic/gim/drp/DE_experiments/paralleltestbed_CURRENT/src/method_module_fortran/localsolver.f90 on Mon Feb 23 14:11:34 2015
MD5:30d45c44bac2833de234b839e5f05262 -- If you edit this, you'll get what you deserve.

(() () () () () () () () () () () () () () () () () ()
() () () () () () () () ())

()

()

()

()

(2 '__iso_c_binding' '__iso_c_binding' '__iso_c_binding' 1 ((MODULE
UNKNOWN-INTENT UNKNOWN-PROC UNKNOWN UNKNOWN INTRINSIC) (UNKNOWN 0 0 0
UNKNOWN ()) 0 0 () () 0 () () () 2 0)
3 'abs_matrix' 'common_functions' 'abs_matrix' 1 ((PROCEDURE
UNKNOWN-INTENT MODULE-PROC DECL UNKNOWN ALLOCATABLE DIMENSION FUNCTION
ALWAYS_EXPLICIT) (REAL 8 0 0 REAL ()) 4 0 (5) (2 DEFERRED () () () ()) 6
() () () 0 0)
7 'all_positive' 'common_functions' 'all_positive' 1 ((PROCEDURE
UNKNOWN-INTENT MODULE-PROC DECL UNKNOWN SUBROUTINE ALWAYS_EXPLICIT) (
UNKNOWN 0 0 0 UNKNOWN ()) 8 0 (9) () 0 () () () 0 0)
10 'auxprecisin' 'scattersearchtypes' 'auxprecisin' 1 ((PARAMETER
UNKNOWN-INTENT UNKNOWN-PROC UNKNOWN IMPLICIT-SAVE) (REAL 8 0 0 REAL ())
0 0 () (CONSTANT (REAL 8 0 0 REAL ()) 0 '0.27100000000000@4') () 0 () ()
() 0 0)
11 'c_alert' '__iso_c_binding' '' 1 ((PARAMETER UNKNOWN-INTENT
UNKNOWN-PROC UNKNOWN UNKNOWN IS_C_INTEROP IS_ISO_C) (CHARACTER 1 1 1
CHARACTER ((CONSTANT (INTEGER 4 0 0 INTEGER ()) 0 '1'))) 0 0 () (
CONSTANT (CHARACTER 1 1 1 UNKNOWN (())) 0 1 '\U00000007') () 0 () () ()
2 32)
12 'c_associated' '__iso_c_binding' '__iso_c_binding_c_associated' 1 ((
PROCEDURE UNKNOWN-INTENT MODULE-PROC DECL UNKNOWN FUNCTION
ALWAYS_EXPLICIT IS_ISO_C) (LOGICAL 4 0 0 LOGICAL ()) 13 0 (14 15) () 12
() () () 2 44)
16 'c_backspace' '__iso_c_binding' '' 1 ((PARAMETER UNKNOWN-INTENT
UNKNOWN-PROC UNKNOWN UNKNOWN IS_C_INTEROP IS_ISO_C) (CHARACTER 1 1 1
CHARACTER ((CONSTANT (INTEGER 4 0 0 INTEGER ()) 0 '1'))) 0 0 () (
CONSTANT (CHARACTER 1 1 1 UNKNOWN (())) 0 1 '\U00000008') () 0 () () ()
2 33)
17 'c_bool' '__iso_c_binding' '' 1 ((PARAMETER UNKNOWN-INTENT
UNKNOWN-PROC UNKNOWN UNKNOWN IS_C_INTEROP IS_ISO_C) (INTEGER 4 1 1
LOGICAL ()) 0 0 () (CONSTANT (INTEGER 4 1 1 UNKNOWN ()) 0 '1') () 0 () ()
() 2 29)
18 'c_carriage_return' '__iso_c_binding' '' 1 ((PARAMETER UNKNOWN-INTENT
UNKNOWN-PROC UNKNOWN UNKNOWN IS_C_INTEROP IS_ISO_C) (CHARACTER 1 1 1
CHARACTER ((CONSTANT (INTEGER 4 0 0 INTEGER ()) 0 '1'))) 0 0 () (
CONSTANT (CHARACTER 1 1 1 UNKNOWN (())) 0 1 '\U0000000d') () 0 () () ()
2 36)
19 'c_char' '__iso_c_binding' '' 1 ((PARAMETER UNKNOWN-INTENT
UNKNOWN-PROC UNKNOWN UNKNOWN IS_C_INTEROP IS_ISO_C) (INTEGER 4 1 1
CHARACTER ()) 0 0 () (CONSTANT (INTEGER 4 1 1 UNKNOWN ()) 0 '1') () 0 ()
() () 2 30)
20 'c_double' '__iso_c_binding' '' 1 ((PARAMETER UNKNOWN-INTENT
UNKNOWN-PROC UNKNOWN UNKNOWN IS_C_INTEROP IS_ISO_C) (INTEGER 4 1 1 REAL
()) 0 0 () (CONSTANT (INTEGER 4 1 1 UNKNOWN ()) 0 '8') () 0 () () () 2
24)
21 'c_double_complex' '__iso_c_binding' '' 1 ((PARAMETER UNKNOWN-INTENT
UNKNOWN-PROC UNKNOWN UNKNOWN IS_C_INTEROP IS_ISO_C) (INTEGER 4 1 1
COMPLEX ()) 0 0 () (CONSTANT (INTEGER 4 1 1 UNKNOWN ()) 0 '8') () 0 () ()
() 2 27)
22 'c_f_pointer' '__iso_c_binding' '__iso_c_binding_c_f_pointer' 1 ((
PROCEDURE UNKNOWN-INTENT MODULE-PROC DECL UNKNOWN SUBROUTINE
ALWAYS_EXPLICIT IS_ISO_C) (UNKNOWN 0 0 0 UNKNOWN ()) 23 0 (24 25 26) ()
0 () () () 2 43)
27 'c_f_procpointer' '__iso_c_binding' '__iso_c_binding_c_f_procpointer'
1 ((PROCEDURE UNKNOWN-INTENT MODULE-PROC DECL UNKNOWN SUBROUTINE
IS_ISO_C) (UNKNOWN 0 0 0 UNKNOWN ()) 28 0 (29 30) () 0 () () () 2 47)
31 'c_float' '__iso_c_binding' '' 1 ((PARAMETER UNKNOWN-INTENT
UNKNOWN-PROC UNKNOWN UNKNOWN IS_C_INTEROP IS_ISO_C) (INTEGER 4 1 1 REAL
()) 0 0 () (CONSTANT (INTEGER 4 1 1 UNKNOWN ()) 0 '4') () 0 () () () 2
23)
32 'c_float_complex' '__iso_c_binding' '' 1 ((PARAMETER UNKNOWN-INTENT
UNKNOWN-PROC UNKNOWN UNKNOWN IS_C_INTEROP IS_ISO_C) (INTEGER 4 1 1
COMPLEX ()) 0 0 () (CONSTANT (INTEGER 4 1 1 UNKNOWN ()) 0 '4') () 0 () ()
() 2 26)
33 'c_form_feed' '__iso_c_binding' '' 1 ((PARAMETER UNKNOWN-INTENT
UNKNOWN-PROC UNKNOWN UNKNOWN IS_C_INTEROP IS_ISO_C) (CHARACTER 1 1 1
CHARACTER ((CONSTANT (INTEGER 4 0 0 INTEGER ()) 0 '1'))) 0 0 () (
CONSTANT (CHARACTER 1 1 1 UNKNOWN (())) 0 1 '\U0000000c') () 0 () () ()
2 34)
34 'c_funloc' '__iso_c_binding' '__iso_c_binding_c_funloc' 1 ((
PROCEDURE UNKNOWN-INTENT UNKNOWN-PROC UNKNOWN UNKNOWN EXTERNAL PURE
IS_ISO_C) (DERIVED 35 0 0 DERIVED ()) 0 0 () () 34 () () () 2 46)
35 'c_funptr' '__iso_c_binding' '' 1 ((DERIVED UNKNOWN-INTENT
UNKNOWN-PROC UNKNOWN UNKNOWN IS_BIND_C IS_C_INTEROP IS_ISO_C) (DERIVED
35 1 1 UNKNOWN ()) 0 0 () () 0 ((36 '__c_funptr_c_address' (INTEGER 8 1
0 INTEGER ()) () (UNKNOWN-FL UNKNOWN-INTENT UNKNOWN-PROC UNKNOWN UNKNOWN)
UNKNOWN-ACCESS ())) UNKNOWN-ACCESS () () 2 41)
37 'c_horizontal_tab' '__iso_c_binding' '' 1 ((PARAMETER UNKNOWN-INTENT
UNKNOWN-PROC UNKNOWN UNKNOWN IS_C_INTEROP IS_ISO_C) (CHARACTER 1 1 1
CHARACTER ((CONSTANT (INTEGER 4 0 0 INTEGER ()) 0 '1'))) 0 0 () (
CONSTANT (CHARACTER 1 1 1 UNKNOWN (())) 0 1 '\U00000009') () 0 () () ()
2 37)
38 'c_int' '__iso_c_binding' '' 1 ((PARAMETER UNKNOWN-INTENT
UNKNOWN-PROC UNKNOWN UNKNOWN IS_C_INTEROP IS_ISO_C) (INTEGER 4 1 1
INTEGER ()) 0 0 () (CONSTANT (INTEGER 4 1 1 UNKNOWN ()) 0 '4') () 0 () ()
() 2 0)
39 'c_int128_t' '__iso_c_binding' '' 1 ((PARAMETER UNKNOWN-INTENT
UNKNOWN-PROC UNKNOWN UNKNOWN IS_C_INTEROP IS_ISO_C) (INTEGER 4 1 1
INTEGER ()) 0 0 () (CONSTANT (INTEGER 4 1 1 UNKNOWN ()) 0 '16') () 0 ()
() () 2 12)
40 'c_int16_t' '__iso_c_binding' '' 1 ((PARAMETER UNKNOWN-INTENT
UNKNOWN-PROC UNKNOWN UNKNOWN IS_C_INTEROP IS_ISO_C) (INTEGER 4 1 1
INTEGER ()) 0 0 () (CONSTANT (INTEGER 4 1 1 UNKNOWN ()) 0 '2') () 0 () ()
() 2 9)
41 'c_int32_t' '__iso_c_binding' '' 1 ((PARAMETER UNKNOWN-INTENT
UNKNOWN-PROC UNKNOWN UNKNOWN IS_C_INTEROP IS_ISO_C) (INTEGER 4 1 1
INTEGER ()) 0 0 () (CONSTANT (INTEGER 4 1 1 UNKNOWN ()) 0 '4') () 0 () ()
() 2 10)
42 'c_int64_t' '__iso_c_binding' '' 1 ((PARAMETER UNKNOWN-INTENT
UNKNOWN-PROC UNKNOWN UNKNOWN IS_C_INTEROP IS_ISO_C) (INTEGER 4 1 1
INTEGER ()) 0 0 () (CONSTANT (INTEGER 4 1 1 UNKNOWN ()) 0 '8') () 0 () ()
() 2 11)
43 'c_int8_t' '__iso_c_binding' '' 1 ((PARAMETER UNKNOWN-INTENT
UNKNOWN-PROC UNKNOWN UNKNOWN IS_C_INTEROP IS_ISO_C) (INTEGER 4 1 1
INTEGER ()) 0 0 () (CONSTANT (INTEGER 4 1 1 UNKNOWN ()) 0 '1') () 0 () ()
() 2 8)
44 'c_int_fast128_t' '__iso_c_binding' '' 1 ((PARAMETER UNKNOWN-INTENT
UNKNOWN-PROC UNKNOWN UNKNOWN IS_C_INTEROP IS_ISO_C) (INTEGER 4 1 1
INTEGER ()) 0 0 () (CONSTANT (INTEGER 4 1 1 UNKNOWN ()) 0 '-2') () 0 ()
() () 2 22)
45 'c_int_fast16_t' '__iso_c_binding' '' 1 ((PARAMETER UNKNOWN-INTENT
UNKNOWN-PROC UNKNOWN UNKNOWN IS_C_INTEROP IS_ISO_C) (INTEGER 4 1 1
INTEGER ()) 0 0 () (CONSTANT (INTEGER 4 1 1 UNKNOWN ()) 0 '-2') () 0 ()
() () 2 19)
46 'c_int_fast32_t' '__iso_c_binding' '' 1 ((PARAMETER UNKNOWN-INTENT
UNKNOWN-PROC UNKNOWN UNKNOWN IS_C_INTEROP IS_ISO_C) (INTEGER 4 1 1
INTEGER ()) 0 0 () (CONSTANT (INTEGER 4 1 1 UNKNOWN ()) 0 '-2') () 0 ()
() () 2 20)
47 'c_int_fast64_t' '__iso_c_binding' '' 1 ((PARAMETER UNKNOWN-INTENT
UNKNOWN-PROC UNKNOWN UNKNOWN IS_C_INTEROP IS_ISO_C) (INTEGER 4 1 1
INTEGER ()) 0 0 () (CONSTANT (INTEGER 4 1 1 UNKNOWN ()) 0 '-2') () 0 ()
() () 2 21)
48 'c_int_fast8_t' '__iso_c_binding' '' 1 ((PARAMETER UNKNOWN-INTENT
UNKNOWN-PROC UNKNOWN UNKNOWN IS_C_INTEROP IS_ISO_C) (INTEGER 4 1 1
INTEGER ()) 0 0 () (CONSTANT (INTEGER 4 1 1 UNKNOWN ()) 0 '-2') () 0 ()
() () 2 18)
49 'c_int_least128_t' '__iso_c_binding' '' 1 ((PARAMETER UNKNOWN-INTENT
UNKNOWN-PROC UNKNOWN UNKNOWN IS_C_INTEROP IS_ISO_C) (INTEGER 4 1 1
INTEGER ()) 0 0 () (CONSTANT (INTEGER 4 1 1 UNKNOWN ()) 0 '16') () 0 ()
() () 2 17)
50 'c_int_least16_t' '__iso_c_binding' '' 1 ((PARAMETER UNKNOWN-INTENT
UNKNOWN-PROC UNKNOWN UNKNOWN IS_C_INTEROP IS_ISO_C) (INTEGER 4 1 1
INTEGER ()) 0 0 () (CONSTANT (INTEGER 4 1 1 UNKNOWN ()) 0 '2') () 0 () ()
() 2 14)
51 'c_int_least32_t' '__iso_c_binding' '' 1 ((PARAMETER UNKNOWN-INTENT
UNKNOWN-PROC UNKNOWN UNKNOWN IS_C_INTEROP IS_ISO_C) (INTEGER 4 1 1
INTEGER ()) 0 0 () (CONSTANT (INTEGER 4 1 1 UNKNOWN ()) 0 '4') () 0 () ()
() 2 15)
52 'c_int_least64_t' '__iso_c_binding' '' 1 ((PARAMETER UNKNOWN-INTENT
UNKNOWN-PROC UNKNOWN UNKNOWN IS_C_INTEROP IS_ISO_C) (INTEGER 4 1 1
INTEGER ()) 0 0 () (CONSTANT (INTEGER 4 1 1 UNKNOWN ()) 0 '8') () 0 () ()
() 2 16)
53 'c_int_least8_t' '__iso_c_binding' '' 1 ((PARAMETER UNKNOWN-INTENT
UNKNOWN-PROC UNKNOWN UNKNOWN IS_C_INTEROP IS_ISO_C) (INTEGER 4 1 1
INTEGER ()) 0 0 () (CONSTANT (INTEGER 4 1 1 UNKNOWN ()) 0 '1') () 0 () ()
() 2 13)
54 'c_intmax_t' '__iso_c_binding' '' 1 ((PARAMETER UNKNOWN-INTENT
UNKNOWN-PROC UNKNOWN UNKNOWN IS_C_INTEROP IS_ISO_C) (INTEGER 4 1 1
INTEGER ()) 0 0 () (CONSTANT (INTEGER 4 1 1 UNKNOWN ()) 0 '8') () 0 () ()
() 2 4)
55 'c_intptr_t' '__iso_c_binding' '' 1 ((PARAMETER UNKNOWN-INTENT
UNKNOWN-PROC UNKNOWN UNKNOWN IS_C_INTEROP IS_ISO_C) (INTEGER 4 1 1
INTEGER ()) 0 0 () (CONSTANT (INTEGER 4 1 1 UNKNOWN ()) 0 '8') () 0 () ()
() 2 5)
56 'c_loc' '__iso_c_binding' '__iso_c_binding_c_loc' 1 ((PROCEDURE
UNKNOWN-INTENT UNKNOWN-PROC UNKNOWN UNKNOWN EXTERNAL PURE IS_ISO_C) (
DERIVED 57 0 0 DERIVED ()) 0 0 () () 56 () () () 2 45)
58 'c_long' '__iso_c_binding' '' 1 ((PARAMETER UNKNOWN-INTENT
UNKNOWN-PROC UNKNOWN UNKNOWN IS_C_INTEROP IS_ISO_C) (INTEGER 4 1 1
INTEGER ()) 0 0 () (CONSTANT (INTEGER 4 1 1 UNKNOWN ()) 0 '8') () 0 () ()
() 2 2)
59 'c_long_double' '__iso_c_binding' '' 1 ((PARAMETER UNKNOWN-INTENT
UNKNOWN-PROC UNKNOWN UNKNOWN IS_C_INTEROP IS_ISO_C) (INTEGER 4 1 1 REAL
()) 0 0 () (CONSTANT (INTEGER 4 1 1 UNKNOWN ()) 0 '10') () 0 () () () 2
25)
60 'c_long_double_complex' '__iso_c_binding' '' 1 ((PARAMETER
UNKNOWN-INTENT UNKNOWN-PROC UNKNOWN UNKNOWN IS_C_INTEROP IS_ISO_C) (
INTEGER 4 1 1 COMPLEX ()) 0 0 () (CONSTANT (INTEGER 4 1 1 UNKNOWN ()) 0
'10') () 0 () () () 2 28)
61 'c_long_long' '__iso_c_binding' '' 1 ((PARAMETER UNKNOWN-INTENT
UNKNOWN-PROC UNKNOWN UNKNOWN IS_C_INTEROP IS_ISO_C) (INTEGER 4 1 1
INTEGER ()) 0 0 () (CONSTANT (INTEGER 4 1 1 UNKNOWN ()) 0 '8') () 0 () ()
() 2 3)
62 'c_new_line' '__iso_c_binding' '' 1 ((PARAMETER UNKNOWN-INTENT
UNKNOWN-PROC UNKNOWN UNKNOWN IS_C_INTEROP IS_ISO_C) (CHARACTER 1 1 1
CHARACTER ((CONSTANT (INTEGER 4 0 0 INTEGER ()) 0 '1'))) 0 0 () (
CONSTANT (CHARACTER 1 1 1 UNKNOWN (())) 0 1 '\U0000000a') () 0 () () ()
2 35)
63 'c_null_char' '__iso_c_binding' '' 1 ((PARAMETER UNKNOWN-INTENT
UNKNOWN-PROC UNKNOWN UNKNOWN IS_C_INTEROP IS_ISO_C) (CHARACTER 1 1 1
CHARACTER ((CONSTANT (INTEGER 4 0 0 INTEGER ()) 0 '1'))) 0 0 () (
CONSTANT (CHARACTER 1 1 1 UNKNOWN (())) 0 1 '\U00000000') () 0 () () ()
2 31)
64 'c_null_funptr' '__iso_c_binding' '__iso_c_binding_c_null_funptr' 1 (
(PARAMETER UNKNOWN-INTENT UNKNOWN-PROC UNKNOWN EXPLICIT-SAVE IS_BIND_C
IS_C_INTEROP IS_ISO_C) (DERIVED 35 1 1 UNKNOWN ()) 0 0 () (STRUCTURE (
DERIVED 35 0 0 DERIVED ()) 0 ((() ())) ()) () 0 () () () 2 42)
65 'c_null_ptr' '__iso_c_binding' '__iso_c_binding_c_null_ptr' 1 ((
PARAMETER UNKNOWN-INTENT UNKNOWN-PROC UNKNOWN EXPLICIT-SAVE IS_BIND_C
IS_C_INTEROP IS_ISO_C) (DERIVED 57 1 1 UNKNOWN ()) 0 0 () (STRUCTURE (
DERIVED 57 0 0 DERIVED ()) 0 ((() ())) ()) () 0 () () () 2 40)
57 'c_ptr' '__iso_c_binding' '' 1 ((DERIVED UNKNOWN-INTENT UNKNOWN-PROC
UNKNOWN UNKNOWN IS_BIND_C IS_C_INTEROP IS_ISO_C) (DERIVED 57 1 1 UNKNOWN
()) 0 0 () () 0 ((66 '__c_ptr_c_address' (INTEGER 8 1 0 INTEGER ()) () (
UNKNOWN-FL UNKNOWN-INTENT UNKNOWN-PROC UNKNOWN UNKNOWN) UNKNOWN-ACCESS ()))
UNKNOWN-ACCESS () () 2 39)
67 'c_short' '__iso_c_binding' '' 1 ((PARAMETER UNKNOWN-INTENT
UNKNOWN-PROC UNKNOWN UNKNOWN IS_C_INTEROP IS_ISO_C) (INTEGER 4 1 1
INTEGER ()) 0 0 () (CONSTANT (INTEGER 4 1 1 UNKNOWN ()) 0 '2') () 0 () ()
() 2 1)
68 'c_signed_char' '__iso_c_binding' '' 1 ((PARAMETER UNKNOWN-INTENT
UNKNOWN-PROC UNKNOWN UNKNOWN IS_C_INTEROP IS_ISO_C) (INTEGER 4 1 1
INTEGER ()) 0 0 () (CONSTANT (INTEGER 4 1 1 UNKNOWN ()) 0 '1') () 0 () ()
() 2 7)
69 'c_size_t' '__iso_c_binding' '' 1 ((PARAMETER UNKNOWN-INTENT
UNKNOWN-PROC UNKNOWN UNKNOWN IS_C_INTEROP IS_ISO_C) (INTEGER 4 1 1
INTEGER ()) 0 0 () (CONSTANT (INTEGER 4 1 1 UNKNOWN ()) 0 '8') () 0 () ()
() 2 6)
70 'c_vertical_tab' '__iso_c_binding' '' 1 ((PARAMETER UNKNOWN-INTENT
UNKNOWN-PROC UNKNOWN UNKNOWN IS_C_INTEROP IS_ISO_C) (CHARACTER 1 1 1
CHARACTER ((CONSTANT (INTEGER 4 0 0 INTEGER ()) 0 '1'))) 0 0 () (
CONSTANT (CHARACTER 1 1 1 UNKNOWN (())) 0 1 '\U0000000b') () 0 () () ()
2 38)
71 'call_local_solver' 'localsolver' 'call_local_solver' 1 ((PROCEDURE
UNKNOWN-INTENT MODULE-PROC DECL UNKNOWN SUBROUTINE ALWAYS_EXPLICIT) (
UNKNOWN 0 0 0 UNKNOWN ()) 72 0 (73 74 75 76 77 78 79 80 81 82) () 0 () ()
() 0 0)
83 'choose' 'common_functions' 'choose' 1 ((PROCEDURE UNKNOWN-INTENT
MODULE-PROC DECL UNKNOWN FUNCTION ALWAYS_EXPLICIT) (INTEGER 4 0 0
INTEGER ()) 84 0 (85) () 86 () () () 0 0)
87 'common_functions' 'common_functions' 'common_functions' 1 ((MODULE
UNKNOWN-INTENT UNKNOWN-PROC UNKNOWN UNKNOWN) (UNKNOWN 0 0 0 UNKNOWN ())
0 0 () () 0 () () () 0 0)
88 'compare_matrix' 'common_functions' 'compare_matrix' 1 ((PROCEDURE
UNKNOWN-INTENT MODULE-PROC DECL UNKNOWN ALLOCATABLE DIMENSION FUNCTION
ALWAYS_EXPLICIT) (INTEGER 4 0 0 INTEGER ()) 89 0 (90 91 92) (2 DEFERRED
() () () ()) 93 () () () 0 0)
94 'compare_multiple_matrix' 'common_functions' 'compare_multiple_matrix'
1 ((PROCEDURE UNKNOWN-INTENT MODULE-PROC DECL UNKNOWN ALLOCATABLE
DIMENSION FUNCTION ALWAYS_EXPLICIT) (INTEGER 4 0 0 INTEGER ()) 95 0 (96
97 98 99) (2 DEFERRED () () () ()) 100 () () () 0 0)
101 'compare_multiple_vector' 'common_functions' 'compare_multiple_vector'
1 ((PROCEDURE UNKNOWN-INTENT MODULE-PROC DECL UNKNOWN ALLOCATABLE
DIMENSION FUNCTION ALWAYS_EXPLICIT) (INTEGER 4 0 0 INTEGER ()) 102 0 (
103 104 105 106) (1 DEFERRED () ()) 107 () () () 0 0)
108 'compare_vector' 'common_functions' 'compare_vector' 1 ((PROCEDURE
UNKNOWN-INTENT MODULE-PROC DECL UNKNOWN ALLOCATABLE DIMENSION FUNCTION
ALWAYS_EXPLICIT) (INTEGER 4 0 0 INTEGER ()) 109 0 (110 111 112 113) (1
DEFERRED () ()) 114 () () () 0 0)
115 'delete_values_vector_int' 'common_functions'
'delete_values_vector_int' 1 ((PROCEDURE UNKNOWN-INTENT MODULE-PROC DECL
UNKNOWN SUBROUTINE ALWAYS_EXPLICIT) (UNKNOWN 0 0 0 UNKNOWN ()) 116 0 (
117 118) () 0 () () () 0 0)
119 'destroy_outfuction' 'funcevalinterface' 'destroy_outfuction' 1 ((
PROCEDURE UNKNOWN-INTENT MODULE-PROC DECL UNKNOWN SUBROUTINE) (UNKNOWN 0
0 0 UNKNOWN ()) 120 0 (121) () 0 () () () 0 0)
122 'destroy_vector' 'common_functions' 'destroy_vector' 1 ((PROCEDURE
UNKNOWN-INTENT MODULE-PROC DECL UNKNOWN SUBROUTINE ALWAYS_EXPLICIT) (
UNKNOWN 0 0 0 UNKNOWN ()) 123 0 (124) () 0 () () () 0 0)
125 'eps_m' 'scattersearchtypes' 'eps_m' 1 ((PARAMETER UNKNOWN-INTENT
UNKNOWN-PROC UNKNOWN IMPLICIT-SAVE) (REAL 8 0 0 REAL ()) 0 0 () (
CONSTANT (REAL 8 0 0 REAL ()) 0 '0.12725dd1d243ac@-14') () 0 () () () 0
0)
126 'evaluate_gradient' 'misqp_interface' 'evaluate_gradient' 1 ((
PROCEDURE UNKNOWN-INTENT MODULE-PROC DECL UNKNOWN SUBROUTINE) (UNKNOWN 0
0 0 UNKNOWN ()) 127 0 (128 129 130 131 132 133 134 135 136 137 138 139
140 141) () 0 () () () 0 0)
142 'ex1' 'common_functions' 'ex1' 1 ((PROCEDURE UNKNOWN-INTENT
MODULE-PROC DECL UNKNOWN FUNCTION ALWAYS_EXPLICIT) (REAL 8 0 0 REAL ())
143 0 (144) () 142 () () () 0 0)
145 'extraparametters' 'scattersearchtypes' 'extraparametters' 1 ((
DERIVED UNKNOWN-INTENT UNKNOWN-PROC UNKNOWN UNKNOWN ALLOC_COMP) (
UNKNOWN 0 0 0 UNKNOWN ()) 0 0 () () 0 ((146 'empty' (INTEGER 4 0 0
INTEGER ()) () (UNKNOWN-FL UNKNOWN-INTENT UNKNOWN-PROC UNKNOWN UNKNOWN)
UNKNOWN-ACCESS ()) (147 'texp' (INTEGER 8 0 0 INTEGER ()) (1 DEFERRED ()
()) (UNKNOWN-FL UNKNOWN-INTENT UNKNOWN-PROC UNKNOWN UNKNOWN ALLOCATABLE
DIMENSION) UNKNOWN-ACCESS ()) (148 'yexp' (REAL 8 0 0 REAL ()) (2
DEFERRED () () () ()) (UNKNOWN-FL UNKNOWN-INTENT UNKNOWN-PROC UNKNOWN
UNKNOWN ALLOCATABLE DIMENSION) UNKNOWN-ACCESS ()) (149 'k1' (REAL 4 1 0
REAL ()) () (UNKNOWN-FL UNKNOWN-INTENT UNKNOWN-PROC UNKNOWN UNKNOWN)
UNKNOWN-ACCESS ()) (150 'k2' (REAL 4 1 0 REAL ()) () (UNKNOWN-FL
UNKNOWN-INTENT UNKNOWN-PROC UNKNOWN UNKNOWN) UNKNOWN-ACCESS ()) (151 'k3'
(REAL 4 1 0 REAL ()) () (UNKNOWN-FL UNKNOWN-INTENT UNKNOWN-PROC UNKNOWN
UNKNOWN) UNKNOWN-ACCESS ()) (152 'k4' (REAL 4 1 0 REAL ()) () (
UNKNOWN-FL UNKNOWN-INTENT UNKNOWN-PROC UNKNOWN UNKNOWN) UNKNOWN-ACCESS ()))
PUBLIC (() ()) () 0 0)
153 'find_in_vector' 'common_functions' 'find_in_vector' 1 ((PROCEDURE
UNKNOWN-INTENT MODULE-PROC DECL UNKNOWN SUBROUTINE ALWAYS_EXPLICIT) (
UNKNOWN 0 0 0 UNKNOWN ()) 154 0 (155 156 157 158) () 0 () () () 0 0)
159 'find_in_vector_int' 'common_functions' 'find_in_vector_int' 1 ((
PROCEDURE UNKNOWN-INTENT MODULE-PROC DECL UNKNOWN SUBROUTINE
ALWAYS_EXPLICIT) (UNKNOWN 0 0 0 UNKNOWN ()) 160 0 (161 162 163 164) () 0
() () () 0 0)
165 'findinteger' 'common_functions' 'findinteger' 1 ((PROCEDURE
UNKNOWN-INTENT MODULE-PROC DECL UNKNOWN FUNCTION ALWAYS_EXPLICIT) (
INTEGER 4 0 0 INTEGER ()) 166 0 (167 168) () 169 () () () 0 0)
170 'funcevalinterface' 'funcevalinterface' 'funcevalinterface' 1 ((
MODULE UNKNOWN-INTENT UNKNOWN-PROC UNKNOWN UNKNOWN) (UNKNOWN 0 0 0
UNKNOWN ()) 0 0 () () 0 () () () 0 0)
171 'fusion_matrix' 'common_functions' 'fusion_matrix' 1 ((PROCEDURE
UNKNOWN-INTENT MODULE-PROC DECL UNKNOWN SUBROUTINE ALWAYS_EXPLICIT) (
UNKNOWN 0 0 0 UNKNOWN ()) 172 0 (173 174) () 0 () () () 0 0)
175 'fusion_vector' 'common_functions' 'fusion_vector' 1 ((PROCEDURE
UNKNOWN-INTENT MODULE-PROC DECL UNKNOWN SUBROUTINE ALWAYS_EXPLICIT) (
UNKNOWN 0 0 0 UNKNOWN ()) 176 0 (177 178) () 0 () () () 0 0)
179 'fusion_vector_int' 'common_functions' 'fusion_vector_int' 1 ((
PROCEDURE UNKNOWN-INTENT MODULE-PROC DECL UNKNOWN SUBROUTINE
ALWAYS_EXPLICIT) (UNKNOWN 0 0 0 UNKNOWN ()) 180 0 (181 182) () 0 () () ()
0 0)
183 'goptions' 'scattersearchtypes' 'goptions' 1 ((DERIVED
UNKNOWN-INTENT UNKNOWN-PROC UNKNOWN UNKNOWN) (UNKNOWN 0 0 0 UNKNOWN ())
0 0 () () 0 ((184 'empty' (INTEGER 4 0 0 INTEGER ()) () (UNKNOWN-FL
UNKNOWN-INTENT UNKNOWN-PROC UNKNOWN UNKNOWN) UNKNOWN-ACCESS ()) (185
'dim_refset' (INTEGER 4 0 0 INTEGER ()) () (UNKNOWN-FL UNKNOWN-INTENT
UNKNOWN-PROC UNKNOWN UNKNOWN) UNKNOWN-ACCESS ()) (186 'ndiverse' (
INTEGER 4 0 0 INTEGER ()) () (UNKNOWN-FL UNKNOWN-INTENT UNKNOWN-PROC
UNKNOWN UNKNOWN) UNKNOWN-ACCESS ()) (187 'initiate' (INTEGER 4 0 0
INTEGER ()) () (UNKNOWN-FL UNKNOWN-INTENT UNKNOWN-PROC UNKNOWN UNKNOWN)
UNKNOWN-ACCESS ()) (188 'combination' (INTEGER 4 0 0 INTEGER ()) () (
UNKNOWN-FL UNKNOWN-INTENT UNKNOWN-PROC UNKNOWN UNKNOWN) UNKNOWN-ACCESS ())
(189 'regenerate' (INTEGER 4 0 0 INTEGER ()) () (UNKNOWN-FL
UNKNOWN-INTENT UNKNOWN-PROC UNKNOWN UNKNOWN) UNKNOWN-ACCESS ()) (190
'intens' (INTEGER 4 0 0 INTEGER ()) () (UNKNOWN-FL UNKNOWN-INTENT
UNKNOWN-PROC UNKNOWN UNKNOWN) UNKNOWN-ACCESS ()) (191 'diverse_criteria'
(INTEGER 4 0 0 INTEGER ()) () (UNKNOWN-FL UNKNOWN-INTENT UNKNOWN-PROC
UNKNOWN UNKNOWN) UNKNOWN-ACCESS ()) (192 'n_stuck' (INTEGER 4 0 0
INTEGER ()) () (UNKNOWN-FL UNKNOWN-INTENT UNKNOWN-PROC UNKNOWN UNKNOWN)
UNKNOWN-ACCESS ()) (193 'tolf' (REAL 8 0 0 REAL ()) () (UNKNOWN-FL
UNKNOWN-INTENT UNKNOWN-PROC UNKNOWN UNKNOWN) UNKNOWN-ACCESS ()) (194
'tolx' (REAL 8 0 0 REAL ()) () (UNKNOWN-FL UNKNOWN-INTENT UNKNOWN-PROC
UNKNOWN UNKNOWN) UNKNOWN-ACCESS ()) (195 'delete' (CHARACTER 1 1 0
CHARACTER ((CONSTANT (INTEGER 4 0 0 INTEGER ()) 0 '20'))) () (
UNKNOWN-FL UNKNOWN-INTENT UNKNOWN-PROC UNKNOWN UNKNOWN) UNKNOWN-ACCESS ()))
PUBLIC (() ()) () 0 0)
196 'index_of_ones' 'common_functions' 'index_of_ones' 1 ((PROCEDURE
UNKNOWN-INTENT MODULE-PROC DECL UNKNOWN SUBROUTINE ALWAYS_EXPLICIT) (
UNKNOWN 0 0 0 UNKNOWN ()) 197 0 (198 199) () 0 () () () 0 0)
200 'index_of_ones_matrix' 'common_functions' 'index_of_ones_matrix' 1 (
(PROCEDURE UNKNOWN-INTENT MODULE-PROC DECL UNKNOWN SUBROUTINE
ALWAYS_EXPLICIT) (UNKNOWN 0 0 0 UNKNOWN ()) 201 0 (202 203) () 0 () () ()
0 0)
204 'infinite' 'scattersearchtypes' 'infinite' 1 ((PARAMETER
UNKNOWN-INTENT UNKNOWN-PROC UNKNOWN IMPLICIT-SAVE) (REAL 8 0 0 REAL ())
0 0 () (CONSTANT (REAL 8 0 0 REAL ()) 0 '0.fffffffffffff8@256') () 0 ()
() () 0 0)
205 'inicializa_vector' 'common_functions' 'inicializa_vector' 1 ((
PROCEDURE UNKNOWN-INTENT MODULE-PROC DECL UNKNOWN SUBROUTINE
ALWAYS_EXPLICIT) (UNKNOWN 0 0 0 UNKNOWN ()) 206 0 (207 208) () 0 () () ()
0 0)
209 'inicializa_vector_value' 'common_functions' 'inicializa_vector_value'
1 ((PROCEDURE UNKNOWN-INTENT MODULE-PROC DECL UNKNOWN SUBROUTINE
ALWAYS_EXPLICIT) (UNKNOWN 0 0 0 UNKNOWN ()) 210 0 (211 212 213) () 0 ()
() () 0 0)
214 'insert_dinamic_vector_double_precission' 'common_functions'
'insert_dinamic_vector_double_precission' 1 ((PROCEDURE UNKNOWN-INTENT
MODULE-PROC DECL UNKNOWN SUBROUTINE ALWAYS_EXPLICIT) (UNKNOWN 0 0 0
UNKNOWN ()) 215 0 (216 217) () 0 () () () 0 0)
218 'local_solver' 'localsolver' 'local_solver' 1 ((PROCEDURE
UNKNOWN-INTENT MODULE-PROC DECL UNKNOWN SUBROUTINE) (UNKNOWN 0 0 0
UNKNOWN ()) 0 0 () () 0 () () () 0 0)
219 'localsolver' 'localsolver' 'localsolver' 1 ((MODULE UNKNOWN-INTENT
UNKNOWN-PROC UNKNOWN UNKNOWN) (UNKNOWN 0 0 0 UNKNOWN ()) 0 0 () () 0 ()
() () 0 0)
220 'loptions' 'scattersearchtypes' 'loptions' 1 ((DERIVED
UNKNOWN-INTENT UNKNOWN-PROC UNKNOWN UNKNOWN ALLOC_COMP) (UNKNOWN 0 0 0
UNKNOWN ()) 0 0 () () 0 ((221 'empty' (INTEGER 4 0 0 INTEGER ()) () (
UNKNOWN-FL UNKNOWN-INTENT UNKNOWN-PROC UNKNOWN UNKNOWN) UNKNOWN-ACCESS ())
(222 'tol' (INTEGER 4 0 0 INTEGER ()) () (UNKNOWN-FL UNKNOWN-INTENT
UNKNOWN-PROC UNKNOWN UNKNOWN) UNKNOWN-ACCESS ()) (223 'iterprint' (
INTEGER 4 0 0 INTEGER ()) () (UNKNOWN-FL UNKNOWN-INTENT UNKNOWN-PROC
UNKNOWN UNKNOWN) UNKNOWN-ACCESS ()) (224 'n1' (INTEGER 4 0 0 INTEGER ())
() (UNKNOWN-FL UNKNOWN-INTENT UNKNOWN-PROC UNKNOWN UNKNOWN)
UNKNOWN-ACCESS ()) (225 'n2' (INTEGER 4 0 0 INTEGER ()) () (UNKNOWN-FL
UNKNOWN-INTENT UNKNOWN-PROC UNKNOWN UNKNOWN) UNKNOWN-ACCESS ()) (226
'bestx' (INTEGER 4 0 0 INTEGER ()) () (UNKNOWN-FL UNKNOWN-INTENT
UNKNOWN-PROC UNKNOWN UNKNOWN) UNKNOWN-ACCESS ()) (227 'merit_filter' (
INTEGER 4 0 0 INTEGER ()) () (UNKNOWN-FL UNKNOWN-INTENT UNKNOWN-PROC
UNKNOWN UNKNOWN) UNKNOWN-ACCESS ()) (228 'distance_filter' (INTEGER 4 0
0 INTEGER ()) () (UNKNOWN-FL UNKNOWN-INTENT UNKNOWN-PROC UNKNOWN UNKNOWN)
UNKNOWN-ACCESS ()) (229 'wait_maxdist_limit' (INTEGER 4 0 0 INTEGER ())
() (UNKNOWN-FL UNKNOWN-INTENT UNKNOWN-PROC UNKNOWN UNKNOWN)
UNKNOWN-ACCESS ()) (230 'wait_th_limit' (INTEGER 4 0 0 INTEGER ()) () (
UNKNOWN-FL UNKNOWN-INTENT UNKNOWN-PROC UNKNOWN UNKNOWN) UNKNOWN-ACCESS ())
(231 'threshold_local' (REAL 8 0 0 REAL ()) () (UNKNOWN-FL
UNKNOWN-INTENT UNKNOWN-PROC UNKNOWN UNKNOWN) UNKNOWN-ACCESS ()) (232
'thfactor' (REAL 8 0 0 REAL ()) () (UNKNOWN-FL UNKNOWN-INTENT
UNKNOWN-PROC UNKNOWN UNKNOWN) UNKNOWN-ACCESS ()) (233 'maxdistfactor' (
REAL 8 0 0 REAL ()) () (UNKNOWN-FL UNKNOWN-INTENT UNKNOWN-PROC UNKNOWN
UNKNOWN) UNKNOWN-ACCESS ()) (234 'balance' (REAL 8 0 0 REAL ()) () (
UNKNOWN-FL UNKNOWN-INTENT UNKNOWN-PROC UNKNOWN UNKNOWN) UNKNOWN-ACCESS ())
(235 'extrap' (DERIVED 145 0 0 DERIVED ()) () (UNKNOWN-FL UNKNOWN-INTENT
UNKNOWN-PROC UNKNOWN UNKNOWN) UNKNOWN-ACCESS (STRUCTURE (DERIVED 145 0 0
DERIVED ()) 0 ((() ()) ((NULL (INTEGER 8 0 0 INTEGER ()) 0) ()) ((NULL (
REAL 8 0 0 REAL ()) 0) ()) (() ()) (() ()) (() ()) (() ())) ())) (236
'solver' (CHARACTER 1 1 0 CHARACTER ((CONSTANT (INTEGER 4 0 0 INTEGER ())
0 '20'))) () (UNKNOWN-FL UNKNOWN-INTENT UNKNOWN-PROC UNKNOWN UNKNOWN)
UNKNOWN-ACCESS ()) (237 'finish' (CHARACTER 1 1 0 CHARACTER ((CONSTANT (
INTEGER 4 0 0 INTEGER ()) 0 '20'))) (1 DEFERRED () ()) (UNKNOWN-FL
UNKNOWN-INTENT UNKNOWN-PROC UNKNOWN UNKNOWN ALLOCATABLE DIMENSION)
UNKNOWN-ACCESS ())) PUBLIC (() ()) () 0 0)
238 'matrix_eucl_dist' 'localsolver' 'matrix_eucl_dist' 1 ((PROCEDURE
UNKNOWN-INTENT MODULE-PROC DECL UNKNOWN SUBROUTINE ALWAYS_EXPLICIT) (
UNKNOWN 0 0 0 UNKNOWN ()) 239 0 (240 241 242) () 0 () () () 0 0)
243 'max_matrix' 'common_functions' 'max_matrix' 1 ((PROCEDURE
UNKNOWN-INTENT MODULE-PROC DECL UNKNOWN ALLOCATABLE DIMENSION FUNCTION
ALWAYS_EXPLICIT) (REAL 8 0 0 REAL ()) 244 0 (245 246) (2 DEFERRED () ()
() ()) 247 () () () 0 0)
248 'misqp_interface' 'misqp_interface' 'misqp_interface' 1 ((MODULE
UNKNOWN-INTENT UNKNOWN-PROC UNKNOWN UNKNOWN) (UNKNOWN 0 0 0 UNKNOWN ())
0 0 () () 0 () () () 0 0)
249 'nchoosek_fpar' 'common_functions' 'nchoosek_fpar' 1 ((PROCEDURE
UNKNOWN-INTENT MODULE-PROC DECL UNKNOWN SUBROUTINE ALWAYS_EXPLICIT) (
UNKNOWN 0 0 0 UNKNOWN ()) 250 0 (251 252 253) () 0 () () () 0 0)
254 'opts' 'scattersearchtypes' 'opts' 1 ((DERIVED UNKNOWN-INTENT
UNKNOWN-PROC UNKNOWN UNKNOWN ALLOC_COMP) (UNKNOWN 0 0 0 UNKNOWN ()) 0 0
() () 0 ((255 'empty' (INTEGER 4 0 0 INTEGER ()) () (UNKNOWN-FL
UNKNOWN-INTENT UNKNOWN-PROC UNKNOWN UNKNOWN) UNKNOWN-ACCESS ()) (256
'useroptions' (DERIVED 257 0 0 DERIVED ()) () (UNKNOWN-FL UNKNOWN-INTENT
UNKNOWN-PROC UNKNOWN UNKNOWN) UNKNOWN-ACCESS (STRUCTURE (DERIVED 257 0 0
DERIVED ()) 0 ((() ()) (() ()) (() ()) (() ()) (() ()) (() ()) (() ()) (
() ()) (() ()) (() ()) (() ()) ((NULL (INTEGER 4 0 0 INTEGER ()) 0) ())
(() ())) ())) (258 'globaloptions' (DERIVED 183 0 0 DERIVED ()) () (
UNKNOWN-FL UNKNOWN-INTENT UNKNOWN-PROC UNKNOWN UNKNOWN) UNKNOWN-ACCESS ())
(259 'localoptions' (DERIVED 220 0 0 DERIVED ()) () (UNKNOWN-FL
UNKNOWN-INTENT UNKNOWN-PROC UNKNOWN UNKNOWN) UNKNOWN-ACCESS (STRUCTURE (
DERIVED 220 0 0 DERIVED ()) 0 ((() ()) (() ()) (() ()) (() ()) (() ()) (
() ()) (() ()) (() ()) (() ()) (() ()) (() ()) (() ()) (() ()) (() ()) (
(STRUCTURE (DERIVED 145 0 0 DERIVED ()) 0 ((() ()) ((NULL (INTEGER 8 0 0
INTEGER ()) 0) ()) ((NULL (REAL 8 0 0 REAL ()) 0) ()) (() ()) (() ()) (
() ()) (() ())) ()) ()) (() ()) ((NULL (CHARACTER 1 1 0 CHARACTER ((
CONSTANT (INTEGER 4 0 0 INTEGER ()) 0 '20'))) 0) ())) ()))) PUBLIC (() ())
() 0 0)
260 'outfuction' 'scattersearchtypes' 'outfuction' 1 ((DERIVED
UNKNOWN-INTENT UNKNOWN-PROC UNKNOWN UNKNOWN ALLOC_COMP) (UNKNOWN 0 0 0
UNKNOWN ()) 0 0 () () 0 ((261 'value' (REAL 8 0 0 REAL ()) () (
UNKNOWN-FL UNKNOWN-INTENT UNKNOWN-PROC UNKNOWN UNKNOWN) UNKNOWN-ACCESS ())
(262 'value_penalty' (REAL 8 0 0 REAL ()) () (UNKNOWN-FL UNKNOWN-INTENT
UNKNOWN-PROC UNKNOWN UNKNOWN) UNKNOWN-ACCESS ()) (263 'pena' (REAL 8 0 0
REAL ()) () (UNKNOWN-FL UNKNOWN-INTENT UNKNOWN-PROC UNKNOWN UNKNOWN)
UNKNOWN-ACCESS ()) (264 'nlc' (REAL 8 0 0 REAL ()) (1 DEFERRED () ()) (
UNKNOWN-FL UNKNOWN-INTENT UNKNOWN-PROC UNKNOWN UNKNOWN ALLOCATABLE
DIMENSION) UNKNOWN-ACCESS ()) (265 'include' (INTEGER 4 0 0 INTEGER ())
() (UNKNOWN-FL UNKNOWN-INTENT UNKNOWN-PROC UNKNOWN UNKNOWN)
UNKNOWN-ACCESS ()) (266 'x' (REAL 8 0 0 REAL ()) (1 DEFERRED () ()) (
UNKNOWN-FL UNKNOWN-INTENT UNKNOWN-PROC UNKNOWN UNKNOWN ALLOCATABLE
DIMENSION) UNKNOWN-ACCESS ())) PUBLIC (() ()) () 0 0)
267 'precision_d' 'scattersearchtypes' 'precision_d' 1 ((PARAMETER
UNKNOWN-INTENT UNKNOWN-PROC UNKNOWN IMPLICIT-SAVE) (INTEGER 4 0 0
INTEGER ()) 0 0 () (CONSTANT (INTEGER 4 0 0 INTEGER ()) 0 '15') () 0 ()
() () 0 0)
268 'precision_f' 'scattersearchtypes' 'precision_f' 1 ((PARAMETER
UNKNOWN-INTENT UNKNOWN-PROC UNKNOWN IMPLICIT-SAVE) (INTEGER 4 0 0
INTEGER ()) 0 0 () (CONSTANT (INTEGER 4 0 0 INTEGER ()) 0 '7') () 0 () ()
() 0 0)
269 'print_matrix' 'common_functions' 'print_matrix' 1 ((PROCEDURE
UNKNOWN-INTENT MODULE-PROC DECL UNKNOWN SUBROUTINE ALWAYS_EXPLICIT) (
UNKNOWN 0 0 0 UNKNOWN ()) 270 0 (271) () 0 () () () 0 0)
272 'print_matrix_integer' 'common_functions' 'print_matrix_integer' 1 (
(PROCEDURE UNKNOWN-INTENT MODULE-PROC DECL UNKNOWN SUBROUTINE
ALWAYS_EXPLICIT) (UNKNOWN 0 0 0 UNKNOWN ()) 273 0 (274) () 0 () () () 0
0)
275 'print_vector' 'common_functions' 'print_vector' 1 ((PROCEDURE
UNKNOWN-INTENT MODULE-PROC DECL UNKNOWN SUBROUTINE ALWAYS_EXPLICIT) (
UNKNOWN 0 0 0 UNKNOWN ()) 276 0 (277) () 0 () () () 0 0)
278 'problem' 'scattersearchtypes' 'problem' 1 ((DERIVED UNKNOWN-INTENT
UNKNOWN-PROC UNKNOWN UNKNOWN ALLOC_COMP) (UNKNOWN 0 0 0 UNKNOWN ()) 0 0
() () 0 ((279 'empty' (INTEGER 4 0 0 INTEGER ()) () (UNKNOWN-FL
UNKNOWN-INTENT UNKNOWN-PROC UNKNOWN UNKNOWN) UNKNOWN-ACCESS ()) (280 'f'
(CHARACTER 1 0 0 CHARACTER ((CONSTANT (INTEGER 4 0 0 INTEGER ()) 0 '20')))
() (UNKNOWN-FL UNKNOWN-INTENT UNKNOWN-PROC UNKNOWN UNKNOWN)
UNKNOWN-ACCESS ()) (281 'neq' (INTEGER 4 0 0 INTEGER ()) () (UNKNOWN-FL
UNKNOWN-INTENT UNKNOWN-PROC UNKNOWN UNKNOWN) UNKNOWN-ACCESS ()) (282
'int_var' (INTEGER 4 0 0 INTEGER ()) () (UNKNOWN-FL UNKNOWN-INTENT
UNKNOWN-PROC UNKNOWN UNKNOWN) UNKNOWN-ACCESS ()) (283 'bin_var' (
INTEGER 4 0 0 INTEGER ()) () (UNKNOWN-FL UNKNOWN-INTENT UNKNOWN-PROC
UNKNOWN UNKNOWN) UNKNOWN-ACCESS ()) (284 'vtr' (REAL 8 0 0 REAL ()) (1
DEFERRED () ()) (UNKNOWN-FL UNKNOWN-INTENT UNKNOWN-PROC UNKNOWN UNKNOWN
ALLOCATABLE DIMENSION) UNKNOWN-ACCESS ()) (285 'xl' (REAL 8 0 0 REAL ())
(1 DEFERRED () ()) (UNKNOWN-FL UNKNOWN-INTENT UNKNOWN-PROC UNKNOWN
UNKNOWN ALLOCATABLE DIMENSION) UNKNOWN-ACCESS ()) (286 'xu' (REAL 8 0 0
REAL ()) (1 DEFERRED () ()) (UNKNOWN-FL UNKNOWN-INTENT UNKNOWN-PROC
UNKNOWN UNKNOWN ALLOCATABLE DIMENSION) UNKNOWN-ACCESS ()) (287 'cl' (
REAL 8 0 0 REAL ()) (1 DEFERRED () ()) (UNKNOWN-FL UNKNOWN-INTENT
UNKNOWN-PROC UNKNOWN UNKNOWN ALLOCATABLE DIMENSION) UNKNOWN-ACCESS ()) (
288 'cu' (REAL 8 0 0 REAL ()) (1 DEFERRED () ()) (UNKNOWN-FL
UNKNOWN-INTENT UNKNOWN-PROC UNKNOWN UNKNOWN ALLOCATABLE DIMENSION)
UNKNOWN-ACCESS ()) (289 'ineq' (INTEGER 4 0 0 INTEGER ()) () (
UNKNOWN-FL UNKNOWN-INTENT UNKNOWN-PROC UNKNOWN UNKNOWN) UNKNOWN-ACCESS ())
(290 'x0' (REAL 8 0 0 REAL ()) (2 DEFERRED () () () ()) (UNKNOWN-FL
UNKNOWN-INTENT UNKNOWN-PROC UNKNOWN UNKNOWN ALLOCATABLE DIMENSION)
UNKNOWN-ACCESS ()) (291 'f0' (REAL 8 0 0 REAL ()) (1 DEFERRED () ()) (
UNKNOWN-FL UNKNOWN-INTENT UNKNOWN-PROC UNKNOWN UNKNOWN ALLOCATABLE
DIMENSION) UNKNOWN-ACCESS ())) PUBLIC (() ()) () 0 0)
292 'qsort_module' 'qsort_module' 'qsort_module' 1 ((MODULE
UNKNOWN-INTENT UNKNOWN-PROC UNKNOWN UNKNOWN) (UNKNOWN 0 0 0 UNKNOWN ())
0 0 () () 0 () () () 0 0)
293 'qsortc' 'qsort_module' 'qsortc' 1 ((PROCEDURE UNKNOWN-INTENT
MODULE-PROC DECL UNKNOWN SUBROUTINE RECURSIVE ALWAYS_EXPLICIT) (UNKNOWN
0 0 0 UNKNOWN ()) 294 0 (295) () 0 () () () 0 0)
296 'qsortc_ind' 'qsort_module' 'qsortc_ind' 1 ((PROCEDURE
UNKNOWN-INTENT MODULE-PROC DECL UNKNOWN SUBROUTINE RECURSIVE
ALWAYS_EXPLICIT) (UNKNOWN 0 0 0 UNKNOWN ()) 297 0 (298 299) () 0 () () ()
0 0)
300 'random_det_matrix_seed_10' 'common_functions'
'random_det_matrix_seed_10' 1 ((PROCEDURE UNKNOWN-INTENT MODULE-PROC
DECL UNKNOWN SUBROUTINE ALWAYS_EXPLICIT) (UNKNOWN 0 0 0 UNKNOWN ()) 301
0 (302 303 304 305 306) () 0 () () () 0 0)
307 'random_det_number' 'common_functions' 'random_det_number' 1 ((
PROCEDURE UNKNOWN-INTENT MODULE-PROC DECL UNKNOWN SUBROUTINE
ALWAYS_EXPLICIT) (UNKNOWN 0 0 0 UNKNOWN ()) 308 0 (309 310 311) () 0 ()
() () 0 0)
312 'random_det_vector_5' 'common_functions' 'random_det_vector_5' 1 ((
PROCEDURE UNKNOWN-INTENT MODULE-PROC DECL UNKNOWN SUBROUTINE
ALWAYS_EXPLICIT) (UNKNOWN 0 0 0 UNKNOWN ()) 313 0 (314 315 316 317 318
319 320) () 0 () () () 0 0)
321 'random_det_vector_seed' 'common_functions' 'random_det_vector_seed'
1 ((PROCEDURE UNKNOWN-INTENT MODULE-PROC DECL UNKNOWN SUBROUTINE
ALWAYS_EXPLICIT) (UNKNOWN 0 0 0 UNKNOWN ()) 322 0 (323 324 325 326 327
328) () 0 () () () 0 0)
329 'random_det_vector_seed_10' 'common_functions'
'random_det_vector_seed_10' 1 ((PROCEDURE UNKNOWN-INTENT MODULE-PROC
DECL UNKNOWN SUBROUTINE ALWAYS_EXPLICIT) (UNKNOWN 0 0 0 UNKNOWN ()) 330
0 (331 332 333 334) () 0 () () () 0 0)
335 'random_matrix_seed_10' 'common_functions' 'random_matrix_seed_10' 1
((PROCEDURE UNKNOWN-INTENT MODULE-PROC DECL UNKNOWN SUBROUTINE
ALWAYS_EXPLICIT) (UNKNOWN 0 0 0 UNKNOWN ()) 336 0 (337 338 339 340) () 0
() () () 0 0)
341 'random_vector_5' 'common_functions' 'random_vector_5' 1 ((
PROCEDURE UNKNOWN-INTENT MODULE-PROC DECL UNKNOWN SUBROUTINE
ALWAYS_EXPLICIT) (UNKNOWN 0 0 0 UNKNOWN ()) 342 0 (343 344 345 346 347
348) () 0 () () () 0 0)
349 'random_vector_seed' 'common_functions' 'random_vector_seed' 1 ((
PROCEDURE UNKNOWN-INTENT MODULE-PROC DECL UNKNOWN SUBROUTINE
ALWAYS_EXPLICIT) (UNKNOWN 0 0 0 UNKNOWN ()) 350 0 (351 352 353 354 355)
() 0 () () () 0 0)
356 'random_vector_seed_10' 'common_functions' 'random_vector_seed_10' 1
((PROCEDURE UNKNOWN-INTENT MODULE-PROC DECL UNKNOWN SUBROUTINE
ALWAYS_EXPLICIT) (UNKNOWN 0 0 0 UNKNOWN ()) 357 0 (358 359 360) () 0 ()
() () 0 0)
361 'randperm_int' 'common_functions' 'randperm_int' 1 ((PROCEDURE
UNKNOWN-INTENT MODULE-PROC DECL UNKNOWN SUBROUTINE ALWAYS_EXPLICIT) (
UNKNOWN 0 0 0 UNKNOWN ()) 362 0 (363) () 0 () () () 0 0)
364 'range_d' 'scattersearchtypes' 'range_d' 1 ((PARAMETER
UNKNOWN-INTENT UNKNOWN-PROC UNKNOWN IMPLICIT-SAVE) (INTEGER 4 0 0
INTEGER ()) 0 0 () (CONSTANT (INTEGER 4 0 0 INTEGER ()) 0 '307') () 0 ()
() () 0 0)
365 'range_f' 'scattersearchtypes' 'range_f' 1 ((PARAMETER
UNKNOWN-INTENT UNKNOWN-PROC UNKNOWN IMPLICIT-SAVE) (INTEGER 4 0 0
INTEGER ()) 0 0 () (CONSTANT (INTEGER 4 0 0 INTEGER ()) 0 '150') () 0 ()
() () 0 0)
366 'reajust_index' 'common_functions' 'reajust_index' 1 ((PROCEDURE
UNKNOWN-INTENT MODULE-PROC DECL UNKNOWN SUBROUTINE ALWAYS_EXPLICIT) (
UNKNOWN 0 0 0 UNKNOWN ()) 367 0 (368) () 0 () () () 0 0)
369 'real' '(intrinsic)' 'real' 1 ((PROCEDURE UNKNOWN-INTENT
UNKNOWN-PROC UNKNOWN UNKNOWN FUNCTION) (REAL 4 0 0 REAL ()) 0 0 () ()
369 () () () 0 0)
370 'refsettype' 'scattersearchtypes' 'refsettype' 1 ((DERIVED
UNKNOWN-INTENT UNKNOWN-PROC UNKNOWN UNKNOWN ALLOC_COMP) (UNKNOWN 0 0 0
UNKNOWN ()) 0 0 () () 0 ((371 'x' (REAL 8 0 0 REAL ()) (2 DEFERRED () ()
() ()) (UNKNOWN-FL UNKNOWN-INTENT UNKNOWN-PROC UNKNOWN UNKNOWN
ALLOCATABLE DIMENSION) UNKNOWN-ACCESS ()) (372 'f' (REAL 8 0 0 REAL ())
(1 DEFERRED () ()) (UNKNOWN-FL UNKNOWN-INTENT UNKNOWN-PROC UNKNOWN
UNKNOWN ALLOCATABLE DIMENSION) UNKNOWN-ACCESS ()) (373 'fpen' (REAL 8 0
0 REAL ()) (1 DEFERRED () ()) (UNKNOWN-FL UNKNOWN-INTENT UNKNOWN-PROC
UNKNOWN UNKNOWN ALLOCATABLE DIMENSION) UNKNOWN-ACCESS ()) (374 'nlc' (
REAL 8 0 0 REAL ()) (2 DEFERRED () () () ()) (UNKNOWN-FL UNKNOWN-INTENT
UNKNOWN-PROC UNKNOWN UNKNOWN ALLOCATABLE DIMENSION) UNKNOWN-ACCESS ()) (
375 'penalty' (REAL 8 0 0 REAL ()) (1 DEFERRED () ()) (UNKNOWN-FL
UNKNOWN-INTENT UNKNOWN-PROC UNKNOWN UNKNOWN ALLOCATABLE DIMENSION)
UNKNOWN-ACCESS ()) (376 'parent_index' (INTEGER 4 0 0 INTEGER ()) (1
DEFERRED () ()) (UNKNOWN-FL UNKNOWN-INTENT UNKNOWN-PROC UNKNOWN UNKNOWN
ALLOCATABLE DIMENSION) UNKNOWN-ACCESS ())) PUBLIC (() ()) () 0 0)
377 'replace_matrix' 'common_functions' 'replace_matrix' 1 ((PROCEDURE
UNKNOWN-INTENT MODULE-PROC DECL UNKNOWN SUBROUTINE ALWAYS_EXPLICIT) (
UNKNOWN 0 0 0 UNKNOWN ()) 378 0 (379 380) () 0 () () () 0 0)
381 'resultsf' 'scattersearchtypes' 'resultsf' 1 ((DERIVED
UNKNOWN-INTENT UNKNOWN-PROC UNKNOWN UNKNOWN ALLOC_COMP) (UNKNOWN 0 0 0
UNKNOWN ()) 0 0 () () 0 ((382 'refsett' (DERIVED 370 0 0 DERIVED ()) ()
(UNKNOWN-FL UNKNOWN-INTENT UNKNOWN-PROC UNKNOWN UNKNOWN) UNKNOWN-ACCESS
(STRUCTURE (DERIVED 370 0 0 DERIVED ()) 0 (((NULL (REAL 8 0 0 REAL ()) 0)
()) ((NULL (REAL 8 0 0 REAL ()) 0) ()) ((NULL (REAL 8 0 0 REAL ()) 0) ())
((NULL (REAL 8 0 0 REAL ()) 0) ()) ((NULL (REAL 8 0 0 REAL ()) 0) ()) (
(NULL (INTEGER 4 0 0 INTEGER ()) 0) ())) ())) (383 'fbest' (REAL 8 0 0
REAL ()) (1 DEFERRED () ()) (UNKNOWN-FL UNKNOWN-INTENT UNKNOWN-PROC
UNKNOWN UNKNOWN ALLOCATABLE DIMENSION) UNKNOWN-ACCESS ()) (384 'xbest' (
REAL 8 0 0 REAL ()) (1 DEFERRED () ()) (UNKNOWN-FL UNKNOWN-INTENT
UNKNOWN-PROC UNKNOWN UNKNOWN ALLOCATABLE DIMENSION) UNKNOWN-ACCESS ()) (
385 'cputime' (REAL 8 1 0 REAL ()) () (UNKNOWN-FL UNKNOWN-INTENT
UNKNOWN-PROC UNKNOWN UNKNOWN) UNKNOWN-ACCESS ()) (386 'f' (REAL 8 0 0
REAL ()) (1 DEFERRED () ()) (UNKNOWN-FL UNKNOWN-INTENT UNKNOWN-PROC
UNKNOWN UNKNOWN ALLOCATABLE DIMENSION) UNKNOWN-ACCESS ()) (387 'x' (
REAL 8 0 0 REAL ()) (2 DEFERRED () () () ()) (UNKNOWN-FL UNKNOWN-INTENT
UNKNOWN-PROC UNKNOWN UNKNOWN ALLOCATABLE DIMENSION) UNKNOWN-ACCESS ()) (
388 'time' (REAL 8 1 0 REAL ()) (1 DEFERRED () ()) (UNKNOWN-FL
UNKNOWN-INTENT UNKNOWN-PROC UNKNOWN UNKNOWN ALLOCATABLE DIMENSION)
UNKNOWN-ACCESS ()) (389 'neval' (INTEGER 8 1 0 INTEGER ()) (1 DEFERRED ()
()) (UNKNOWN-FL UNKNOWN-INTENT UNKNOWN-PROC UNKNOWN UNKNOWN ALLOCATABLE
DIMENSION) UNKNOWN-ACCESS ()) (390 'numeval' (INTEGER 8 1 0 INTEGER ())
() (UNKNOWN-FL UNKNOWN-INTENT UNKNOWN-PROC UNKNOWN UNKNOWN)
UNKNOWN-ACCESS ()) (391 'local_solutions' (INTEGER 8 1 0 INTEGER ()) ()
(UNKNOWN-FL UNKNOWN-INTENT UNKNOWN-PROC UNKNOWN UNKNOWN) UNKNOWN-ACCESS
()) (392 'local_solutions_values' (INTEGER 8 1 0 INTEGER ()) (1 DEFERRED
() ()) (UNKNOWN-FL UNKNOWN-INTENT UNKNOWN-PROC UNKNOWN UNKNOWN
ALLOCATABLE DIMENSION) UNKNOWN-ACCESS ()) (393 'end_crit' (INTEGER 8 1 0
INTEGER ()) () (UNKNOWN-FL UNKNOWN-INTENT UNKNOWN-PROC UNKNOWN UNKNOWN)
UNKNOWN-ACCESS ())) PUBLIC (() ()) () 0 0)
394 'return_random_number' 'common_functions' 'return_random_number' 1 (
(PROCEDURE UNKNOWN-INTENT MODULE-PROC DECL UNKNOWN FUNCTION) (REAL 8 0 0
REAL ()) 395 0 (396) () 397 () () () 0 0)
398 'return_values_matrix_index' 'common_functions'
'return_values_matrix_index' 1 ((PROCEDURE UNKNOWN-INTENT MODULE-PROC
DECL UNKNOWN SUBROUTINE ALWAYS_EXPLICIT) (UNKNOWN 0 0 0 UNKNOWN ()) 399
0 (400 401 402) () 0 () () () 0 0)
403 'row_one' 'common_functions' 'row_one' 1 ((PROCEDURE UNKNOWN-INTENT
MODULE-PROC DECL UNKNOWN SUBROUTINE ALWAYS_EXPLICIT) (UNKNOWN 0 0 0
UNKNOWN ()) 404 0 (405 406 407) () 0 () () () 0 0)
408 'run_misqp' 'misqp_interface' 'run_misqp' 1 ((PROCEDURE
UNKNOWN-INTENT MODULE-PROC DECL UNKNOWN SUBROUTINE ALWAYS_EXPLICIT) (
UNKNOWN 0 0 0 UNKNOWN ()) 409 0 (410 411 412 413 414 415 416 417 418 419)
() 0 () () () 0 0)
420 'scattersearchtypes' 'scattersearchtypes' 'scattersearchtypes' 1 ((
MODULE UNKNOWN-INTENT UNKNOWN-PROC UNKNOWN UNKNOWN) (UNKNOWN 0 0 0
UNKNOWN ()) 0 0 () () 0 () () () 0 0)
421 'selected_real_kind' '(intrinsic)' 'selected_real_kind' 1 ((
PROCEDURE UNKNOWN-INTENT UNKNOWN-PROC UNKNOWN UNKNOWN FUNCTION) (REAL 4
0 0 REAL ()) 0 0 () () 421 () () () 0 0)
422 'square_roots_polinom' 'common_functions' 'square_roots_polinom' 1 (
(PROCEDURE UNKNOWN-INTENT MODULE-PROC DECL UNKNOWN SUBROUTINE) (UNKNOWN
0 0 0 UNKNOWN ()) 423 0 (424 425) () 0 () () () 0 0)
426 'ssm_evalfc' 'funcevalinterface' 'ssm_evalfc' 1 ((PROCEDURE
UNKNOWN-INTENT MODULE-PROC DECL UNKNOWN FUNCTION ALWAYS_EXPLICIT) (
DERIVED 260 0 0 DERIVED ()) 427 0 (428 429 430 431 432 433 434) () 435 ()
() () 0 0)
436 'ssm_isdif2' 'localsolver' 'ssm_isdif2' 1 ((PROCEDURE UNKNOWN-INTENT
MODULE-PROC DECL UNKNOWN SUBROUTINE ALWAYS_EXPLICIT) (UNKNOWN 0 0 0
UNKNOWN ()) 437 0 (438 439 440 441 442 443 444) () 0 () () () 0 0)
445 'ssm_local_filters' 'localsolver' 'ssm_local_filters' 1 ((PROCEDURE
UNKNOWN-INTENT MODULE-PROC DECL UNKNOWN SUBROUTINE ALWAYS_EXPLICIT) (
UNKNOWN 0 0 0 UNKNOWN ()) 446 0 (447 448 449 450 451 452 453 454 455 456
457 458 459 460 461 462 463 464 465 466 467 468 469 470 471 472 473) ()
0 () () () 0 0)
474 'ssm_penalty_function' 'funcevalinterface' 'ssm_penalty_function' 1
((PROCEDURE UNKNOWN-INTENT MODULE-PROC DECL UNKNOWN FUNCTION
ALWAYS_EXPLICIT) (REAL 8 0 0 REAL ()) 475 0 (476 477 478 479) () 480 ()
() () 0 0)
481 'ssm_round_int' 'funcevalinterface' 'ssm_round_int' 1 ((PROCEDURE
UNKNOWN-INTENT MODULE-PROC DECL UNKNOWN SUBROUTINE ALWAYS_EXPLICIT) (
UNKNOWN 0 0 0 UNKNOWN ()) 482 0 (483 484 485 486) () 0 () () () 0 0)
487 'tol_prec' 'scattersearchtypes' 'tol_prec' 1 ((PARAMETER
UNKNOWN-INTENT UNKNOWN-PROC UNKNOWN IMPLICIT-SAVE) (REAL 8 0 0 REAL ())
0 0 () (CONSTANT (REAL 8 0 0 REAL ()) 0 '0.12725dd1d243ac@-14') () 0 ()
() () 0 0)
488 'topology_data_fortran' 'scattersearchtypes' 'topology_data_fortran'
1 ((DERIVED UNKNOWN-INTENT UNKNOWN-PROC UNKNOWN UNKNOWN ALLOC_COMP) (
UNKNOWN 0 0 0 UNKNOWN ()) 0 0 () () 0 ((489 'num_r' (INTEGER 4 0 0
INTEGER ()) () (UNKNOWN-FL UNKNOWN-INTENT UNKNOWN-PROC UNKNOWN UNKNOWN)
UNKNOWN-ACCESS ()) (490 'num_left' (INTEGER 4 0 0 INTEGER ()) () (
UNKNOWN-FL UNKNOWN-INTENT UNKNOWN-PROC UNKNOWN UNKNOWN) UNKNOWN-ACCESS ())
(491 'rigth' (INTEGER 4 0 0 INTEGER ()) (1 DEFERRED () ()) (UNKNOWN-FL
UNKNOWN-INTENT UNKNOWN-PROC UNKNOWN UNKNOWN ALLOCATABLE DIMENSION)
UNKNOWN-ACCESS ()) (492 'left' (INTEGER 4 0 0 INTEGER ()) (1 DEFERRED ()
()) (UNKNOWN-FL UNKNOWN-INTENT UNKNOWN-PROC UNKNOWN UNKNOWN ALLOCATABLE
DIMENSION) UNKNOWN-ACCESS ())) PUBLIC (() ()) () 0 0)
493 'transform_norm' 'localsolver' 'transform_norm' 1 ((PROCEDURE
UNKNOWN-INTENT MODULE-PROC DECL UNKNOWN SUBROUTINE ALWAYS_EXPLICIT) (
UNKNOWN 0 0 0 UNKNOWN ()) 494 0 (495 496 497 498) () 0 () () () 0 0)
257 'uoptions' 'scattersearchtypes' 'uoptions' 1 ((DERIVED
UNKNOWN-INTENT UNKNOWN-PROC UNKNOWN UNKNOWN ALLOC_COMP) (UNKNOWN 0 0 0
UNKNOWN ()) 0 0 () () 0 ((499 'empty' (INTEGER 4 0 0 INTEGER ()) () (
UNKNOWN-FL UNKNOWN-INTENT UNKNOWN-PROC UNKNOWN UNKNOWN) UNKNOWN-ACCESS ())
(500 'iterprint' (INTEGER 4 0 0 INTEGER ()) () (UNKNOWN-FL
UNKNOWN-INTENT UNKNOWN-PROC UNKNOWN UNKNOWN) UNKNOWN-ACCESS ()) (501
'plot' (INTEGER 4 0 0 INTEGER ()) () (UNKNOWN-FL UNKNOWN-INTENT
UNKNOWN-PROC UNKNOWN UNKNOWN) UNKNOWN-ACCESS ()) (502 'weight' (INTEGER
4 0 0 INTEGER ()) () (UNKNOWN-FL UNKNOWN-INTENT UNKNOWN-PROC UNKNOWN
UNKNOWN) UNKNOWN-ACCESS ()) (503 'nstuck_solution' (INTEGER 4 0 0
INTEGER ()) () (UNKNOWN-FL UNKNOWN-INTENT UNKNOWN-PROC UNKNOWN UNKNOWN)
UNKNOWN-ACCESS ()) (504 'strategy' (INTEGER 4 0 0 INTEGER ()) () (
UNKNOWN-FL UNKNOWN-INTENT UNKNOWN-PROC UNKNOWN UNKNOWN) UNKNOWN-ACCESS ())
(505 'inter_save' (INTEGER 4 0 0 INTEGER ()) () (UNKNOWN-FL
UNKNOWN-INTENT UNKNOWN-PROC UNKNOWN UNKNOWN) UNKNOWN-ACCESS ()) (506
'maxeval' (INTEGER 8 1 0 INTEGER ()) () (UNKNOWN-FL UNKNOWN-INTENT
UNKNOWN-PROC UNKNOWN UNKNOWN) UNKNOWN-ACCESS ()) (507 'maxtime' (REAL 8
1 0 REAL ()) () (UNKNOWN-FL UNKNOWN-INTENT UNKNOWN-PROC UNKNOWN UNKNOWN)
UNKNOWN-ACCESS ()) (508 'tolc' (REAL 8 0 0 REAL ()) () (UNKNOWN-FL
UNKNOWN-INTENT UNKNOWN-PROC UNKNOWN UNKNOWN) UNKNOWN-ACCESS ()) (509
'prob_bound' (REAL 8 0 0 REAL ()) () (UNKNOWN-FL UNKNOWN-INTENT
UNKNOWN-PROC UNKNOWN UNKNOWN) UNKNOWN-ACCESS ()) (510 'log_var' (
INTEGER 4 0 0 INTEGER ()) (1 DEFERRED () ()) (UNKNOWN-FL UNKNOWN-INTENT
UNKNOWN-PROC UNKNOWN UNKNOWN ALLOCATABLE DIMENSION) UNKNOWN-ACCESS ()) (
511 'init_point' (INTEGER 4 0 0 INTEGER ()) () (UNKNOWN-FL
UNKNOWN-INTENT UNKNOWN-PROC UNKNOWN UNKNOWN) UNKNOWN-ACCESS ())) PUBLIC
(() ()) () 0 0)
512 'valuepos' 'qsort_module' 'valuepos' 1 ((DERIVED UNKNOWN-INTENT
UNKNOWN-PROC UNKNOWN UNKNOWN) (UNKNOWN 0 0 0 UNKNOWN ()) 0 0 () () 0 ((
513 'value' (REAL 8 0 0 REAL ()) () (UNKNOWN-FL UNKNOWN-INTENT
UNKNOWN-PROC UNKNOWN UNKNOWN) UNKNOWN-ACCESS ()) (514 'position' (
INTEGER 4 0 0 INTEGER ()) () (UNKNOWN-FL UNKNOWN-INTENT UNKNOWN-PROC
UNKNOWN UNKNOWN) UNKNOWN-ACCESS ())) PUBLIC (() ()) () 0 0)
515 'variance_vector' 'common_functions' 'variance_vector' 1 ((
PROCEDURE UNKNOWN-INTENT MODULE-PROC DECL UNKNOWN FUNCTION
ALWAYS_EXPLICIT) (REAL 8 0 0 REAL ()) 516 0 (517) () 518 () () () 0 0)
24 'cptr' '__iso_c_binding' 'cptr' 23 ((DERIVED IN UNKNOWN-PROC UNKNOWN
UNKNOWN VALUE DUMMY) (DERIVED 57 0 0 DERIVED ()) 0 0 () () 0 () () () 0
0)
25 'fptr' '__iso_c_binding' 'fptr' 23 ((VARIABLE UNKNOWN-INTENT
UNKNOWN-PROC UNKNOWN UNKNOWN POINTER DUMMY) (VOID 0 0 0 VOID ()) 0 0 ()
() 0 () () () 0 0)
26 'shape' '__iso_c_binding' 'shape' 23 ((VARIABLE IN UNKNOWN-PROC
UNKNOWN UNKNOWN DIMENSION OPTIONAL DUMMY) (VOID 4 0 0 VOID ()) 0 0 () (
1 ASSUMED_SHAPE (CONSTANT (INTEGER 4 0 0 INTEGER ()) 0 '1') ()) 0 () ()
() 0 0)
14 'c_ptr_1' '__iso_c_binding' 'c_ptr_1' 13 ((DERIVED IN UNKNOWN-PROC
UNKNOWN UNKNOWN VALUE DUMMY) (DERIVED 57 0 0 DERIVED ()) 0 0 () () 0 ()
() () 0 0)
15 'c_ptr_2' '__iso_c_binding' 'c_ptr_2' 13 ((DERIVED IN UNKNOWN-PROC
UNKNOWN UNKNOWN OPTIONAL VALUE DUMMY) (DERIVED 57 0 0 DERIVED ()) 0 0 ()
() 0 () () () 0 0)
29 'cptr' '__iso_c_binding' 'cptr' 28 ((DERIVED IN UNKNOWN-PROC UNKNOWN
UNKNOWN VALUE DUMMY) (DERIVED 35 0 0 DERIVED ()) 0 0 () () 0 () () () 0
0)
30 'fptr' '__iso_c_binding' 'fptr' 28 ((VARIABLE UNKNOWN-INTENT
UNKNOWN-PROC UNKNOWN UNKNOWN DUMMY PROC_POINTER) (VOID 0 0 0 VOID ()) 0
0 () () 0 () () () 0 0)
74 'exp1' '' 'exp1' 72 ((VARIABLE INOUT UNKNOWN-PROC UNKNOWN UNKNOWN
DUMMY) (DERIVED 57 0 0 DERIVED ()) 0 0 () () 0 () () () 0 0)
75 'opts1' '' 'opts1' 72 ((VARIABLE INOUT UNKNOWN-PROC UNKNOWN UNKNOWN
DUMMY) (DERIVED 254 0 0 DERIVED ()) 0 0 () () 0 () () () 0 0)
76 'fitnessfunction' '' 'fitnessfunction' 72 ((VARIABLE INOUT
UNKNOWN-PROC UNKNOWN UNKNOWN DUMMY) (DERIVED 35 0 0 DERIVED ()) 0 0 () ()
0 () () () 0 0)
77 'x0' '' 'x0' 72 ((VARIABLE INOUT UNKNOWN-PROC UNKNOWN UNKNOWN
ALLOCATABLE DIMENSION DUMMY) (REAL 8 0 0 REAL ()) 0 0 () (1 DEFERRED ()
()) 0 () () () 0 0)
78 'fval' '' 'fval' 72 ((VARIABLE INOUT UNKNOWN-PROC UNKNOWN UNKNOWN
DUMMY) (REAL 8 0 0 REAL ()) 0 0 () () 0 () () () 0 0)
79 'stopval' '' 'stopval' 72 ((VARIABLE INOUT UNKNOWN-PROC UNKNOWN
UNKNOWN DUMMY) (INTEGER 4 0 0 INTEGER ()) 0 0 () () 0 () () () 0 0)
80 'nproc' '' 'nproc' 72 ((VARIABLE INOUT UNKNOWN-PROC UNKNOWN UNKNOWN
DUMMY) (INTEGER 4 0 0 INTEGER ()) 0 0 () () 0 () () () 0 0)
81 'neval' '' 'neval' 72 ((VARIABLE INOUT UNKNOWN-PROC UNKNOWN UNKNOWN
DUMMY) (INTEGER 8 1 0 INTEGER ()) 0 0 () () 0 () () () 0 0)
82 'output' '' 'output' 72 ((VARIABLE INOUT UNKNOWN-PROC UNKNOWN UNKNOWN
DUMMY) (DERIVED 57 0 0 DERIVED ()) 0 0 () () 0 () () () 0 0)
495 'oldmt' '' 'oldmt' 494 ((VARIABLE IN UNKNOWN-PROC UNKNOWN UNKNOWN
ALLOCATABLE DIMENSION DUMMY) (REAL 8 0 0 REAL ()) 0 0 () (2 DEFERRED ()
() () ()) 0 () () () 0 0)
496 'newmt' '' 'newmt' 494 ((VARIABLE INOUT UNKNOWN-PROC UNKNOWN UNKNOWN
ALLOCATABLE DIMENSION DUMMY) (REAL 8 0 0 REAL ()) 0 0 () (2 DEFERRED ()
() () ()) 0 () () () 0 0)
497 'ub' '' 'ub' 494 ((VARIABLE IN UNKNOWN-PROC UNKNOWN UNKNOWN
ALLOCATABLE DIMENSION DUMMY) (REAL 8 0 0 REAL ()) 0 0 () (1 DEFERRED ()
()) 0 () () () 0 0)
498 'lb' '' 'lb' 494 ((VARIABLE IN UNKNOWN-PROC UNKNOWN UNKNOWN
ALLOCATABLE DIMENSION DUMMY) (REAL 8 0 0 REAL ()) 0 0 () (1 DEFERRED ()
()) 0 () () () 0 0)
240 'a' '' 'a' 239 ((VARIABLE IN UNKNOWN-PROC UNKNOWN UNKNOWN
ALLOCATABLE DIMENSION DUMMY) (REAL 8 0 0 REAL ()) 0 0 () (2 DEFERRED ()
() () ()) 0 () () () 0 0)
241 'b' '' 'b' 239 ((VARIABLE IN UNKNOWN-PROC UNKNOWN UNKNOWN
ALLOCATABLE DIMENSION DUMMY) (REAL 8 0 0 REAL ()) 0 0 () (2 DEFERRED ()
() () ()) 0 () () () 0 0)
73 'problem1' '' 'problem1' 72 ((VARIABLE INOUT UNKNOWN-PROC UNKNOWN
UNKNOWN DUMMY) (DERIVED 278 0 0 DERIVED ()) 0 0 () () 0 () () () 0 0)
430 'x' '' 'x' 427 ((VARIABLE INOUT UNKNOWN-PROC UNKNOWN UNKNOWN
ALLOCATABLE DIMENSION DUMMY) (REAL 8 0 0 REAL ()) 0 0 () (1 DEFERRED ()
()) 0 () () () 0 0)
432 'opts1' '' 'opts1' 427 ((VARIABLE IN UNKNOWN-PROC UNKNOWN UNKNOWN
DUMMY) (DERIVED 254 0 0 DERIVED ()) 0 0 () () 0 () () () 0 0)
9 'x' '' 'x' 8 ((VARIABLE INOUT UNKNOWN-PROC UNKNOWN UNKNOWN ALLOCATABLE
DIMENSION DUMMY) (REAL 8 0 0 REAL ()) 0 0 () (1 DEFERRED () ()) 0 () ()
() 0 0)
6 'res' '' 'res' 4 ((VARIABLE UNKNOWN-INTENT UNKNOWN-PROC UNKNOWN
UNKNOWN ALLOCATABLE DIMENSION RESULT ALWAYS_EXPLICIT) (REAL 8 0 0 REAL ())
0 0 () (2 DEFERRED () () () ()) 0 () () () 0 0)
5 'vector1' '' 'vector1' 4 ((VARIABLE IN UNKNOWN-PROC UNKNOWN UNKNOWN
ALLOCATABLE DIMENSION DUMMY) (REAL 8 0 0 REAL ()) 0 0 () (2 DEFERRED ()
() () ()) 0 () () () 0 0)
86 'res' '' 'res' 84 ((VARIABLE UNKNOWN-INTENT UNKNOWN-PROC UNKNOWN
UNKNOWN RESULT ALWAYS_EXPLICIT) (INTEGER 4 0 0 INTEGER ()) 0 0 () () 0 ()
() () 0 0)
91 'value1' '' 'value1' 89 ((VARIABLE IN UNKNOWN-PROC UNKNOWN UNKNOWN
DUMMY) (REAL 8 0 0 REAL ()) 0 0 () () 0 () () () 0 0)
93 'res1' '' 'res1' 89 ((VARIABLE UNKNOWN-INTENT UNKNOWN-PROC UNKNOWN
UNKNOWN ALLOCATABLE DIMENSION RESULT ALWAYS_EXPLICIT) (INTEGER 4 0 0
INTEGER ()) 0 0 () (2 DEFERRED () () () ()) 0 () () () 0 0)
92 'opt' '' 'opt' 89 ((VARIABLE IN UNKNOWN-PROC UNKNOWN UNKNOWN DUMMY) (
CHARACTER 1 0 0 CHARACTER ((CONSTANT (INTEGER 4 0 0 INTEGER ()) 0 '2')))
0 0 () () 0 () () () 0 0)
90 'matrix1' '' 'matrix1' 89 ((VARIABLE IN UNKNOWN-PROC UNKNOWN UNKNOWN
ALLOCATABLE DIMENSION DUMMY) (REAL 8 0 0 REAL ()) 0 0 () (2 DEFERRED ()
() () ()) 0 () () () 0 0)
105 'sizer' '' 'sizer' 102 ((VARIABLE INOUT UNKNOWN-PROC UNKNOWN UNKNOWN
DUMMY) (INTEGER 4 0 0 INTEGER ()) 0 0 () () 0 () () () 0 0)
107 'res1' '' 'res1' 102 ((VARIABLE UNKNOWN-INTENT UNKNOWN-PROC UNKNOWN
UNKNOWN ALLOCATABLE DIMENSION RESULT ALWAYS_EXPLICIT) (INTEGER 4 0 0
INTEGER ()) 0 0 () (1 DEFERRED () ()) 0 () () () 0 0)
106 'opt' '' 'opt' 102 ((VARIABLE IN UNKNOWN-PROC UNKNOWN UNKNOWN DUMMY)
(CHARACTER 1 0 0 CHARACTER ((CONSTANT (INTEGER 4 0 0 INTEGER ()) 0 '2')))
0 0 () () 0 () () () 0 0)
104 'vector2' '' 'vector2' 102 ((VARIABLE IN UNKNOWN-PROC UNKNOWN
UNKNOWN ALLOCATABLE DIMENSION DUMMY) (REAL 8 0 0 REAL ()) 0 0 () (1
DEFERRED () ()) 0 () () () 0 0)
113 'sizer' '' 'sizer' 109 ((VARIABLE INOUT UNKNOWN-PROC UNKNOWN UNKNOWN
DUMMY) (INTEGER 4 0 0 INTEGER ()) 0 0 () () 0 () () () 0 0)
112 'opt' '' 'opt' 109 ((VARIABLE IN UNKNOWN-PROC UNKNOWN UNKNOWN DUMMY)
(CHARACTER 1 0 0 CHARACTER ((CONSTANT (INTEGER 4 0 0 INTEGER ()) 0 '2')))
0 0 () () 0 () () () 0 0)
157 'vectorout' '' 'vectorout' 154 ((VARIABLE INOUT UNKNOWN-PROC UNKNOWN
UNKNOWN ALLOCATABLE DIMENSION DUMMY) (INTEGER 4 0 0 INTEGER ()) 0 0 () (
1 DEFERRED () ()) 0 () () () 0 0)
156 'value' '' 'value' 154 ((VARIABLE IN UNKNOWN-PROC UNKNOWN UNKNOWN
DUMMY) (REAL 8 0 0 REAL ()) 0 0 () () 0 () () () 0 0)
155 'vector' '' 'vector' 154 ((VARIABLE IN UNKNOWN-PROC UNKNOWN UNKNOWN
ALLOCATABLE DIMENSION DUMMY) (REAL 8 0 0 REAL ()) 0 0 () (1 DEFERRED ()
()) 0 () () () 0 0)
118 'num' '' 'num' 116 ((VARIABLE UNKNOWN-INTENT UNKNOWN-PROC UNKNOWN
UNKNOWN DUMMY) (INTEGER 4 0 0 INTEGER ()) 0 0 () () 0 () () () 0 0)
163 'vectorout' '' 'vectorout' 160 ((VARIABLE INOUT UNKNOWN-PROC UNKNOWN
UNKNOWN ALLOCATABLE DIMENSION DUMMY) (INTEGER 4 0 0 INTEGER ()) 0 0 () (
1 DEFERRED () ()) 0 () () () 0 0)
164 'opt' '' 'opt' 160 ((VARIABLE IN UNKNOWN-PROC UNKNOWN UNKNOWN DUMMY)
(CHARACTER 1 0 0 CHARACTER ((CONSTANT (INTEGER 4 0 0 INTEGER ()) 0 '2')))
0 0 () () 0 () () () 0 0)
158 'opt' '' 'opt' 154 ((VARIABLE IN UNKNOWN-PROC UNKNOWN UNKNOWN DUMMY)
(CHARACTER 1 0 0 CHARACTER ((CONSTANT (INTEGER 4 0 0 INTEGER ()) 0 '2')))
0 0 () () 0 () () () 0 0)
169 'res' '' 'res' 166 ((VARIABLE UNKNOWN-INTENT UNKNOWN-PROC UNKNOWN
UNKNOWN RESULT ALWAYS_EXPLICIT) (INTEGER 4 0 0 INTEGER ()) 0 0 () () 0 ()
() () 0 0)
168 'value1' '' 'value1' 166 ((VARIABLE IN UNKNOWN-PROC UNKNOWN UNKNOWN
DUMMY) (INTEGER 4 0 0 INTEGER ()) 0 0 () () 0 () () () 0 0)
174 'matrix2' '' 'matrix2' 172 ((VARIABLE INOUT UNKNOWN-PROC UNKNOWN
UNKNOWN ALLOCATABLE DIMENSION DUMMY) (REAL 8 0 0 REAL ()) 0 0 () (2
DEFERRED () () () ()) 0 () () () 0 0)
167 'vector' '' 'vector' 166 ((VARIABLE IN UNKNOWN-PROC UNKNOWN UNKNOWN
ALLOCATABLE DIMENSION DUMMY) (INTEGER 4 0 0 INTEGER ()) 0 0 () (1
DEFERRED () ()) 0 () () () 0 0)
178 'vector2' '' 'vector2' 176 ((VARIABLE INOUT UNKNOWN-PROC UNKNOWN
UNKNOWN ALLOCATABLE DIMENSION DUMMY) (REAL 8 0 0 REAL ()) 0 0 () (1
DEFERRED () ()) 0 () () () 0 0)
181 'vector1' '' 'vector1' 180 ((VARIABLE IN UNKNOWN-PROC UNKNOWN
UNKNOWN ALLOCATABLE DIMENSION DUMMY) (INTEGER 4 0 0 INTEGER ()) 0 0 () (
1 DEFERRED () ()) 0 () () () 0 0)
182 'vector2' '' 'vector2' 180 ((VARIABLE INOUT UNKNOWN-PROC UNKNOWN
UNKNOWN ALLOCATABLE DIMENSION DUMMY) (INTEGER 4 0 0 INTEGER ()) 0 0 () (
1 DEFERRED () ()) 0 () () () 0 0)
177 'vector1' '' 'vector1' 176 ((VARIABLE IN UNKNOWN-PROC UNKNOWN
UNKNOWN ALLOCATABLE DIMENSION DUMMY) (REAL 8 0 0 REAL ()) 0 0 () (1
DEFERRED () ()) 0 () () () 0 0)
114 'res1' '' 'res1' 109 ((VARIABLE UNKNOWN-INTENT UNKNOWN-PROC UNKNOWN
UNKNOWN ALLOCATABLE DIMENSION RESULT ALWAYS_EXPLICIT) (INTEGER 4 0 0
INTEGER ()) 0 0 () (1 DEFERRED () ()) 0 () () () 0 0)
111 'value1' '' 'value1' 109 ((VARIABLE IN UNKNOWN-PROC UNKNOWN UNKNOWN
DUMMY) (REAL 8 0 0 REAL ()) 0 0 () () 0 () () () 0 0)
203 'indexvector' '' 'indexvector' 201 ((VARIABLE INOUT UNKNOWN-PROC
UNKNOWN UNKNOWN ALLOCATABLE DIMENSION DUMMY) (INTEGER 4 0 0 INTEGER ())
0 0 () (1 DEFERRED () ()) 0 () () () 0 0)
208 'd' '' 'd' 206 ((VARIABLE IN UNKNOWN-PROC UNKNOWN UNKNOWN DUMMY) (
INTEGER 4 0 0 INTEGER ()) 0 0 () () 0 () () () 0 0)
212 'd' '' 'd' 210 ((VARIABLE IN UNKNOWN-PROC UNKNOWN UNKNOWN DUMMY) (
INTEGER 4 0 0 INTEGER ()) 0 0 () () 0 () () () 0 0)
213 'value' '' 'value' 210 ((VARIABLE IN UNKNOWN-PROC UNKNOWN UNKNOWN
DUMMY) (REAL 8 0 0 REAL ()) 0 0 () () 0 () () () 0 0)
211 'mm' '' 'mm' 210 ((VARIABLE INOUT UNKNOWN-PROC UNKNOWN UNKNOWN
DIMENSION POINTER DUMMY) (REAL 8 0 0 REAL ()) 0 0 () (1 DEFERRED () ())
0 () () () 0 0)
110 'vector1' '' 'vector1' 109 ((VARIABLE IN UNKNOWN-PROC UNKNOWN
UNKNOWN ALLOCATABLE DIMENSION DUMMY) (REAL 8 0 0 REAL ()) 0 0 () (1
DEFERRED () ()) 0 () () () 0 0)
305 'contador' '' 'contador' 301 ((VARIABLE INOUT UNKNOWN-PROC UNKNOWN
UNKNOWN DUMMY) (INTEGER 4 0 0 INTEGER ()) 0 0 () () 0 () () () 0 0)
306 'm' '' 'm' 301 ((VARIABLE IN UNKNOWN-PROC UNKNOWN UNKNOWN
ALLOCATABLE DIMENSION DUMMY) (REAL 8 0 0 REAL ()) 0 0 () (1 DEFERRED ()
()) 0 () () () 0 0)
311 'm' '' 'm' 308 ((VARIABLE IN UNKNOWN-PROC UNKNOWN UNKNOWN
ALLOCATABLE DIMENSION DUMMY) (REAL 8 0 0 REAL ()) 0 0 () (1 DEFERRED ()
()) 0 () () () 0 0)
314 'x' '' 'x' 313 ((VARIABLE INOUT UNKNOWN-PROC UNKNOWN UNKNOWN
ALLOCATABLE DIMENSION DUMMY) (REAL 8 0 0 REAL ()) 0 0 () (1 DEFERRED ()
()) 0 () () () 0 0)
310 'contador' '' 'contador' 308 ((VARIABLE INOUT UNKNOWN-PROC UNKNOWN
UNKNOWN DUMMY) (INTEGER 4 0 0 INTEGER ()) 0 0 () () 0 () () () 0 0)
304 'sizej' '' 'sizej' 301 ((VARIABLE IN UNKNOWN-PROC UNKNOWN UNKNOWN
DUMMY) (INTEGER 4 0 0 INTEGER ()) 0 0 () () 0 () () () 0 0)
277 'mm' '' 'mm' 276 ((VARIABLE UNKNOWN-INTENT UNKNOWN-PROC UNKNOWN
UNKNOWN ALLOCATABLE DIMENSION DUMMY) (REAL 8 0 0 REAL ()) 0 0 () (1
DEFERRED () ()) 0 () () () 0 0)
317 'xu' '' 'xu' 313 ((VARIABLE IN UNKNOWN-PROC UNKNOWN UNKNOWN
ALLOCATABLE DIMENSION DUMMY) (REAL 8 0 0 REAL ()) 0 0 () (1 DEFERRED ()
()) 0 () () () 0 0)
316 'xl' '' 'xl' 313 ((VARIABLE IN UNKNOWN-PROC UNKNOWN UNKNOWN
ALLOCATABLE DIMENSION DUMMY) (REAL 8 0 0 REAL ()) 0 0 () (1 DEFERRED ()
()) 0 () () () 0 0)
319 'contador' '' 'contador' 313 ((VARIABLE INOUT UNKNOWN-PROC UNKNOWN
UNKNOWN DUMMY) (INTEGER 4 0 0 INTEGER ()) 0 0 () () 0 () () () 0 0)
318 'cont' '' 'cont' 313 ((VARIABLE IN UNKNOWN-PROC UNKNOWN UNKNOWN
DUMMY) (INTEGER 4 0 0 INTEGER ()) 0 0 () () 0 () () () 0 0)
320 'm' '' 'm' 313 ((VARIABLE IN UNKNOWN-PROC UNKNOWN UNKNOWN
ALLOCATABLE DIMENSION DUMMY) (REAL 8 0 0 REAL ()) 0 0 () (1 DEFERRED ()
()) 0 () () () 0 0)
315 'd' '' 'd' 313 ((VARIABLE IN UNKNOWN-PROC UNKNOWN UNKNOWN DUMMY) (
INTEGER 4 0 0 INTEGER ()) 0 0 () () 0 () () () 0 0)
343 'exp1' '' 'exp1' 342 ((VARIABLE INOUT UNKNOWN-PROC UNKNOWN UNKNOWN
DUMMY) (DERIVED 57 0 0 DERIVED ()) 0 0 () () 0 () () () 0 0)
346 'xl' '' 'xl' 342 ((VARIABLE IN UNKNOWN-PROC UNKNOWN UNKNOWN
ALLOCATABLE DIMENSION DUMMY) (REAL 8 0 0 REAL ()) 0 0 () (1 DEFERRED ()
()) 0 () () () 0 0)
348 'cont' '' 'cont' 342 ((VARIABLE IN UNKNOWN-PROC UNKNOWN UNKNOWN
DUMMY) (INTEGER 4 0 0 INTEGER ()) 0 0 () () 0 () () () 0 0)
347 'xu' '' 'xu' 342 ((VARIABLE IN UNKNOWN-PROC UNKNOWN UNKNOWN
ALLOCATABLE DIMENSION DUMMY) (REAL 8 0 0 REAL ()) 0 0 () (1 DEFERRED ()
()) 0 () () () 0 0)
345 'd' '' 'd' 342 ((VARIABLE IN UNKNOWN-PROC UNKNOWN UNKNOWN DUMMY) (
INTEGER 4 0 0 INTEGER ()) 0 0 () () 0 () () () 0 0)
344 'x' '' 'x' 342 ((VARIABLE INOUT UNKNOWN-PROC UNKNOWN UNKNOWN
ALLOCATABLE DIMENSION DUMMY) (REAL 8 0 0 REAL ()) 0 0 () (1 DEFERRED ()
()) 0 () () () 0 0)
354 'xl' '' 'xl' 350 ((VARIABLE IN UNKNOWN-PROC UNKNOWN UNKNOWN
ALLOCATABLE DIMENSION DUMMY) (REAL 8 0 0 REAL ()) 0 0 () (1 DEFERRED ()
()) 0 () () () 0 0)
355 'xu' '' 'xu' 350 ((VARIABLE IN UNKNOWN-PROC UNKNOWN UNKNOWN
ALLOCATABLE DIMENSION DUMMY) (REAL 8 0 0 REAL ()) 0 0 () (1 DEFERRED ()
()) 0 () () () 0 0)
359 'x' '' 'x' 357 ((VARIABLE INOUT UNKNOWN-PROC UNKNOWN UNKNOWN
ALLOCATABLE DIMENSION DUMMY) (REAL 8 0 0 REAL ()) 0 0 () (1 DEFERRED ()
()) 0 () () () 0 0)
358 'exp1' '' 'exp1' 357 ((VARIABLE INOUT UNKNOWN-PROC UNKNOWN UNKNOWN
DUMMY) (DERIVED 57 0 0 DERIVED ()) 0 0 () () 0 () () () 0 0)
353 'd' '' 'd' 350 ((VARIABLE IN UNKNOWN-PROC UNKNOWN UNKNOWN DUMMY) (
INTEGER 4 0 0 INTEGER ()) 0 0 () () 0 () () () 0 0)
363 'vector1' '' 'vector1' 362 ((VARIABLE INOUT UNKNOWN-PROC UNKNOWN
UNKNOWN ALLOCATABLE DIMENSION DUMMY) (INTEGER 4 0 0 INTEGER ()) 0 0 () (
1 DEFERRED () ()) 0 () () () 0 0)
380 'value1' '' 'value1' 378 ((VARIABLE IN UNKNOWN-PROC UNKNOWN UNKNOWN
DUMMY) (REAL 8 0 0 REAL ()) 0 0 () () 0 () () () 0 0)
379 'matrix' '' 'matrix' 378 ((VARIABLE INOUT UNKNOWN-PROC UNKNOWN
UNKNOWN ALLOCATABLE DIMENSION DUMMY) (REAL 8 0 0 REAL ()) 0 0 () (2
DEFERRED () () () ()) 0 () () () 0 0)
397 'res' '' 'res' 395 ((VARIABLE UNKNOWN-INTENT UNKNOWN-PROC UNKNOWN
UNKNOWN RESULT) (REAL 8 0 0 REAL ()) 0 0 () () 0 () () () 0 0)
396 'exp1' '' 'exp1' 395 ((VARIABLE INOUT UNKNOWN-PROC UNKNOWN UNKNOWN
DUMMY) (DERIVED 57 0 0 DERIVED ()) 0 0 () () 0 () () () 0 0)
368 'res1' '' 'res1' 367 ((VARIABLE INOUT UNKNOWN-PROC UNKNOWN UNKNOWN
ALLOCATABLE DIMENSION DUMMY) (INTEGER 4 0 0 INTEGER ()) 0 0 () (1
DEFERRED () ()) 0 () () () 0 0)
360 'd' '' 'd' 357 ((VARIABLE IN UNKNOWN-PROC UNKNOWN UNKNOWN DUMMY) (
INTEGER 4 0 0 INTEGER ()) 0 0 () () 0 () () () 0 0)
352 'x' '' 'x' 350 ((VARIABLE INOUT UNKNOWN-PROC UNKNOWN UNKNOWN
ALLOCATABLE DIMENSION DUMMY) (REAL 8 0 0 REAL ()) 0 0 () (1 DEFERRED ()
()) 0 () () () 0 0)
518 'variance' '' 'variance' 516 ((VARIABLE UNKNOWN-INTENT UNKNOWN-PROC
UNKNOWN UNKNOWN RESULT ALWAYS_EXPLICIT) (REAL 8 0 0 REAL ()) 0 0 () () 0
() () () 0 0)
517 'vector1' '' 'vector1' 516 ((VARIABLE IN UNKNOWN-PROC UNKNOWN
UNKNOWN ALLOCATABLE DIMENSION DUMMY) (REAL 8 0 0 REAL ()) 0 0 () (1
DEFERRED () ()) 0 () () () 0 0)
85 'vector' '' 'vector' 84 ((VARIABLE IN UNKNOWN-PROC UNKNOWN UNKNOWN
ALLOCATABLE DIMENSION DUMMY) (INTEGER 4 0 0 INTEGER ()) 0 0 () (1
DEFERRED () ()) 0 () () () 0 0)
96 'matrix1' '' 'matrix1' 95 ((VARIABLE IN UNKNOWN-PROC UNKNOWN UNKNOWN
ALLOCATABLE DIMENSION DUMMY) (REAL 8 0 0 REAL ()) 0 0 () (2 DEFERRED ()
() () ()) 0 () () () 0 0)
97 'matrix2' '' 'matrix2' 95 ((VARIABLE IN UNKNOWN-PROC UNKNOWN UNKNOWN
ALLOCATABLE DIMENSION DUMMY) (REAL 8 0 0 REAL ()) 0 0 () (2 DEFERRED ()
() () ()) 0 () () () 0 0)
98 'size' '' 'size' 95 ((VARIABLE INOUT UNKNOWN-PROC UNKNOWN UNKNOWN
DUMMY) (INTEGER 4 0 0 INTEGER ()) 0 0 () () 0 () () () 0 0)
100 'res1' '' 'res1' 95 ((VARIABLE UNKNOWN-INTENT UNKNOWN-PROC UNKNOWN
UNKNOWN ALLOCATABLE DIMENSION RESULT ALWAYS_EXPLICIT) (INTEGER 4 0 0
INTEGER ()) 0 0 () (2 DEFERRED () () () ()) 0 () () () 0 0)
99 'opt' '' 'opt' 95 ((VARIABLE IN UNKNOWN-PROC UNKNOWN UNKNOWN DUMMY) (
CHARACTER 1 0 0 CHARACTER ((CONSTANT (INTEGER 4 0 0 INTEGER ()) 0 '2')))
0 0 () () 0 () () () 0 0)
103 'vector1' '' 'vector1' 102 ((VARIABLE IN UNKNOWN-PROC UNKNOWN
UNKNOWN ALLOCATABLE DIMENSION DUMMY) (REAL 8 0 0 REAL ()) 0 0 () (1
DEFERRED () ()) 0 () () () 0 0)
117 'vector1' '' 'vector1' 116 ((VARIABLE INOUT UNKNOWN-PROC UNKNOWN
UNKNOWN ALLOCATABLE DIMENSION DUMMY) (INTEGER 4 0 0 INTEGER ()) 0 0 () (
1 DEFERRED () ()) 0 () () () 0 0)
124 'mm' '' 'mm' 123 ((VARIABLE INOUT UNKNOWN-PROC UNKNOWN UNKNOWN
ALLOCATABLE DIMENSION DUMMY) (REAL 8 0 0 REAL ()) 0 0 () (1 DEFERRED ()
()) 0 () () () 0 0)
144 'x' '' 'x' 143 ((VARIABLE UNKNOWN-INTENT UNKNOWN-PROC UNKNOWN
UNKNOWN DIMENSION POINTER DUMMY) (REAL 8 0 0 REAL ()) 0 0 () (1 DEFERRED
() ()) 0 () () () 0 0)
161 'vector' '' 'vector' 160 ((VARIABLE IN UNKNOWN-PROC UNKNOWN UNKNOWN
ALLOCATABLE DIMENSION DUMMY) (INTEGER 4 0 0 INTEGER ()) 0 0 () (1
DEFERRED () ()) 0 () () () 0 0)
162 'value1' '' 'value1' 160 ((VARIABLE IN UNKNOWN-PROC UNKNOWN UNKNOWN
DUMMY) (INTEGER 4 0 0 INTEGER ()) 0 0 () () 0 () () () 0 0)
173 'matrix1' '' 'matrix1' 172 ((VARIABLE IN UNKNOWN-PROC UNKNOWN
UNKNOWN ALLOCATABLE DIMENSION DUMMY) (REAL 8 0 0 REAL ()) 0 0 () (2
DEFERRED () () () ()) 0 () () () 0 0)
198 'res1' '' 'res1' 197 ((VARIABLE IN UNKNOWN-PROC UNKNOWN UNKNOWN
ALLOCATABLE DIMENSION DUMMY) (INTEGER 4 0 0 INTEGER ()) 0 0 () (1
DEFERRED () ()) 0 () () () 0 0)
199 'bbb' '' 'bbb' 197 ((VARIABLE INOUT UNKNOWN-PROC UNKNOWN UNKNOWN
ALLOCATABLE DIMENSION DUMMY) (INTEGER 4 0 0 INTEGER ()) 0 0 () (1
DEFERRED () ()) 0 () () () 0 0)
202 'res1' '' 'res1' 201 ((VARIABLE IN UNKNOWN-PROC UNKNOWN UNKNOWN
ALLOCATABLE DIMENSION DUMMY) (INTEGER 4 0 0 INTEGER ()) 0 0 () (2
DEFERRED () () () ()) 0 () () () 0 0)
207 'mm' '' 'mm' 206 ((VARIABLE INOUT UNKNOWN-PROC UNKNOWN UNKNOWN
ALLOCATABLE DIMENSION DUMMY) (REAL 8 0 0 REAL ()) 0 0 () (1 DEFERRED ()
()) 0 () () () 0 0)
216 'x' '' 'x' 215 ((VARIABLE INOUT UNKNOWN-PROC UNKNOWN UNKNOWN
ALLOCATABLE DIMENSION DUMMY) (REAL 8 0 0 REAL ()) 0 0 () (1 DEFERRED ()
()) 0 () () () 0 0)
217 'currentsize' '' 'currentsize' 215 ((VARIABLE IN UNKNOWN-PROC
UNKNOWN UNKNOWN DUMMY) (INTEGER 4 0 0 INTEGER ()) 0 0 () () 0 () () () 0
0)
246 'matrix2' '' 'matrix2' 244 ((VARIABLE IN UNKNOWN-PROC UNKNOWN
UNKNOWN ALLOCATABLE DIMENSION DUMMY) (REAL 8 0 0 REAL ()) 0 0 () (2
DEFERRED () () () ()) 0 () () () 0 0)
245 'matrix1' '' 'matrix1' 244 ((VARIABLE IN UNKNOWN-PROC UNKNOWN
UNKNOWN ALLOCATABLE DIMENSION DUMMY) (REAL 8 0 0 REAL ()) 0 0 () (2
DEFERRED () () () ()) 0 () () () 0 0)
252 'pars' '' 'pars' 250 ((VARIABLE IN UNKNOWN-PROC UNKNOWN UNKNOWN
DUMMY) (INTEGER 4 0 0 INTEGER ()) 0 0 () () 0 () () () 0 0)
251 'vector' '' 'vector' 250 ((VARIABLE IN UNKNOWN-PROC UNKNOWN UNKNOWN
ALLOCATABLE DIMENSION DUMMY) (INTEGER 4 0 0 INTEGER ()) 0 0 () (1
DEFERRED () ()) 0 () () () 0 0)
253 'vectorout' '' 'vectorout' 250 ((VARIABLE INOUT UNKNOWN-PROC UNKNOWN
UNKNOWN ALLOCATABLE DIMENSION DUMMY) (INTEGER 4 0 0 INTEGER ()) 0 0 () (
2 DEFERRED () () () ()) 0 () () () 0 0)
247 'res' '' 'res' 244 ((VARIABLE UNKNOWN-INTENT UNKNOWN-PROC UNKNOWN
UNKNOWN ALLOCATABLE DIMENSION RESULT ALWAYS_EXPLICIT) (REAL 8 0 0 REAL ())
0 0 () (2 DEFERRED () () () ()) 0 () () () 0 0)
274 'matrix' '' 'matrix' 273 ((VARIABLE IN UNKNOWN-PROC UNKNOWN UNKNOWN
ALLOCATABLE DIMENSION DUMMY) (INTEGER 4 0 0 INTEGER ()) 0 0 () (2
DEFERRED () () () ()) 0 () () () 0 0)
271 'matrix' '' 'matrix' 270 ((VARIABLE IN UNKNOWN-PROC UNKNOWN UNKNOWN
ALLOCATABLE DIMENSION DUMMY) (REAL 8 0 0 REAL ()) 0 0 () (2 DEFERRED ()
() () ()) 0 () () () 0 0)
303 'sizei' '' 'sizei' 301 ((VARIABLE IN UNKNOWN-PROC UNKNOWN UNKNOWN
DUMMY) (INTEGER 4 0 0 INTEGER ()) 0 0 () () 0 () () () 0 0)
302 'x' '' 'x' 301 ((VARIABLE INOUT UNKNOWN-PROC UNKNOWN UNKNOWN
ALLOCATABLE DIMENSION DUMMY) (REAL 8 0 0 REAL ()) 0 0 () (2 DEFERRED ()
() () ()) 0 () () () 0 0)
309 'num' '' 'num' 308 ((VARIABLE INOUT UNKNOWN-PROC UNKNOWN UNKNOWN
DUMMY) (REAL 8 0 0 REAL ()) 0 0 () () 0 () () () 0 0)
325 'xl' '' 'xl' 322 ((VARIABLE IN UNKNOWN-PROC UNKNOWN UNKNOWN
ALLOCATABLE DIMENSION DUMMY) (REAL 8 0 0 REAL ()) 0 0 () (1 DEFERRED ()
()) 0 () () () 0 0)
328 'm' '' 'm' 322 ((VARIABLE IN UNKNOWN-PROC UNKNOWN UNKNOWN
ALLOCATABLE DIMENSION DUMMY) (REAL 8 0 0 REAL ()) 0 0 () (1 DEFERRED ()
()) 0 () () () 0 0)
327 'contador' '' 'contador' 322 ((VARIABLE INOUT UNKNOWN-PROC UNKNOWN
UNKNOWN DUMMY) (INTEGER 4 0 0 INTEGER ()) 0 0 () () 0 () () () 0 0)
326 'xu' '' 'xu' 322 ((VARIABLE IN UNKNOWN-PROC UNKNOWN UNKNOWN
ALLOCATABLE DIMENSION DUMMY) (REAL 8 0 0 REAL ()) 0 0 () (1 DEFERRED ()
()) 0 () () () 0 0)
324 'd' '' 'd' 322 ((VARIABLE IN UNKNOWN-PROC UNKNOWN UNKNOWN DUMMY) (
INTEGER 4 0 0 INTEGER ()) 0 0 () () 0 () () () 0 0)
323 'x' '' 'x' 322 ((VARIABLE INOUT UNKNOWN-PROC UNKNOWN UNKNOWN
ALLOCATABLE DIMENSION DUMMY) (REAL 8 0 0 REAL ()) 0 0 () (1 DEFERRED ()
()) 0 () () () 0 0)
332 'd' '' 'd' 330 ((VARIABLE IN UNKNOWN-PROC UNKNOWN UNKNOWN DUMMY) (
INTEGER 4 0 0 INTEGER ()) 0 0 () () 0 () () () 0 0)
331 'x' '' 'x' 330 ((VARIABLE INOUT UNKNOWN-PROC UNKNOWN UNKNOWN
ALLOCATABLE DIMENSION DUMMY) (REAL 8 0 0 REAL ()) 0 0 () (1 DEFERRED ()
()) 0 () () () 0 0)
334 'm' '' 'm' 330 ((VARIABLE IN UNKNOWN-PROC UNKNOWN UNKNOWN
ALLOCATABLE DIMENSION DUMMY) (REAL 8 0 0 REAL ()) 0 0 () (1 DEFERRED ()
()) 0 () () () 0 0)
333 'contador' '' 'contador' 330 ((VARIABLE INOUT UNKNOWN-PROC UNKNOWN
UNKNOWN DUMMY) (INTEGER 4 0 0 INTEGER ()) 0 0 () () 0 () () () 0 0)
337 'exp1' '' 'exp1' 336 ((VARIABLE INOUT UNKNOWN-PROC UNKNOWN UNKNOWN
DUMMY) (DERIVED 57 0 0 DERIVED ()) 0 0 () () 0 () () () 0 0)
339 'sizei' '' 'sizei' 336 ((VARIABLE IN UNKNOWN-PROC UNKNOWN UNKNOWN
DUMMY) (INTEGER 4 0 0 INTEGER ()) 0 0 () () 0 () () () 0 0)
338 'x' '' 'x' 336 ((VARIABLE INOUT UNKNOWN-PROC UNKNOWN UNKNOWN
ALLOCATABLE DIMENSION DUMMY) (REAL 8 0 0 REAL ()) 0 0 () (2 DEFERRED ()
() () ()) 0 () () () 0 0)
340 'sizej' '' 'sizej' 336 ((VARIABLE IN UNKNOWN-PROC UNKNOWN UNKNOWN
DUMMY) (INTEGER 4 0 0 INTEGER ()) 0 0 () () 0 () () () 0 0)
351 'exp1' '' 'exp1' 350 ((VARIABLE INOUT UNKNOWN-PROC UNKNOWN UNKNOWN
DUMMY) (DERIVED 57 0 0 DERIVED ()) 0 0 () () 0 () () () 0 0)
400 'vx' '' 'vx' 399 ((VARIABLE INOUT UNKNOWN-PROC UNKNOWN UNKNOWN
ALLOCATABLE DIMENSION DUMMY) (REAL 8 0 0 REAL ()) 0 0 () (2 DEFERRED ()
() () ()) 0 () () () 0 0)
402 'aaa' '' 'aaa' 399 ((VARIABLE IN UNKNOWN-PROC UNKNOWN UNKNOWN
ALLOCATABLE DIMENSION DUMMY) (INTEGER 4 0 0 INTEGER ()) 0 0 () (1
DEFERRED () ()) 0 () () () 0 0)
401 'hyperx' '' 'hyperx' 399 ((VARIABLE IN UNKNOWN-PROC UNKNOWN UNKNOWN
ALLOCATABLE DIMENSION DUMMY) (REAL 8 0 0 REAL ()) 0 0 () (2 DEFERRED ()
() () ()) 0 () () () 0 0)
406 'res2' '' 'res2' 404 ((VARIABLE INOUT UNKNOWN-PROC UNKNOWN UNKNOWN
ALLOCATABLE DIMENSION DUMMY) (INTEGER 4 0 0 INTEGER ()) 0 0 () (1
DEFERRED () ()) 0 () () () 0 0)
407 'sizer' '' 'sizer' 404 ((VARIABLE INOUT UNKNOWN-PROC UNKNOWN UNKNOWN
DUMMY) (INTEGER 4 0 0 INTEGER ()) 0 0 () () 0 () () () 0 0)
424 'matrix1' '' 'matrix1' 423 ((VARIABLE IN UNKNOWN-PROC UNKNOWN
UNKNOWN DIMENSION DUMMY) (REAL 8 0 0 REAL ()) 0 0 () (1 EXPLICIT (
CONSTANT (INTEGER 4 0 0 INTEGER ()) 0 '1') (CONSTANT (INTEGER 4 0 0
INTEGER ()) 0 '3')) 0 () () () 0 0)
425 'result1' '' 'result1' 423 ((VARIABLE INOUT UNKNOWN-PROC UNKNOWN
UNKNOWN DIMENSION DUMMY) (REAL 8 0 0 REAL ()) 0 0 () (1 EXPLICIT (
CONSTANT (INTEGER 4 0 0 INTEGER ()) 0 '1') (CONSTANT (INTEGER 4 0 0
INTEGER ()) 0 '2')) 0 () () () 0 0)
405 'res1' '' 'res1' 404 ((VARIABLE IN UNKNOWN-PROC UNKNOWN UNKNOWN
ALLOCATABLE DIMENSION DUMMY) (INTEGER 4 0 0 INTEGER ()) 0 0 () (2
DEFERRED () () () ()) 0 () () () 0 0)
131 'x_value' '' 'x_value' 127 ((VARIABLE UNKNOWN-INTENT UNKNOWN-PROC
UNKNOWN UNKNOWN DUMMY) (REAL 4 0 0 REAL ()) 0 0 () () 0 () () () 0 0)
132 'f_value' '' 'f_value' 127 ((VARIABLE UNKNOWN-INTENT UNKNOWN-PROC
UNKNOWN UNKNOWN DUMMY) (REAL 4 0 0 REAL ()) 0 0 () () 0 () () () 0 0)
130 'opts1' '' 'opts1' 127 ((VARIABLE UNKNOWN-INTENT UNKNOWN-PROC
UNKNOWN UNKNOWN DUMMY) (REAL 4 0 0 REAL ()) 0 0 () () 0 () () () 0 0)
135 'nfunc' '' 'nfunc' 127 ((VARIABLE UNKNOWN-INTENT UNKNOWN-PROC
UNKNOWN UNKNOWN DUMMY) (INTEGER 4 0 0 INTEGER ()) 0 0 () () 0 () () () 0
0)
136 'm' '' 'm' 127 ((VARIABLE UNKNOWN-INTENT UNKNOWN-PROC UNKNOWN
UNKNOWN DUMMY) (INTEGER 4 0 0 INTEGER ()) 0 0 () () 0 () () () 0 0)
134 'ncont' '' 'ncont' 127 ((VARIABLE UNKNOWN-INTENT UNKNOWN-PROC
UNKNOWN UNKNOWN DUMMY) (INTEGER 4 0 0 INTEGER ()) 0 0 () () 0 () () () 0
0)
139 'fitnessfunction_mysqp' '' 'fitnessfunction_mysqp' 127 ((VARIABLE
UNKNOWN-INTENT UNKNOWN-PROC UNKNOWN UNKNOWN DUMMY) (REAL 4 0 0 REAL ())
0 0 () () 0 () () () 0 0)
140 'neq' '' 'neq' 127 ((VARIABLE UNKNOWN-INTENT UNKNOWN-PROC UNKNOWN
UNKNOWN DUMMY) (INTEGER 4 0 0 INTEGER ()) 0 0 () () 0 () () () 0 0)
141 'fitnessfunction' '' 'fitnessfunction' 127 ((VARIABLE UNKNOWN-INTENT
UNKNOWN-PROC UNKNOWN UNKNOWN DUMMY) (REAL 4 0 0 REAL ()) 0 0 () () 0 ()
() () 0 0)
138 'dg' '' 'dg' 127 ((VARIABLE UNKNOWN-INTENT UNKNOWN-PROC UNKNOWN
UNKNOWN DUMMY) (REAL 4 0 0 REAL ()) 0 0 () () 0 () () () 0 0)
137 'df' '' 'df' 127 ((VARIABLE UNKNOWN-INTENT UNKNOWN-PROC UNKNOWN
UNKNOWN DUMMY) (REAL 4 0 0 REAL ()) 0 0 () () 0 () () () 0 0)
133 'g_value' '' 'g_value' 127 ((VARIABLE UNKNOWN-INTENT UNKNOWN-PROC
UNKNOWN UNKNOWN DUMMY) (REAL 4 0 0 REAL ()) 0 0 () () 0 () () () 0 0)
295 'data1' '' 'data1' 294 ((VARIABLE INOUT UNKNOWN-PROC UNKNOWN UNKNOWN
DIMENSION DUMMY) (DERIVED 512 0 0 DERIVED ()) 0 0 () (1 ASSUMED_SHAPE (
CONSTANT (INTEGER 4 0 0 INTEGER ()) 0 '1') ()) 0 () () () 0 0)
413 'fitnessfunction' '' 'fitnessfunction' 409 ((VARIABLE INOUT
UNKNOWN-PROC UNKNOWN UNKNOWN DUMMY) (DERIVED 35 0 0 DERIVED ()) 0 0 () ()
0 () () () 0 0)
412 'opts1' '' 'opts1' 409 ((VARIABLE INOUT UNKNOWN-PROC UNKNOWN UNKNOWN
DUMMY) (DERIVED 254 0 0 DERIVED ()) 0 0 () () 0 () () () 0 0)
414 'x_value' '' 'x_value' 409 ((VARIABLE INOUT UNKNOWN-PROC UNKNOWN
UNKNOWN ALLOCATABLE DIMENSION DUMMY) (REAL 8 0 0 REAL ()) 0 0 () (1
DEFERRED () ()) 0 () () () 0 0)
415 'f_value' '' 'f_value' 409 ((VARIABLE INOUT UNKNOWN-PROC UNKNOWN
UNKNOWN DUMMY) (REAL 8 0 0 REAL ()) 0 0 () () 0 () () () 0 0)
411 'exp1' '' 'exp1' 409 ((VARIABLE INOUT UNKNOWN-PROC UNKNOWN UNKNOWN
DUMMY) (DERIVED 57 0 0 DERIVED ()) 0 0 () () 0 () () () 0 0)
416 'array_stop' '' 'array_stop' 409 ((VARIABLE INOUT UNKNOWN-PROC
UNKNOWN UNKNOWN DUMMY) (DERIVED 57 0 0 DERIVED ()) 0 0 () () 0 () () ()
0 0)
418 'nproc' '' 'nproc' 409 ((VARIABLE INOUT UNKNOWN-PROC UNKNOWN UNKNOWN
DUMMY) (INTEGER 4 0 0 INTEGER ()) 0 0 () () 0 () () () 0 0)
419 'neval' '' 'neval' 409 ((VARIABLE INOUT UNKNOWN-PROC UNKNOWN UNKNOWN
DUMMY) (INTEGER 4 0 0 INTEGER ()) 0 0 () () 0 () () () 0 0)
417 'stopval' '' 'stopval' 409 ((VARIABLE INOUT UNKNOWN-PROC UNKNOWN
UNKNOWN DUMMY) (INTEGER 4 0 0 INTEGER ()) 0 0 () () 0 () () () 0 0)
410 'problem1' '' 'problem1' 409 ((VARIABLE INOUT UNKNOWN-PROC UNKNOWN
UNKNOWN DUMMY) (DERIVED 278 0 0 DERIVED ()) 0 0 () () 0 () () () 0 0)
129 'exp1' '' 'exp1' 127 ((VARIABLE UNKNOWN-INTENT UNKNOWN-PROC UNKNOWN
UNKNOWN DUMMY) (REAL 4 0 0 REAL ()) 0 0 () () 0 () () () 0 0)
128 'problem1' '' 'problem1' 127 ((VARIABLE INOUT UNKNOWN-PROC UNKNOWN
UNKNOWN DUMMY) (DERIVED 278 0 0 DERIVED ()) 0 0 () () 0 () () () 0 0)
299 'ind' '' 'ind' 297 ((VARIABLE INOUT UNKNOWN-PROC UNKNOWN UNKNOWN
DIMENSION DUMMY) (INTEGER 4 0 0 INTEGER ()) 0 0 () (1 ASSUMED_SHAPE (
CONSTANT (INTEGER 4 0 0 INTEGER ()) 0 '1') ()) 0 () () () 0 0)
298 'a' '' 'a' 297 ((VARIABLE INOUT UNKNOWN-PROC UNKNOWN UNKNOWN
DIMENSION DUMMY) (REAL 8 0 0 REAL ()) 0 0 () (1 ASSUMED_SHAPE (CONSTANT
(INTEGER 4 0 0 INTEGER ()) 0 '1') ()) 0 () () () 0 0)
434 'idopenmp' '' 'idopenmp' 427 ((VARIABLE IN UNKNOWN-PROC UNKNOWN
UNKNOWN DUMMY) (INTEGER 4 0 0 INTEGER ()) 0 0 () () 0 () () () 0 0)
433 'nconst' '' 'nconst' 427 ((VARIABLE IN UNKNOWN-PROC UNKNOWN UNKNOWN
DUMMY) (INTEGER 4 0 0 INTEGER ()) 0 0 () () 0 () () () 0 0)
431 'problem1' '' 'problem1' 427 ((VARIABLE IN UNKNOWN-PROC UNKNOWN
UNKNOWN DUMMY) (DERIVED 278 0 0 DERIVED ()) 0 0 () () 0 () () () 0 0)
484 'index1' '' 'index1' 482 ((VARIABLE IN UNKNOWN-PROC UNKNOWN UNKNOWN
DUMMY) (INTEGER 4 0 0 INTEGER ()) 0 0 () () 0 () () () 0 0)
485 'x_l' '' 'x_l' 482 ((VARIABLE IN UNKNOWN-PROC UNKNOWN UNKNOWN
ALLOCATABLE DIMENSION DUMMY) (REAL 8 0 0 REAL ()) 0 0 () (1 DEFERRED ()
()) 0 () () () 0 0)
486 'x_u' '' 'x_u' 482 ((VARIABLE IN UNKNOWN-PROC UNKNOWN UNKNOWN
ALLOCATABLE DIMENSION DUMMY) (REAL 8 0 0 REAL ()) 0 0 () (1 DEFERRED ()
()) 0 () () () 0 0)
483 'x' '' 'x' 482 ((VARIABLE INOUT UNKNOWN-PROC UNKNOWN UNKNOWN
ALLOCATABLE DIMENSION DUMMY) (REAL 8 0 0 REAL ()) 0 0 () (2 DEFERRED ()
() () ()) 0 () () () 0 0)
435 'outt' '' 'outt' 427 ((VARIABLE UNKNOWN-INTENT UNKNOWN-PROC UNKNOWN
UNKNOWN RESULT ALWAYS_EXPLICIT) (DERIVED 260 0 0 DERIVED ()) 0 0 () () 0
() () () 0 0)
121 'outfunct' '' 'outfunct' 120 ((VARIABLE INOUT UNKNOWN-PROC UNKNOWN
UNKNOWN DUMMY) (DERIVED 260 0 0 DERIVED ()) 0 0 () () 0 () () () 0 0)
429 'fitnessfunction' '' 'fitnessfunction' 427 ((VARIABLE INOUT
UNKNOWN-PROC UNKNOWN UNKNOWN DUMMY) (DERIVED 35 0 0 DERIVED ()) 0 0 () ()
0 () () () 0 0)
428 'exp1' '' 'exp1' 427 ((VARIABLE INOUT UNKNOWN-PROC UNKNOWN UNKNOWN
DUMMY) (DERIVED 57 0 0 DERIVED ()) 0 0 () () 0 () () () 0 0)
476 'nlc' '' 'nlc' 475 ((VARIABLE INOUT UNKNOWN-PROC UNKNOWN UNKNOWN
ALLOCATABLE DIMENSION DUMMY) (REAL 8 0 0 REAL ()) 0 0 () (1 DEFERRED ()
()) 0 () () () 0 0)
478 'c_u' '' 'c_u' 475 ((VARIABLE IN UNKNOWN-PROC UNKNOWN UNKNOWN
ALLOCATABLE DIMENSION DUMMY) (REAL 8 0 0 REAL ()) 0 0 () (1 DEFERRED ()
()) 0 () () () 0 0)
479 'tolc' '' 'tolc' 475 ((VARIABLE IN UNKNOWN-PROC UNKNOWN UNKNOWN
DUMMY) (REAL 8 0 0 REAL ()) 0 0 () () 0 () () () 0 0)
480 'res' '' 'res' 475 ((VARIABLE UNKNOWN-INTENT UNKNOWN-PROC UNKNOWN
UNKNOWN RESULT ALWAYS_EXPLICIT) (REAL 8 0 0 REAL ()) 0 0 () () 0 () () ()
0 0)
477 'c_l' '' 'c_l' 475 ((VARIABLE IN UNKNOWN-PROC UNKNOWN UNKNOWN
ALLOCATABLE DIMENSION DUMMY) (REAL 8 0 0 REAL ()) 0 0 () (1 DEFERRED ()
()) 0 () () () 0 0)
242 'res' '' 'res' 239 ((VARIABLE INOUT UNKNOWN-PROC UNKNOWN UNKNOWN
ALLOCATABLE DIMENSION DUMMY) (REAL 8 0 0 REAL ()) 0 0 () (2 DEFERRED ()
() () ()) 0 () () () 0 0)
439 'group' '' 'group' 437 ((VARIABLE INOUT UNKNOWN-PROC UNKNOWN UNKNOWN
ALLOCATABLE DIMENSION DUMMY) (REAL 8 0 0 REAL ()) 0 0 () (2 DEFERRED ()
() () ()) 0 () () () 0 0)
438 'x' '' 'x' 437 ((VARIABLE IN UNKNOWN-PROC UNKNOWN UNKNOWN
ALLOCATABLE DIMENSION DUMMY) (REAL 8 0 0 REAL ()) 0 0 () (1 DEFERRED ()
()) 0 () () () 0 0)
440 'tol' '' 'tol' 437 ((VARIABLE IN UNKNOWN-PROC UNKNOWN UNKNOWN DUMMY)
(REAL 8 0 0 REAL ()) 0 0 () () 0 () () () 0 0)
441 'flag' '' 'flag' 437 ((VARIABLE IN UNKNOWN-PROC UNKNOWN UNKNOWN
DUMMY) (INTEGER 4 0 0 INTEGER ()) 0 0 () () 0 () () () 0 0)
442 'f' '' 'f' 437 ((VARIABLE INOUT UNKNOWN-PROC UNKNOWN UNKNOWN DUMMY)
(REAL 8 0 0 REAL ()) 0 0 () () 0 () () () 0 0)
443 'ind' '' 'ind' 437 ((VARIABLE INOUT UNKNOWN-PROC UNKNOWN UNKNOWN
ALLOCATABLE DIMENSION DUMMY) (INTEGER 4 0 0 INTEGER ()) 0 0 () (1
DEFERRED () ()) 0 () () () 0 0)
444 'ind2' '' 'ind2' 437 ((VARIABLE INOUT UNKNOWN-PROC UNKNOWN UNKNOWN
ALLOCATABLE DIMENSION DUMMY) (INTEGER 4 0 0 INTEGER ()) 0 0 () (1
DEFERRED () ()) 0 () () () 0 0)
447 'exp1' '' 'exp1' 446 ((VARIABLE INOUT UNKNOWN-PROC UNKNOWN UNKNOWN
DUMMY) (DERIVED 57 0 0 DERIVED ()) 0 0 () () 0 () () () 0 0)
448 'problem1' '' 'problem1' 446 ((VARIABLE INOUT UNKNOWN-PROC UNKNOWN
UNKNOWN DUMMY) (DERIVED 278 0 0 DERIVED ()) 0 0 () () 0 () () () 0 0)
449 'fitnessfunction' '' 'fitnessfunction' 446 ((VARIABLE INOUT
UNKNOWN-PROC UNKNOWN UNKNOWN DUMMY) (DERIVED 35 0 0 DERIVED ()) 0 0 () ()
0 () () () 0 0)
450 'opts1' '' 'opts1' 446 ((VARIABLE INOUT UNKNOWN-PROC UNKNOWN UNKNOWN
DUMMY) (DERIVED 254 0 0 DERIVED ()) 0 0 () () 0 () () () 0 0)
451 'childset' '' 'childset' 446 ((VARIABLE INOUT UNKNOWN-PROC UNKNOWN
UNKNOWN DUMMY) (DERIVED 370 0 0 DERIVED ()) 0 0 () () 0 () () () 0 0)
452 'n_minimo' '' 'n_minimo' 446 ((VARIABLE INOUT UNKNOWN-PROC UNKNOWN
UNKNOWN DUMMY) (INTEGER 4 0 0 INTEGER ()) 0 0 () () 0 () () () 0 0)
453 'use_bestx' '' 'use_bestx' 446 ((VARIABLE INOUT UNKNOWN-PROC UNKNOWN
UNKNOWN DUMMY) (INTEGER 4 0 0 INTEGER ()) 0 0 () () 0 () () () 0 0)
454 'stage_1' '' 'stage_1' 446 ((VARIABLE INOUT UNKNOWN-PROC UNKNOWN
UNKNOWN DUMMY) (INTEGER 4 0 0 INTEGER ()) 0 0 () () 0 () () () 0 0)
455 'stage_2' '' 'stage_2' 446 ((VARIABLE INOUT UNKNOWN-PROC UNKNOWN
UNKNOWN DUMMY) (INTEGER 4 0 0 INTEGER ()) 0 0 () () 0 () () () 0 0)
456 'xbest' '' 'xbest' 446 ((VARIABLE INOUT UNKNOWN-PROC UNKNOWN UNKNOWN
ALLOCATABLE DIMENSION DUMMY) (REAL 8 0 0 REAL ()) 0 0 () (1 DEFERRED ()
()) 0 () () () 0 0)
457 'fbest' '' 'fbest' 446 ((VARIABLE INOUT UNKNOWN-PROC UNKNOWN UNKNOWN
ALLOCATABLE DIMENSION DUMMY) (REAL 8 0 0 REAL ()) 0 0 () (1 DEFERRED ()
()) 0 () () () 0 0)
458 'n_critico' '' 'n_critico' 446 ((VARIABLE INOUT UNKNOWN-PROC UNKNOWN
UNKNOWN DUMMY) (INTEGER 4 0 0 INTEGER ()) 0 0 () () 0 () () () 0 0)
459 'nvar' '' 'nvar' 446 ((VARIABLE IN UNKNOWN-PROC UNKNOWN UNKNOWN
DUMMY) (INTEGER 4 0 0 INTEGER ()) 0 0 () () 0 () () () 0 0)
460 'local_solutions' '' 'local_solutions' 446 ((VARIABLE INOUT
UNKNOWN-PROC UNKNOWN UNKNOWN ALLOCATABLE DIMENSION DUMMY) (REAL 8 0 0
REAL ()) 0 0 () (2 DEFERRED () () () ()) 0 () () () 0 0)
461 'local_solutions_values' '' 'local_solutions_values' 446 ((VARIABLE
INOUT UNKNOWN-PROC UNKNOWN UNKNOWN ALLOCATABLE DIMENSION DUMMY) (REAL 8
0 0 REAL ()) 0 0 () (1 DEFERRED () ()) 0 () () () 0 0)
462 'initial_points' '' 'initial_points' 446 ((VARIABLE INOUT
UNKNOWN-PROC UNKNOWN UNKNOWN ALLOCATABLE DIMENSION DUMMY) (REAL 8 0 0
REAL ()) 0 0 () (2 DEFERRED () () () ()) 0 () () () 0 0)
463 'initial_points_values' '' 'initial_points_values' 446 ((VARIABLE
INOUT UNKNOWN-PROC UNKNOWN UNKNOWN ALLOCATABLE DIMENSION DUMMY) (REAL 8
0 0 REAL ()) 0 0 () (1 DEFERRED () ()) 0 () () () 0 0)
464 'stopval' '' 'stopval' 446 ((VARIABLE INOUT UNKNOWN-PROC UNKNOWN
UNKNOWN DUMMY) (INTEGER 4 0 0 INTEGER ()) 0 0 () () 0 () () () 0 0)
465 'nproc' '' 'nproc' 446 ((VARIABLE INOUT UNKNOWN-PROC UNKNOWN UNKNOWN
DUMMY) (INTEGER 4 0 0 INTEGER ()) 0 0 () () 0 () () () 0 0)
466 'numeval' '' 'numeval' 446 ((VARIABLE INOUT UNKNOWN-PROC UNKNOWN
UNKNOWN DUMMY) (INTEGER 8 1 0 INTEGER ()) 0 0 () () 0 () () () 0 0)
467 'fbest_lastiter' '' 'fbest_lastiter' 446 ((VARIABLE INOUT
UNKNOWN-PROC UNKNOWN UNKNOWN ALLOCATABLE DIMENSION DUMMY) (REAL 8 0 0
REAL ()) 0 0 () (1 DEFERRED () ()) 0 () () () 0 0)
468 'results' '' 'results' 446 ((VARIABLE INOUT UNKNOWN-PROC UNKNOWN
UNKNOWN DUMMY) (DERIVED 381 0 0 DERIVED ()) 0 0 () () 0 () () () 0 0)
469 'refset' '' 'refset' 446 ((VARIABLE INOUT UNKNOWN-PROC UNKNOWN
UNKNOWN DUMMY) (DERIVED 370 0 0 DERIVED ()) 0 0 () () 0 () () () 0 0)
470 'refset_change' '' 'refset_change' 446 ((VARIABLE INOUT UNKNOWN-PROC
UNKNOWN UNKNOWN ALLOCATABLE DIMENSION DUMMY) (INTEGER 4 0 0 INTEGER ())
0 0 () (1 DEFERRED () ()) 0 () () () 0 0)
471 'output' '' 'output' 446 ((VARIABLE INOUT UNKNOWN-PROC UNKNOWN
UNKNOWN DUMMY) (DERIVED 57 0 0 DERIVED ()) 0 0 () () 0 () () () 0 0)
472 'locals' '' 'locals' 446 ((VARIABLE INOUT UNKNOWN-PROC UNKNOWN
UNKNOWN DUMMY) (DERIVED 57 0 0 DERIVED ()) 0 0 () () 0 () () () 0 0)
473 'localtime' '' 'localtime' 446 ((VARIABLE INOUT UNKNOWN-PROC UNKNOWN
UNKNOWN DUMMY) (REAL 8 1 0 REAL ()) 0 0 () () 0 () () () 0 0)
)

('__iso_c_binding' 0 2 'abs_matrix' 0 3 'all_positive' 0 7 'auxprecisin'
0 10 'c_alert' 0 11 'c_associated' 0 12 'c_backspace' 0 16 'c_bool' 0 17
'c_carriage_return' 0 18 'c_char' 0 19 'c_double' 0 20 'c_double_complex'
0 21 'c_f_pointer' 0 22 'c_f_procpointer' 0 27 'c_float' 0 31
'c_float_complex' 0 32 'c_form_feed' 0 33 'c_funloc' 0 34 'c_funptr' 0
35 'c_horizontal_tab' 0 37 'c_int' 0 38 'c_int128_t' 0 39 'c_int16_t' 0
40 'c_int32_t' 0 41 'c_int64_t' 0 42 'c_int8_t' 0 43 'c_int_fast128_t' 0
44 'c_int_fast16_t' 0 45 'c_int_fast32_t' 0 46 'c_int_fast64_t' 0 47
'c_int_fast8_t' 0 48 'c_int_least128_t' 0 49 'c_int_least16_t' 0 50
'c_int_least32_t' 0 51 'c_int_least64_t' 0 52 'c_int_least8_t' 0 53
'c_intmax_t' 0 54 'c_intptr_t' 0 55 'c_loc' 0 56 'c_long' 0 58
'c_long_double' 0 59 'c_long_double_complex' 0 60 'c_long_long' 0 61
'c_new_line' 0 62 'c_null_char' 0 63 'c_null_funptr' 0 64 'c_null_ptr' 0
65 'c_ptr' 0 57 'c_short' 0 67 'c_signed_char' 0 68 'c_size_t' 0 69
'c_vertical_tab' 0 70 'call_local_solver' 0 71 'choose' 0 83
'common_functions' 0 87 'compare_matrix' 0 88 'compare_multiple_matrix'
0 94 'compare_multiple_vector' 0 101 'compare_vector' 0 108
'delete_values_vector_int' 0 115 'destroy_outfuction' 0 119
'destroy_vector' 0 122 'eps_m' 0 125 'evaluate_gradient' 0 126 'ex1' 0
142 'extraparametters' 0 145 'find_in_vector' 0 153 'find_in_vector_int'
0 159 'findinteger' 0 165 'funcevalinterface' 0 170 'fusion_matrix' 0
171 'fusion_vector' 0 175 'fusion_vector_int' 0 179 'goptions' 0 183
'index_of_ones' 0 196 'index_of_ones_matrix' 0 200 'infinite' 0 204
'inicializa_vector' 0 205 'inicializa_vector_value' 0 209
'insert_dinamic_vector_double_precission' 0 214 'local_solver' 0 218
'localsolver' 0 219 'loptions' 0 220 'matrix_eucl_dist' 0 238 'max_matrix'
0 243 'misqp_interface' 0 248 'nchoosek_fpar' 0 249 'opts' 0 254
'outfuction' 0 260 'precision_d' 0 267 'precision_f' 0 268 'print_matrix'
0 269 'print_matrix_integer' 0 272 'print_vector' 0 275 'problem' 0 278
'qsort_module' 0 292 'qsortc' 0 293 'qsortc_ind' 0 296
'random_det_matrix_seed_10' 0 300 'random_det_number' 0 307
'random_det_vector_5' 0 312 'random_det_vector_seed' 0 321
'random_det_vector_seed_10' 0 329 'random_matrix_seed_10' 0 335
'random_vector_5' 0 341 'random_vector_seed' 0 349 'random_vector_seed_10'
0 356 'randperm_int' 0 361 'range_d' 0 364 'range_f' 0 365 'reajust_index'
0 366 'real' 0 369 'refsettype' 0 370 'replace_matrix' 0 377 'resultsf'
0 381 'return_random_number' 0 394 'return_values_matrix_index' 0 398
'row_one' 0 403 'run_misqp' 0 408 'scattersearchtypes' 0 420
'selected_real_kind' 0 421 'square_roots_polinom' 0 422 'ssm_evalfc' 0
426 'ssm_isdif2' 0 436 'ssm_local_filters' 0 445 'ssm_penalty_function'
0 474 'ssm_round_int' 0 481 'tol_prec' 0 487 'topology_data_fortran' 0
488 'transform_norm' 0 493 'uoptions' 0 257 'valuepos' 0 512
'variance_vector' 0 515)
